Riskfactor	Issue	Sex	Age	Coefficient
Nuts	Ihd	male	15	1.169
Nuts	Ihd	male	16	1.169
Nuts	Ihd	male	17	1.169
Nuts	Ihd	male	18	1.169
Nuts	Ihd	male	19	1.169
Nuts	Ihd	male	20	1.169
Nuts	Ihd	male	21	1.169
Nuts	Ihd	male	22	1.169
Nuts	Ihd	male	23	1.169
Nuts	Ihd	male	24	1.169
Nuts	Ihd	male	25	1.209
Nuts	Ihd	male	26	1.209
Nuts	Ihd	male	27	1.209
Nuts	Ihd	male	28	1.209
Nuts	Ihd	male	29	1.209
Nuts	Ihd	male	30	1.169
Nuts	Ihd	male	31	1.169
Nuts	Ihd	male	32	1.169
Nuts	Ihd	male	33	1.169
Nuts	Ihd	male	34	1.169
Nuts	Ihd	male	35	1.124
Nuts	Ihd	male	36	1.124
Nuts	Ihd	male	37	1.124
Nuts	Ihd	male	38	1.124
Nuts	Ihd	male	39	1.124
Nuts	Ihd	male	40	1.099
Nuts	Ihd	male	41	1.099
Nuts	Ihd	male	42	1.099
Nuts	Ihd	male	43	1.099
Nuts	Ihd	male	44	1.099
Nuts	Ihd	male	45	1.095
Nuts	Ihd	male	46	1.095
Nuts	Ihd	male	47	1.095
Nuts	Ihd	male	48	1.095
Nuts	Ihd	male	49	1.095
Nuts	Ihd	male	50	1.088
Nuts	Ihd	male	51	1.088
Nuts	Ihd	male	52	1.088
Nuts	Ihd	male	53	1.088
Nuts	Ihd	male	54	1.088
Nuts	Ihd	male	55	1.076
Nuts	Ihd	male	56	1.076
Nuts	Ihd	male	57	1.076
Nuts	Ihd	male	58	1.076
Nuts	Ihd	male	59	1.076
Nuts	Ihd	male	60	1.066
Nuts	Ihd	male	61	1.066
Nuts	Ihd	male	62	1.066
Nuts	Ihd	male	63	1.066
Nuts	Ihd	male	64	1.066
Nuts	Ihd	male	65	1.059
Nuts	Ihd	male	66	1.059
Nuts	Ihd	male	67	1.059
Nuts	Ihd	male	68	1.059
Nuts	Ihd	male	69	1.059
Nuts	Ihd	male	70	1.054
Nuts	Ihd	male	71	1.054
Nuts	Ihd	male	72	1.054
Nuts	Ihd	male	73	1.054
Nuts	Ihd	male	74	1.054
Nuts	Ihd	male	75	1.05
Nuts	Ihd	male	76	1.05
Nuts	Ihd	male	77	1.05
Nuts	Ihd	male	78	1.05
Nuts	Ihd	male	79	1.05
Nuts	Ihd	male	80	1.046
Nuts	Ihd	male	81	1.046
Nuts	Ihd	male	82	1.046
Nuts	Ihd	male	83	1.046
Nuts	Ihd	male	84	1.046
Nuts	Ihd	male	85	1.046
Nuts	Ihd	male	86	1.046
Nuts	Ihd	male	87	1.046
Nuts	Ihd	male	88	1.046
Nuts	Ihd	male	89	1.046
Nuts	Ihd	male	90	1.046
Nuts	Ihd	male	91	1.046
Nuts	Ihd	male	92	1.046
Nuts	Ihd	male	93	1.046
Nuts	Ihd	male	94	1.046
Nuts	Ihd	male	95	1.046
Nuts	Ihd	male	96	1.046
Nuts	Ihd	male	97	1.046
Nuts	Ihd	male	98	1.046
Nuts	Ihd	male	99	1.046
Nuts	Ihd	female	15	1.169
Nuts	Ihd	female	16	1.169
Nuts	Ihd	female	17	1.169
Nuts	Ihd	female	18	1.169
Nuts	Ihd	female	19	1.169
Nuts	Ihd	female	20	1.169
Nuts	Ihd	female	21	1.169
Nuts	Ihd	female	22	1.169
Nuts	Ihd	female	23	1.169
Nuts	Ihd	female	24	1.169
Nuts	Ihd	female	25	1.209
Nuts	Ihd	female	26	1.209
Nuts	Ihd	female	27	1.209
Nuts	Ihd	female	28	1.209
Nuts	Ihd	female	29	1.209
Nuts	Ihd	female	30	1.169
Nuts	Ihd	female	31	1.169
Nuts	Ihd	female	32	1.169
Nuts	Ihd	female	33	1.169
Nuts	Ihd	female	34	1.169
Nuts	Ihd	female	35	1.124
Nuts	Ihd	female	36	1.124
Nuts	Ihd	female	37	1.124
Nuts	Ihd	female	38	1.124
Nuts	Ihd	female	39	1.124
Nuts	Ihd	female	40	1.099
Nuts	Ihd	female	41	1.099
Nuts	Ihd	female	42	1.099
Nuts	Ihd	female	43	1.099
Nuts	Ihd	female	44	1.099
Nuts	Ihd	female	45	1.095
Nuts	Ihd	female	46	1.095
Nuts	Ihd	female	47	1.095
Nuts	Ihd	female	48	1.095
Nuts	Ihd	female	49	1.095
Nuts	Ihd	female	50	1.088
Nuts	Ihd	female	51	1.088
Nuts	Ihd	female	52	1.088
Nuts	Ihd	female	53	1.088
Nuts	Ihd	female	54	1.088
Nuts	Ihd	female	55	1.076
Nuts	Ihd	female	56	1.076
Nuts	Ihd	female	57	1.076
Nuts	Ihd	female	58	1.076
Nuts	Ihd	female	59	1.076
Nuts	Ihd	female	60	1.066
Nuts	Ihd	female	61	1.066
Nuts	Ihd	female	62	1.066
Nuts	Ihd	female	63	1.066
Nuts	Ihd	female	64	1.066
Nuts	Ihd	female	65	1.059
Nuts	Ihd	female	66	1.059
Nuts	Ihd	female	67	1.059
Nuts	Ihd	female	68	1.059
Nuts	Ihd	female	69	1.059
Nuts	Ihd	female	70	1.054
Nuts	Ihd	female	71	1.054
Nuts	Ihd	female	72	1.054
Nuts	Ihd	female	73	1.054
Nuts	Ihd	female	74	1.054
Nuts	Ihd	female	75	1.05
Nuts	Ihd	female	76	1.05
Nuts	Ihd	female	77	1.05
Nuts	Ihd	female	78	1.05
Nuts	Ihd	female	79	1.05
Nuts	Ihd	female	80	1.046
Nuts	Ihd	female	81	1.046
Nuts	Ihd	female	82	1.046
Nuts	Ihd	female	83	1.046
Nuts	Ihd	female	84	1.046
Nuts	Ihd	female	85	1.046
Nuts	Ihd	female	86	1.046
Nuts	Ihd	female	87	1.046
Nuts	Ihd	female	88	1.046
Nuts	Ihd	female	89	1.046
Nuts	Ihd	female	90	1.046
Nuts	Ihd	female	91	1.046
Nuts	Ihd	female	92	1.046
Nuts	Ihd	female	93	1.046
Nuts	Ihd	female	94	1.046
Nuts	Ihd	female	95	1.046
Nuts	Ihd	female	96	1.046
Nuts	Ihd	female	97	1.046
Nuts	Ihd	female	98	1.046
Nuts	Ihd	female	99	1.046
Nuts	Dm	male	15	1.051
Nuts	Dm	male	16	1.051
Nuts	Dm	male	17	1.051
Nuts	Dm	male	18	1.051
Nuts	Dm	male	19	1.051
Nuts	Dm	male	20	1.051
Nuts	Dm	male	21	1.051
Nuts	Dm	male	22	1.051
Nuts	Dm	male	23	1.051
Nuts	Dm	male	24	1.051
Nuts	Dm	male	25	1.05
Nuts	Dm	male	26	1.05
Nuts	Dm	male	27	1.05
Nuts	Dm	male	28	1.05
Nuts	Dm	male	29	1.05
Nuts	Dm	male	30	1.049
Nuts	Dm	male	31	1.049
Nuts	Dm	male	32	1.049
Nuts	Dm	male	33	1.049
Nuts	Dm	male	34	1.049
Nuts	Dm	male	35	1.048
Nuts	Dm	male	36	1.048
Nuts	Dm	male	37	1.048
Nuts	Dm	male	38	1.048
Nuts	Dm	male	39	1.048
Nuts	Dm	male	40	1.045
Nuts	Dm	male	41	1.045
Nuts	Dm	male	42	1.045
Nuts	Dm	male	43	1.045
Nuts	Dm	male	44	1.045
Nuts	Dm	male	45	1.041
Nuts	Dm	male	46	1.041
Nuts	Dm	male	47	1.041
Nuts	Dm	male	48	1.041
Nuts	Dm	male	49	1.041
Nuts	Dm	male	50	1.038
Nuts	Dm	male	51	1.038
Nuts	Dm	male	52	1.038
Nuts	Dm	male	53	1.038
Nuts	Dm	male	54	1.038
Nuts	Dm	male	55	1.035
Nuts	Dm	male	56	1.035
Nuts	Dm	male	57	1.035
Nuts	Dm	male	58	1.035
Nuts	Dm	male	59	1.035
Nuts	Dm	male	60	1.031
Nuts	Dm	male	61	1.031
Nuts	Dm	male	62	1.031
Nuts	Dm	male	63	1.031
Nuts	Dm	male	64	1.031
Nuts	Dm	male	65	1.028
Nuts	Dm	male	66	1.028
Nuts	Dm	male	67	1.028
Nuts	Dm	male	68	1.028
Nuts	Dm	male	69	1.028
Nuts	Dm	male	70	1.025
Nuts	Dm	male	71	1.025
Nuts	Dm	male	72	1.025
Nuts	Dm	male	73	1.025
Nuts	Dm	male	74	1.025
Nuts	Dm	male	75	1.022
Nuts	Dm	male	76	1.022
Nuts	Dm	male	77	1.022
Nuts	Dm	male	78	1.022
Nuts	Dm	male	79	1.022
Nuts	Dm	male	80	1.015
Nuts	Dm	male	81	1.015
Nuts	Dm	male	82	1.015
Nuts	Dm	male	83	1.015
Nuts	Dm	male	84	1.015
Nuts	Dm	male	85	1.015
Nuts	Dm	male	86	1.015
Nuts	Dm	male	87	1.015
Nuts	Dm	male	88	1.015
Nuts	Dm	male	89	1.015
Nuts	Dm	male	90	1.015
Nuts	Dm	male	91	1.015
Nuts	Dm	male	92	1.015
Nuts	Dm	male	93	1.015
Nuts	Dm	male	94	1.015
Nuts	Dm	male	95	1.015
Nuts	Dm	male	96	1.015
Nuts	Dm	male	97	1.015
Nuts	Dm	male	98	1.015
Nuts	Dm	male	99	1.015
Nuts	Dm	female	15	1.051
Nuts	Dm	female	16	1.051
Nuts	Dm	female	17	1.051
Nuts	Dm	female	18	1.051
Nuts	Dm	female	19	1.051
Nuts	Dm	female	20	1.051
Nuts	Dm	female	21	1.051
Nuts	Dm	female	22	1.051
Nuts	Dm	female	23	1.051
Nuts	Dm	female	24	1.051
Nuts	Dm	female	25	1.05
Nuts	Dm	female	26	1.05
Nuts	Dm	female	27	1.05
Nuts	Dm	female	28	1.05
Nuts	Dm	female	29	1.05
Nuts	Dm	female	30	1.049
Nuts	Dm	female	31	1.049
Nuts	Dm	female	32	1.049
Nuts	Dm	female	33	1.049
Nuts	Dm	female	34	1.049
Nuts	Dm	female	35	1.048
Nuts	Dm	female	36	1.048
Nuts	Dm	female	37	1.048
Nuts	Dm	female	38	1.048
Nuts	Dm	female	39	1.048
Nuts	Dm	female	40	1.045
Nuts	Dm	female	41	1.045
Nuts	Dm	female	42	1.045
Nuts	Dm	female	43	1.045
Nuts	Dm	female	44	1.045
Nuts	Dm	female	45	1.041
Nuts	Dm	female	46	1.041
Nuts	Dm	female	47	1.041
Nuts	Dm	female	48	1.041
Nuts	Dm	female	49	1.041
Nuts	Dm	female	50	1.038
Nuts	Dm	female	51	1.038
Nuts	Dm	female	52	1.038
Nuts	Dm	female	53	1.038
Nuts	Dm	female	54	1.038
Nuts	Dm	female	55	1.035
Nuts	Dm	female	56	1.035
Nuts	Dm	female	57	1.035
Nuts	Dm	female	58	1.035
Nuts	Dm	female	59	1.035
Nuts	Dm	female	60	1.031
Nuts	Dm	female	61	1.031
Nuts	Dm	female	62	1.031
Nuts	Dm	female	63	1.031
Nuts	Dm	female	64	1.031
Nuts	Dm	female	65	1.028
Nuts	Dm	female	66	1.028
Nuts	Dm	female	67	1.028
Nuts	Dm	female	68	1.028
Nuts	Dm	female	69	1.028
Nuts	Dm	female	70	1.025
Nuts	Dm	female	71	1.025
Nuts	Dm	female	72	1.025
Nuts	Dm	female	73	1.025
Nuts	Dm	female	74	1.025
Nuts	Dm	female	75	1.022
Nuts	Dm	female	76	1.022
Nuts	Dm	female	77	1.022
Nuts	Dm	female	78	1.022
Nuts	Dm	female	79	1.022
Nuts	Dm	female	80	1.015
Nuts	Dm	female	81	1.015
Nuts	Dm	female	82	1.015
Nuts	Dm	female	83	1.015
Nuts	Dm	female	84	1.015
Nuts	Dm	female	85	1.015
Nuts	Dm	female	86	1.015
Nuts	Dm	female	87	1.015
Nuts	Dm	female	88	1.015
Nuts	Dm	female	89	1.015
Nuts	Dm	female	90	1.015
Nuts	Dm	female	91	1.015
Nuts	Dm	female	92	1.015
Nuts	Dm	female	93	1.015
Nuts	Dm	female	94	1.015
Nuts	Dm	female	95	1.015
Nuts	Dm	female	96	1.015
Nuts	Dm	female	97	1.015
Nuts	Dm	female	98	1.015
Nuts	Dm	female	99	1.015