Riskfactor	Issue	Sex	Age	Coefficient
Omega3	Ihd	male	15	1.249
Omega3	Ihd	male	16	1.249
Omega3	Ihd	male	17	1.249
Omega3	Ihd	male	18	1.249
Omega3	Ihd	male	19	1.249
Omega3	Ihd	male	20	1.249
Omega3	Ihd	male	21	1.249
Omega3	Ihd	male	22	1.249
Omega3	Ihd	male	23	1.249
Omega3	Ihd	male	24	1.249
Omega3	Ihd	male	25	1.291
Omega3	Ihd	male	26	1.291
Omega3	Ihd	male	27	1.291
Omega3	Ihd	male	28	1.291
Omega3	Ihd	male	29	1.291
Omega3	Ihd	male	30	1.249
Omega3	Ihd	male	31	1.249
Omega3	Ihd	male	32	1.249
Omega3	Ihd	male	33	1.249
Omega3	Ihd	male	34	1.249
Omega3	Ihd	male	35	1.199
Omega3	Ihd	male	36	1.199
Omega3	Ihd	male	37	1.199
Omega3	Ihd	male	38	1.199
Omega3	Ihd	male	39	1.199
Omega3	Ihd	male	40	1.173
Omega3	Ihd	male	41	1.173
Omega3	Ihd	male	42	1.173
Omega3	Ihd	male	43	1.173
Omega3	Ihd	male	44	1.173
Omega3	Ihd	male	45	1.165
Omega3	Ihd	male	46	1.165
Omega3	Ihd	male	47	1.165
Omega3	Ihd	male	48	1.165
Omega3	Ihd	male	49	1.165
Omega3	Ihd	male	50	1.154
Omega3	Ihd	male	51	1.154
Omega3	Ihd	male	52	1.154
Omega3	Ihd	male	53	1.154
Omega3	Ihd	male	54	1.154
Omega3	Ihd	male	55	1.14
Omega3	Ihd	male	56	1.14
Omega3	Ihd	male	57	1.14
Omega3	Ihd	male	58	1.14
Omega3	Ihd	male	59	1.14
Omega3	Ihd	male	60	1.126
Omega3	Ihd	male	61	1.126
Omega3	Ihd	male	62	1.126
Omega3	Ihd	male	63	1.126
Omega3	Ihd	male	64	1.126
Omega3	Ihd	male	65	1.113
Omega3	Ihd	male	66	1.113
Omega3	Ihd	male	67	1.113
Omega3	Ihd	male	68	1.113
Omega3	Ihd	male	69	1.113
Omega3	Ihd	male	70	1.101
Omega3	Ihd	male	71	1.101
Omega3	Ihd	male	72	1.101
Omega3	Ihd	male	73	1.101
Omega3	Ihd	male	74	1.101
Omega3	Ihd	male	75	1.088
Omega3	Ihd	male	76	1.088
Omega3	Ihd	male	77	1.088
Omega3	Ihd	male	78	1.088
Omega3	Ihd	male	79	1.088
Omega3	Ihd	male	80	1.062
Omega3	Ihd	male	81	1.062
Omega3	Ihd	male	82	1.062
Omega3	Ihd	male	83	1.062
Omega3	Ihd	male	84	1.062
Omega3	Ihd	male	85	1.062
Omega3	Ihd	male	86	1.062
Omega3	Ihd	male	87	1.062
Omega3	Ihd	male	88	1.062
Omega3	Ihd	male	89	1.062
Omega3	Ihd	male	90	1.062
Omega3	Ihd	male	91	1.062
Omega3	Ihd	male	92	1.062
Omega3	Ihd	male	93	1.062
Omega3	Ihd	male	94	1.062
Omega3	Ihd	male	95	1.062
Omega3	Ihd	male	96	1.062
Omega3	Ihd	male	97	1.062
Omega3	Ihd	male	98	1.062
Omega3	Ihd	male	99	1.062
Omega3	Ihd	female	15	1.249
Omega3	Ihd	female	16	1.249
Omega3	Ihd	female	17	1.249
Omega3	Ihd	female	18	1.249
Omega3	Ihd	female	19	1.249
Omega3	Ihd	female	20	1.249
Omega3	Ihd	female	21	1.249
Omega3	Ihd	female	22	1.249
Omega3	Ihd	female	23	1.249
Omega3	Ihd	female	24	1.249
Omega3	Ihd	female	25	1.291
Omega3	Ihd	female	26	1.291
Omega3	Ihd	female	27	1.291
Omega3	Ihd	female	28	1.291
Omega3	Ihd	female	29	1.291
Omega3	Ihd	female	30	1.249
Omega3	Ihd	female	31	1.249
Omega3	Ihd	female	32	1.249
Omega3	Ihd	female	33	1.249
Omega3	Ihd	female	34	1.249
Omega3	Ihd	female	35	1.199
Omega3	Ihd	female	36	1.199
Omega3	Ihd	female	37	1.199
Omega3	Ihd	female	38	1.199
Omega3	Ihd	female	39	1.199
Omega3	Ihd	female	40	1.173
Omega3	Ihd	female	41	1.173
Omega3	Ihd	female	42	1.173
Omega3	Ihd	female	43	1.173
Omega3	Ihd	female	44	1.173
Omega3	Ihd	female	45	1.165
Omega3	Ihd	female	46	1.165
Omega3	Ihd	female	47	1.165
Omega3	Ihd	female	48	1.165
Omega3	Ihd	female	49	1.165
Omega3	Ihd	female	50	1.154
Omega3	Ihd	female	51	1.154
Omega3	Ihd	female	52	1.154
Omega3	Ihd	female	53	1.154
Omega3	Ihd	female	54	1.154
Omega3	Ihd	female	55	1.14
Omega3	Ihd	female	56	1.14
Omega3	Ihd	female	57	1.14
Omega3	Ihd	female	58	1.14
Omega3	Ihd	female	59	1.14
Omega3	Ihd	female	60	1.126
Omega3	Ihd	female	61	1.126
Omega3	Ihd	female	62	1.126
Omega3	Ihd	female	63	1.126
Omega3	Ihd	female	64	1.126
Omega3	Ihd	female	65	1.113
Omega3	Ihd	female	66	1.113
Omega3	Ihd	female	67	1.113
Omega3	Ihd	female	68	1.113
Omega3	Ihd	female	69	1.113
Omega3	Ihd	female	70	1.101
Omega3	Ihd	female	71	1.101
Omega3	Ihd	female	72	1.101
Omega3	Ihd	female	73	1.101
Omega3	Ihd	female	74	1.101
Omega3	Ihd	female	75	1.088
Omega3	Ihd	female	76	1.088
Omega3	Ihd	female	77	1.088
Omega3	Ihd	female	78	1.088
Omega3	Ihd	female	79	1.088
Omega3	Ihd	female	80	1.062
Omega3	Ihd	female	81	1.062
Omega3	Ihd	female	82	1.062
Omega3	Ihd	female	83	1.062
Omega3	Ihd	female	84	1.062
Omega3	Ihd	female	85	1.062
Omega3	Ihd	female	86	1.062
Omega3	Ihd	female	87	1.062
Omega3	Ihd	female	88	1.062
Omega3	Ihd	female	89	1.062
Omega3	Ihd	female	90	1.062
Omega3	Ihd	female	91	1.062
Omega3	Ihd	female	92	1.062
Omega3	Ihd	female	93	1.062
Omega3	Ihd	female	94	1.062
Omega3	Ihd	female	95	1.062
Omega3	Ihd	female	96	1.062
Omega3	Ihd	female	97	1.062
Omega3	Ihd	female	98	1.062
Omega3	Ihd	female	99	1.062