﻿{
  "ClubCount": "Cantidad de Palos",
  "ClubModel": "Modelo de palo ",
  "LogoOrientation": "Orientación del logo",
  "LogoOrientation2": "Orientación de Shaft",
  "AcrylicGluingWelcomeMessage": "Escanee o escriba una orden de trabajo para ver los detalles de Acrílico / ",
  "ShaftType": "Modelo de Shaft",
  "Curing": "Curación",
  "Done": "Hecho",
  "AlignmentCuringWelcomeMessage": "Escanee o escriba una orden de trabajo para agregar para ingresar al carrusel y curar",
  "TimeRemaining": "Tiempo restante",
  "HeadRange": "Rango de palos",
  "LieLoft": "Lie & Loft",
  "BendingWelcomeMessage": " Escanee o escriba una orden de trabajo para ver los detalles de Bending",
  "Grip": "Grip",
  "LongestLength": "Longitud mayor",
  "InspectionWelcomeMessage": "Escanee o escriba una orden de trabajo para ver los detalles de la inspección",
  "TipAdjustment": "Ajuste de punta",
  "TipPrep": "TipPrep",
  "GripLocation": "Orientacion de grip",
  "GripWraps": "Cantidad Tape",
  "GripWelcomeMessage": "Escanee o escriba una orden de trabajo para ver los detalles del agarre",
  "Head": "Cabeza",
  "Quantity": "Cantidad",
  "PickingWelcomeMessage": "Escanee o escriba una orden de trabajo para ver los detalles de selección",
  "Shaft": "Palo",
  "ButtCut": "Corte de Cola",
  "ShaftCutWelcomeMessage": "Escanee o escriba una orden de trabajo para ver los detalles del agarre",
  "TemplateNumberButt": "Plato corte de Cola (BUTT)",
  "TemplateNumberTip": "Plato corte de Punta (TIP)",
  "SwingWeightWelcomeMessage": "Escanee o escriba una orden de trabajo para ver los detalles de selección",
  "SwingWeightRange": "Rango de Peso ",
  "TargetWeight": "Peso objetivo",
  "TargetWeight79": "Peso objetivo - # 7 / # 9",
  "TargetWeightAwPw": "Peso objetivo - Aw / Pw",
  "TargetWeightSwLw": "Peso objetivo - Sw / Lw",
  "InQueue": "En fila",
  "clubs": "Palos",
  "orders": "Ordenes",
  "shipments": "Envios",
  "AcrylicGluing": "Acrílico e  insercion",
  "AlignmentCuring": "Alineamiento / Curado",
  "Bending": "Bending",
  "FinalInspection": "Inspección final",
  "Inspection": "Inspección",
  "Packaging": "Empaque",
  "Picking": "Pick",
  "ShaftCut": "Corte de shaft",
  "SwingWeight": "Swing Weight",
  "TorqueClean": "Torque y Limpieza",
  "Loading2": "Cargando...",
  "Loading": "Cargando...",
  "AlreadyCompletedThisWorkOrder": "Ya completó esta orden de trabajo",
  "ErrorScanningOrder": "Error al escanear orden",
  "OrderNotInQueue": "Orden no en cola. No hay historia registrada.",
  "UnknownErrorWritingToQueue": "Error desconocido al escribir en la cola. Por favor escanee un nuevo pedido.",
  "Status": "Estado",
  "DoNotAttach": "No insertar",
  "TorqueCleanWelcomeMessage": "Escanee o escriba una orden de trabajo para ver los detalles de torque / limpieza",
  "PackagingWelcomeMessage": "Escanee o escriba una orden de trabajo para ver los detalles del paquete",
  "ScanBadge": "Escanear insignia",
  "Login": "Iniciar sesión",
  "Logout": "Cerrar sesión",
  "Launch": "Iniciar",
  "BackToLogin": "Atrás para iniciar sesión",
  "StationSelect": "Seleccionar estación",
  "Search": "Buscar",
  "Waves": "Planeación",
  "GlobalOversight": "Supervisión global",
  "Development": "Desarrollo",
  "Staging": "Escanear",
  "QA": "QA",
  "Production": "Producción",
  "Welcome": "Bienvenido",
  "SearchOrdersShipments": "Buscar Orden",
  "ThisOrderIsQueuedButNotScanned": "Este pedido está en cola y no se ha escaneado en ninguna estación",
  "ThisOrderIsNotInTheQueueAndHasNeverBeenScanned": "Este pedido no está en la cola y no ha sido escaneado",
  "Sites": "Sitios",
  "Custom": "Custom",
  "Stock": "Stock",
  "Inactive": "Inactivo",
  "Active": "Activo",
  "AvailableWaves": "Planeaciones disponibles",
  "ViewPlan": "Ver plan",
  "ViewAndReleaseWavePlan": "Ver y liberar Planeación",
  "ReleasedOn": "liberado el",
  "CapacityPlan": "Plan de capacidad",
  "Line": "Línea",
  "Printed": "Impreso",
  "PrintAll": "Imprimir todo",
  "SelectPrinter": "Seleccionar impresora",
  "Reprint": "Reimprimir",
  "Totals": "Totales",
  "ByOrder": "Por orden",
  "ByShipTo": "Por envio a",
  "RefreshWaves": "Actualizar Planeación",
  "WaveStatus": "Estado de Planeación",
  "Shipment": "Envío",
  "No": "No",
  "Order": "Orden",
  "Initializing": "Inicializando",
  "IsActiveClickToDeactivate": "Está activo. Haga clic para desactivar",
  "IsInactiveClickToActivate": "Está inactivo Haga clic para activar",
  "NoLinesConfiguredFor": "No hay líneas configuradas para",
  "WorkOrderShipmentId": "Orden de trabajo / ID de envío",
  "ThisOrderIsInProgress": "Este pedido está en progreso.",
  "RefreshStatus": "Actualizar estado",
  "Station": "Estación",
  "WorkOrder": "Orden de trabajo",
  "When": "Cuando",
  "TimeAtStation": "Hora en la estación",
  "User": "Usuario",
  "ago": "hace",
  "CurrentlyActive": "Actualmente activo",
  "Mixed": "Mezclado",
  "Printing": "Impresión",
  "Global": "Global",
  "CompletedShowingOriginalSnapshot": "Completado, mostrando la instantánea original",
  "ReleasedJustNow": "liberado justo ahora",
  "InProgress": "En progreso",
  "ScanHeadCover": "Escanee Headcover",
  "Up": "Arriba",
  "Defect": "Defecto",
  "Hold": "Suspendido",
  "Refresh": "Actualizar",
  "Maintenance": "Mantenimiento",
  "NoCustomWavesAvailable": "No hay Ordenes personalizadas disponibles",
  "CuringInProgress": "CURACION EN PROGRESO",
  "CuringInProgressDetail": "Esta sección muestra qué pedidos han completado el proceso de curado y están listos para avanzar",
  "TemperatureData": "DATOS DE TEMPERATURA",
  "TemperatureDataDetail": "Esta sección muestra qué pedidos han completado el proceso de curado y están listos para avanzar",
  "CurrentTemperature": "Temperatura actual",
  "CuringTemperature": "Temperatura de curado",
  "OptimalRange": "Rango óptimo",
  "RefreshChart": "Actualizar gráfico",
  "CuringTime": "Hora de curar",
  "CuringReadyYet": "Listo para recoger",
  "CuringReadyYetDetail": "Esta orden finalizó el proceso de curado. Por favor sacar los palos ahora",
  "CuringNotReadyYet": "Aún no esta listo",
  "CuringNotReadyYetDetail": "El pedido aún no está listo. Tiempo adicional requerido",
  "NoStockWavesAvailable": "No hay ordenes personalizadas disponibles",
  "ScanStationCode": "Escanear código de estación",
  "Standard": "Estándar",
  "SelectBelow": "seleccione a continuación",
  "Line1": "Línea 1",
  "Line2": "Línea 2",
  "Line3": "Línea 3",
  "Line4": "Línea 4",
  "Line5": "Línea 5",
  "Line6": "Linea 6",
  "Line7": "Línea 7",
  "Line8": "Línea 8",
  "Line9": "Linea 9",
  "Line10": "Linea 10",
  "Maintain": "Mantener",
  "Close": "Cerrar",
  "Butt": "Extremo",
  "SevenIronLength": "#7 longitud",
  "Tip": "Tip",
  "TipCap": "TipCap",
  "BeginScanningHeads": "Comience A Escanear Cabezas",
  "StationOnHold": "Estación en espera",
  "ScanOrTapScreenToExit": "Escanee o toque la pantalla para salir",
  "SerialNumberScanningComplete": "Escaneo de número de serie completo",
  "ReadyForNextWorkOrder": "Listo para la próxima orden de trabajo",
  "SeeButtLength": "Ver la longitud del Palo",
  "AlreadyScanned": "Ya escaneado",
  "SerialNumberAlreadyScannedOnAnotherOrder": "Número de serie ya escaneado en otro pedido",
  "SerialNumberScannedSuccesfully": "Número de serie escaneado con éxito",
  "ResetScreen": "Actualizar",
  "ScanWorkOrder": "Escanear la orden de trabajo",
  "ErrorPleaseScanAgain": "Error Por favor, escanee de nuevo",
  "Aomi": "Aomi",
  "Tijuana": "Tijuana",
  "Basingstoke": "Basingstoke",
  "ForceRelease": "Liberación de fuerza",
  "WeightNotFullyIn": "El peso no está completamente dentro",
  "None": "Ninguno",
  "Help": "Ayuda",
  "QuantityAbbreviation": "Qty.",
  "FinalClubLength": "Medida Final del Palo",
  "WorkOrderAbbreviation": "WO#:",
  "Scan": "Scan",
  "Heads": "Heads",
  "Ready": "Ready",
  "FCT": "FCT",
  "Ferrule": "Ferrule",
  "Down": "Down",
  "SwingWeightType": "Swing Weight Type",
  "ScanHeadsJa": "個目",
  "High": "Alto",
  "Low": "Bajo",
  "Nominal": "Nominal",
  "Accessories": "Accesorios",
  "HeadCover": "Funda de Cabeza",
  "Wrench": "Llave",
  "Misc": "Misc",
  "Description": "Description",
  "And": "y",
  "Cover": "accesorio",
  "HeadCoverEANVerified": "Accesorio EAN verificada",
  "HeadCoverSKUVerified": "Accesorio UPC verificada",
  "CannotVerify": "No se pudo verificar",
  "LoadingSerialsAndAccesories": "Buscando seriales/accesorios...",
  "Manual": "Manual",
  "Length": "Length",
  "LieAngle": "Lie Angle"
}
