Riskfactor	Issue	Sex	Age	Coefficient	
Tob_former	Ihd	male	15	1.3	
Tob_former	Ihd	male	16	1.3	
Tob_former	Ihd	male	17	1.3	
Tob_former	Ihd	male	18	1.3	
Tob_former	Ihd	male	19	1.3	
Tob_former	Ihd	male	20	1.3	
Tob_former	Ihd	male	21	1.3	
Tob_former	Ihd	male	22	1.3	
Tob_former	Ihd	male	23	1.3	
Tob_former	Ihd	male	24	1.3	
Tob_former	Ihd	male	25	1.3	
Tob_former	Ihd	male	26	1.3	
Tob_former	Ihd	male	27	1.3	
Tob_former	Ihd	male	28	1.3	
Tob_former	Ihd	male	29	1.3	
Tob_former	Ihd	male	30	1.3	
Tob_former	Ihd	male	31	1.3	
Tob_former	Ihd	male	32	1.3	
Tob_former	Ihd	male	33	1.3	
Tob_former	Ihd	male	34	1.3	
Tob_former	Ihd	male	35	1.6	
Tob_former	Ihd	male	36	1.6	
Tob_former	Ihd	male	37	1.6	
Tob_former	Ihd	male	38	1.6	
Tob_former	Ihd	male	39	1.6	
Tob_former	Ihd	male	40	1.6	
Tob_former	Ihd	male	41	1.6	
Tob_former	Ihd	male	42	1.6	
Tob_former	Ihd	male	43	1.6	
Tob_former	Ihd	male	44	1.6	
Tob_former	Ihd	male	45	1.6	
Tob_former	Ihd	male	46	1.6	
Tob_former	Ihd	male	47	1.6	
Tob_former	Ihd	male	48	1.6	
Tob_former	Ihd	male	49	1.6	
Tob_former	Ihd	male	50	1.6	
Tob_former	Ihd	male	51	1.6	
Tob_former	Ihd	male	52	1.6	
Tob_former	Ihd	male	53	1.6	
Tob_former	Ihd	male	54	1.6	
Tob_former	Ihd	male	55	1.6	
Tob_former	Ihd	male	56	1.6	
Tob_former	Ihd	male	57	1.6	
Tob_former	Ihd	male	58	1.6	
Tob_former	Ihd	male	59	1.6	
Tob_former	Ihd	male	60	1.6	
Tob_former	Ihd	male	61	1.6	
Tob_former	Ihd	male	62	1.6	
Tob_former	Ihd	male	63	1.6	
Tob_former	Ihd	male	64	1.6	
Tob_former	Ihd	male	65	1.2	
Tob_former	Ihd	male	66	1.2	
Tob_former	Ihd	male	67	1.2	
Tob_former	Ihd	male	68	1.2	
Tob_former	Ihd	male	69	1.2	
Tob_former	Ihd	male	70	1.2	
Tob_former	Ihd	male	71	1.2	
Tob_former	Ihd	male	72	1.2	
Tob_former	Ihd	male	73	1.2	
Tob_former	Ihd	male	74	1.2	
Tob_former	Ihd	male	75	1.2	
Tob_former	Ihd	male	76	1.2	
Tob_former	Ihd	male	77	1.2	
Tob_former	Ihd	male	78	1.2	
Tob_former	Ihd	male	79	1.2	
Tob_former	Ihd	male	80	1.2	
Tob_former	Ihd	male	81	1.2	
Tob_former	Ihd	male	82	1.2	
Tob_former	Ihd	male	83	1.2	
Tob_former	Ihd	male	84	1.2	
Tob_former	Ihd	male	85	1.2	
Tob_former	Ihd	male	86	1.2	
Tob_former	Ihd	male	87	1.2	
Tob_former	Ihd	male	88	1.2	
Tob_former	Ihd	male	89	1.2	
Tob_former	Ihd	male	90	1.2	
Tob_former	Ihd	male	91	1.2	
Tob_former	Ihd	male	92	1.2	
Tob_former	Ihd	male	93	1.2	
Tob_former	Ihd	male	94	1.2	
Tob_former	Ihd	male	95	1.2	
Tob_former	Ihd	male	96	1.2	
Tob_former	Ihd	male	97	1.2	
Tob_former	Ihd	male	98	1.2	
Tob_former	Ihd	male	99	1.2	
Tob_former	Ihd	female	15	1.3	
Tob_former	Ihd	female	16	1.3	
Tob_former	Ihd	female	17	1.3	
Tob_former	Ihd	female	18	1.3	
Tob_former	Ihd	female	19	1.3	
Tob_former	Ihd	female	20	1.3	
Tob_former	Ihd	female	21	1.3	
Tob_former	Ihd	female	22	1.3	
Tob_former	Ihd	female	23	1.3	
Tob_former	Ihd	female	24	1.3	
Tob_former	Ihd	female	25	1.3	
Tob_former	Ihd	female	26	1.3	
Tob_former	Ihd	female	27	1.3	
Tob_former	Ihd	female	28	1.3	
Tob_former	Ihd	female	29	1.3	
Tob_former	Ihd	female	30	1.3	
Tob_former	Ihd	female	31	1.3	
Tob_former	Ihd	female	32	1.3	
Tob_former	Ihd	female	33	1.3	
Tob_former	Ihd	female	34	1.3	
Tob_former	Ihd	female	35	1.2	
Tob_former	Ihd	female	36	1.2	
Tob_former	Ihd	female	37	1.2	
Tob_former	Ihd	female	38	1.2	
Tob_former	Ihd	female	39	1.2	
Tob_former	Ihd	female	40	1.2	
Tob_former	Ihd	female	41	1.2	
Tob_former	Ihd	female	42	1.2	
Tob_former	Ihd	female	43	1.2	
Tob_former	Ihd	female	44	1.2	
Tob_former	Ihd	female	45	1.2	
Tob_former	Ihd	female	46	1.2	
Tob_former	Ihd	female	47	1.2	
Tob_former	Ihd	female	48	1.2	
Tob_former	Ihd	female	49	1.2	
Tob_former	Ihd	female	50	1.2	
Tob_former	Ihd	female	51	1.2	
Tob_former	Ihd	female	52	1.2	
Tob_former	Ihd	female	53	1.2	
Tob_former	Ihd	female	54	1.2	
Tob_former	Ihd	female	55	1.2	
Tob_former	Ihd	female	56	1.2	
Tob_former	Ihd	female	57	1.2	
Tob_former	Ihd	female	58	1.2	
Tob_former	Ihd	female	59	1.2	
Tob_former	Ihd	female	60	1.2	
Tob_former	Ihd	female	61	1.2	
Tob_former	Ihd	female	62	1.2	
Tob_former	Ihd	female	63	1.2	
Tob_former	Ihd	female	64	1.2	
Tob_former	Ihd	female	65	1.3	
Tob_former	Ihd	female	66	1.3	
Tob_former	Ihd	female	67	1.3	
Tob_former	Ihd	female	68	1.3	
Tob_former	Ihd	female	69	1.3	
Tob_former	Ihd	female	70	1.3	
Tob_former	Ihd	female	71	1.3	
Tob_former	Ihd	female	72	1.3	
Tob_former	Ihd	female	73	1.3	
Tob_former	Ihd	female	74	1.3	
Tob_former	Ihd	female	75	1.3	
Tob_former	Ihd	female	76	1.3	
Tob_former	Ihd	female	77	1.3	
Tob_former	Ihd	female	78	1.3	
Tob_former	Ihd	female	79	1.3	
Tob_former	Ihd	female	80	1.3	
Tob_former	Ihd	female	81	1.3	
Tob_former	Ihd	female	82	1.3	
Tob_former	Ihd	female	83	1.3	
Tob_former	Ihd	female	84	1.3	
Tob_former	Ihd	female	85	1.3	
Tob_former	Ihd	female	86	1.3	
Tob_former	Ihd	female	87	1.3	
Tob_former	Ihd	female	88	1.3	
Tob_former	Ihd	female	89	1.3	
Tob_former	Ihd	female	90	1.3	
Tob_former	Ihd	female	91	1.3	
Tob_former	Ihd	female	92	1.3	
Tob_former	Ihd	female	93	1.3	
Tob_former	Ihd	female	94	1.3	
Tob_former	Ihd	female	95	1.3	
Tob_former	Ihd	female	96	1.3	
Tob_former	Ihd	female	97	1.3	
Tob_former	Ihd	female	98	1.3	
Tob_former	Ihd	female	99	1.3	
Tob_former	Lung	male	15	8.7	
Tob_former	Lung	male	16	8.7	
Tob_former	Lung	male	17	8.7	
Tob_former	Lung	male	18	8.7	
Tob_former	Lung	male	19	8.7	
Tob_former	Lung	male	20	8.7	
Tob_former	Lung	male	21	8.7	
Tob_former	Lung	male	22	8.7	
Tob_former	Lung	male	23	8.7	
Tob_former	Lung	male	24	8.7	
Tob_former	Lung	male	25	8.7	
Tob_former	Lung	male	26	8.7	
Tob_former	Lung	male	27	8.7	
Tob_former	Lung	male	28	8.7	
Tob_former	Lung	male	29	8.7	
Tob_former	Lung	male	30	8.7	
Tob_former	Lung	male	31	8.7	
Tob_former	Lung	male	32	8.7	
Tob_former	Lung	male	33	8.7	
Tob_former	Lung	male	34	8.7	
Tob_former	Lung	male	35	8.7	
Tob_former	Lung	male	36	8.7	
Tob_former	Lung	male	37	8.7	
Tob_former	Lung	male	38	8.7	
Tob_former	Lung	male	39	8.7	
Tob_former	Lung	male	40	8.7	
Tob_former	Lung	male	41	8.7	
Tob_former	Lung	male	42	8.7	
Tob_former	Lung	male	43	8.7	
Tob_former	Lung	male	44	8.7	
Tob_former	Lung	male	45	8.7	
Tob_former	Lung	male	46	8.7	
Tob_former	Lung	male	47	8.7	
Tob_former	Lung	male	48	8.7	
Tob_former	Lung	male	49	8.7	
Tob_former	Lung	male	50	8.7	
Tob_former	Lung	male	51	8.7	
Tob_former	Lung	male	52	8.7	
Tob_former	Lung	male	53	8.7	
Tob_former	Lung	male	54	8.7	
Tob_former	Lung	male	55	8.7	
Tob_former	Lung	male	56	8.7	
Tob_former	Lung	male	57	8.7	
Tob_former	Lung	male	58	8.7	
Tob_former	Lung	male	59	8.7	
Tob_former	Lung	male	60	8.7	
Tob_former	Lung	male	61	8.7	
Tob_former	Lung	male	62	8.7	
Tob_former	Lung	male	63	8.7	
Tob_former	Lung	male	64	8.7	
Tob_former	Lung	male	65	8.7	
Tob_former	Lung	male	66	8.7	
Tob_former	Lung	male	67	8.7	
Tob_former	Lung	male	68	8.7	
Tob_former	Lung	male	69	8.7	
Tob_former	Lung	male	70	8.7	
Tob_former	Lung	male	71	8.7	
Tob_former	Lung	male	72	8.7	
Tob_former	Lung	male	73	8.7	
Tob_former	Lung	male	74	8.7	
Tob_former	Lung	male	75	8.7	
Tob_former	Lung	male	76	8.7	
Tob_former	Lung	male	77	8.7	
Tob_former	Lung	male	78	8.7	
Tob_former	Lung	male	79	8.7	
Tob_former	Lung	male	80	8.7	
Tob_former	Lung	male	81	8.7	
Tob_former	Lung	male	82	8.7	
Tob_former	Lung	male	83	8.7	
Tob_former	Lung	male	84	8.7	
Tob_former	Lung	male	85	8.7	
Tob_former	Lung	male	86	8.7	
Tob_former	Lung	male	87	8.7	
Tob_former	Lung	male	88	8.7	
Tob_former	Lung	male	89	8.7	
Tob_former	Lung	male	90	8.7	
Tob_former	Lung	male	91	8.7	
Tob_former	Lung	male	92	8.7	
Tob_former	Lung	male	93	8.7	
Tob_former	Lung	male	94	8.7	
Tob_former	Lung	male	95	8.7	
Tob_former	Lung	male	96	8.7	
Tob_former	Lung	male	97	8.7	
Tob_former	Lung	male	98	8.7	
Tob_former	Lung	male	99	8.7	
Tob_former	Lung	female	15	4.6	
Tob_former	Lung	female	16	4.6	
Tob_former	Lung	female	17	4.6	
Tob_former	Lung	female	18	4.6	
Tob_former	Lung	female	19	4.6	
Tob_former	Lung	female	20	4.6	
Tob_former	Lung	female	21	4.6	
Tob_former	Lung	female	22	4.6	
Tob_former	Lung	female	23	4.6	
Tob_former	Lung	female	24	4.6	
Tob_former	Lung	female	25	4.6	
Tob_former	Lung	female	26	4.6	
Tob_former	Lung	female	27	4.6	
Tob_former	Lung	female	28	4.6	
Tob_former	Lung	female	29	4.6	
Tob_former	Lung	female	30	4.6	
Tob_former	Lung	female	31	4.6	
Tob_former	Lung	female	32	4.6	
Tob_former	Lung	female	33	4.6	
Tob_former	Lung	female	34	4.6	
Tob_former	Lung	female	35	4.6	
Tob_former	Lung	female	36	4.6	
Tob_former	Lung	female	37	4.6	
Tob_former	Lung	female	38	4.6	
Tob_former	Lung	female	39	4.6	
Tob_former	Lung	female	40	4.6	
Tob_former	Lung	female	41	4.6	
Tob_former	Lung	female	42	4.6	
Tob_former	Lung	female	43	4.6	
Tob_former	Lung	female	44	4.6	
Tob_former	Lung	female	45	4.6	
Tob_former	Lung	female	46	4.6	
Tob_former	Lung	female	47	4.6	
Tob_former	Lung	female	48	4.6	
Tob_former	Lung	female	49	4.6	
Tob_former	Lung	female	50	4.6	
Tob_former	Lung	female	51	4.6	
Tob_former	Lung	female	52	4.6	
Tob_former	Lung	female	53	4.6	
Tob_former	Lung	female	54	4.6	
Tob_former	Lung	female	55	4.6	
Tob_former	Lung	female	56	4.6	
Tob_former	Lung	female	57	4.6	
Tob_former	Lung	female	58	4.6	
Tob_former	Lung	female	59	4.6	
Tob_former	Lung	female	60	4.6	
Tob_former	Lung	female	61	4.6	
Tob_former	Lung	female	62	4.6	
Tob_former	Lung	female	63	4.6	
Tob_former	Lung	female	64	4.6	
Tob_former	Lung	female	65	4.6	
Tob_former	Lung	female	66	4.6	
Tob_former	Lung	female	67	4.6	
Tob_former	Lung	female	68	4.6	
Tob_former	Lung	female	69	4.6	
Tob_former	Lung	female	70	4.6	
Tob_former	Lung	female	71	4.6	
Tob_former	Lung	female	72	4.6	
Tob_former	Lung	female	73	4.6	
Tob_former	Lung	female	74	4.6	
Tob_former	Lung	female	75	4.6	
Tob_former	Lung	female	76	4.6	
Tob_former	Lung	female	77	4.6	
Tob_former	Lung	female	78	4.6	
Tob_former	Lung	female	79	4.6	
Tob_former	Lung	female	80	4.6	
Tob_former	Lung	female	81	4.6	
Tob_former	Lung	female	82	4.6	
Tob_former	Lung	female	83	4.6	
Tob_former	Lung	female	84	4.6	
Tob_former	Lung	female	85	4.6	
Tob_former	Lung	female	86	4.6	
Tob_former	Lung	female	87	4.6	
Tob_former	Lung	female	88	4.6	
Tob_former	Lung	female	89	4.6	
Tob_former	Lung	female	90	4.6	
Tob_former	Lung	female	91	4.6	
Tob_former	Lung	female	92	4.6	
Tob_former	Lung	female	93	4.6	
Tob_former	Lung	female	94	4.6	
Tob_former	Lung	female	95	4.6	
Tob_former	Lung	female	96	4.6	
Tob_former	Lung	female	97	4.6	
Tob_former	Lung	female	98	4.6	
Tob_former	Lung	female	99	4.6	
Tob_former	Mouth	male	15	4.3	
Tob_former	Mouth	male	16	4.3	
Tob_former	Mouth	male	17	4.3	
Tob_former	Mouth	male	18	4.3	
Tob_former	Mouth	male	19	4.3	
Tob_former	Mouth	male	20	4.3	
Tob_former	Mouth	male	21	4.3	
Tob_former	Mouth	male	22	4.3	
Tob_former	Mouth	male	23	4.3	
Tob_former	Mouth	male	24	4.3	
Tob_former	Mouth	male	25	4.3	
Tob_former	Mouth	male	26	4.3	
Tob_former	Mouth	male	27	4.3	
Tob_former	Mouth	male	28	4.3	
Tob_former	Mouth	male	29	4.3	
Tob_former	Mouth	male	30	4.3	
Tob_former	Mouth	male	31	4.3	
Tob_former	Mouth	male	32	4.3	
Tob_former	Mouth	male	33	4.3	
Tob_former	Mouth	male	34	4.3	
Tob_former	Mouth	male	35	4.3	
Tob_former	Mouth	male	36	4.3	
Tob_former	Mouth	male	37	4.3	
Tob_former	Mouth	male	38	4.3	
Tob_former	Mouth	male	39	4.3	
Tob_former	Mouth	male	40	4.3	
Tob_former	Mouth	male	41	4.3	
Tob_former	Mouth	male	42	4.3	
Tob_former	Mouth	male	43	4.3	
Tob_former	Mouth	male	44	4.3	
Tob_former	Mouth	male	45	4.3	
Tob_former	Mouth	male	46	4.3	
Tob_former	Mouth	male	47	4.3	
Tob_former	Mouth	male	48	4.3	
Tob_former	Mouth	male	49	4.3	
Tob_former	Mouth	male	50	4.3	
Tob_former	Mouth	male	51	4.3	
Tob_former	Mouth	male	52	4.3	
Tob_former	Mouth	male	53	4.3	
Tob_former	Mouth	male	54	4.3	
Tob_former	Mouth	male	55	4.3	
Tob_former	Mouth	male	56	4.3	
Tob_former	Mouth	male	57	4.3	
Tob_former	Mouth	male	58	4.3	
Tob_former	Mouth	male	59	4.3	
Tob_former	Mouth	male	60	4.3	
Tob_former	Mouth	male	61	4.3	
Tob_former	Mouth	male	62	4.3	
Tob_former	Mouth	male	63	4.3	
Tob_former	Mouth	male	64	4.3	
Tob_former	Mouth	male	65	4.3	
Tob_former	Mouth	male	66	4.3	
Tob_former	Mouth	male	67	4.3	
Tob_former	Mouth	male	68	4.3	
Tob_former	Mouth	male	69	4.3	
Tob_former	Mouth	male	70	4.3	
Tob_former	Mouth	male	71	4.3	
Tob_former	Mouth	male	72	4.3	
Tob_former	Mouth	male	73	4.3	
Tob_former	Mouth	male	74	4.3	
Tob_former	Mouth	male	75	4.3	
Tob_former	Mouth	male	76	4.3	
Tob_former	Mouth	male	77	4.3	
Tob_former	Mouth	male	78	4.3	
Tob_former	Mouth	male	79	4.3	
Tob_former	Mouth	male	80	4.3	
Tob_former	Mouth	male	81	4.3	
Tob_former	Mouth	male	82	4.3	
Tob_former	Mouth	male	83	4.3	
Tob_former	Mouth	male	84	4.3	
Tob_former	Mouth	male	85	4.3	
Tob_former	Mouth	male	86	4.3	
Tob_former	Mouth	male	87	4.3	
Tob_former	Mouth	male	88	4.3	
Tob_former	Mouth	male	89	4.3	
Tob_former	Mouth	male	90	4.3	
Tob_former	Mouth	male	91	4.3	
Tob_former	Mouth	male	92	4.3	
Tob_former	Mouth	male	93	4.3	
Tob_former	Mouth	male	94	4.3	
Tob_former	Mouth	male	95	4.3	
Tob_former	Mouth	male	96	4.3	
Tob_former	Mouth	male	97	4.3	
Tob_former	Mouth	male	98	4.3	
Tob_former	Mouth	male	99	4.3	
Tob_former	Mouth	female	15	2.8	
Tob_former	Mouth	female	16	2.8	
Tob_former	Mouth	female	17	2.8	
Tob_former	Mouth	female	18	2.8	
Tob_former	Mouth	female	19	2.8	
Tob_former	Mouth	female	20	2.8	
Tob_former	Mouth	female	21	2.8	
Tob_former	Mouth	female	22	2.8	
Tob_former	Mouth	female	23	2.8	
Tob_former	Mouth	female	24	2.8	
Tob_former	Mouth	female	25	2.8	
Tob_former	Mouth	female	26	2.8	
Tob_former	Mouth	female	27	2.8	
Tob_former	Mouth	female	28	2.8	
Tob_former	Mouth	female	29	2.8	
Tob_former	Mouth	female	30	2.8	
Tob_former	Mouth	female	31	2.8	
Tob_former	Mouth	female	32	2.8	
Tob_former	Mouth	female	33	2.8	
Tob_former	Mouth	female	34	2.8	
Tob_former	Mouth	female	35	2.8	
Tob_former	Mouth	female	36	2.8	
Tob_former	Mouth	female	37	2.8	
Tob_former	Mouth	female	38	2.8	
Tob_former	Mouth	female	39	2.8	
Tob_former	Mouth	female	40	2.8	
Tob_former	Mouth	female	41	2.8	
Tob_former	Mouth	female	42	2.8	
Tob_former	Mouth	female	43	2.8	
Tob_former	Mouth	female	44	2.8	
Tob_former	Mouth	female	45	2.8	
Tob_former	Mouth	female	46	2.8	
Tob_former	Mouth	female	47	2.8	
Tob_former	Mouth	female	48	2.8	
Tob_former	Mouth	female	49	2.8	
Tob_former	Mouth	female	50	2.8	
Tob_former	Mouth	female	51	2.8	
Tob_former	Mouth	female	52	2.8	
Tob_former	Mouth	female	53	2.8	
Tob_former	Mouth	female	54	2.8	
Tob_former	Mouth	female	55	2.8	
Tob_former	Mouth	female	56	2.8	
Tob_former	Mouth	female	57	2.8	
Tob_former	Mouth	female	58	2.8	
Tob_former	Mouth	female	59	2.8	
Tob_former	Mouth	female	60	2.8	
Tob_former	Mouth	female	61	2.8	
Tob_former	Mouth	female	62	2.8	
Tob_former	Mouth	female	63	2.8	
Tob_former	Mouth	female	64	2.8	
Tob_former	Mouth	female	65	2.8	
Tob_former	Mouth	female	66	2.8	
Tob_former	Mouth	female	67	2.8	
Tob_former	Mouth	female	68	2.8	
Tob_former	Mouth	female	69	2.8	
Tob_former	Mouth	female	70	2.8	
Tob_former	Mouth	female	71	2.8	
Tob_former	Mouth	female	72	2.8	
Tob_former	Mouth	female	73	2.8	
Tob_former	Mouth	female	74	2.8	
Tob_former	Mouth	female	75	2.8	
Tob_former	Mouth	female	76	2.8	
Tob_former	Mouth	female	77	2.8	
Tob_former	Mouth	female	78	2.8	
Tob_former	Mouth	female	79	2.8	
Tob_former	Mouth	female	80	2.8	
Tob_former	Mouth	female	81	2.8	
Tob_former	Mouth	female	82	2.8	
Tob_former	Mouth	female	83	2.8	
Tob_former	Mouth	female	84	2.8	
Tob_former	Mouth	female	85	2.8	
Tob_former	Mouth	female	86	2.8	
Tob_former	Mouth	female	87	2.8	
Tob_former	Mouth	female	88	2.8	
Tob_former	Mouth	female	89	2.8	
Tob_former	Mouth	female	90	2.8	
Tob_former	Mouth	female	91	2.8	
Tob_former	Mouth	female	92	2.8	
Tob_former	Mouth	female	93	2.8	
Tob_former	Mouth	female	94	2.8	
Tob_former	Mouth	female	95	2.8	
Tob_former	Mouth	female	96	2.8	
Tob_former	Mouth	female	97	2.8	
Tob_former	Mouth	female	98	2.8	
Tob_former	Mouth	female	99	2.8	
Tob_former	Larynx	male	15	4.3	
Tob_former	Larynx	male	16	4.3	
Tob_former	Larynx	male	17	4.3	
Tob_former	Larynx	male	18	4.3	
Tob_former	Larynx	male	19	4.3	
Tob_former	Larynx	male	20	4.3	
Tob_former	Larynx	male	21	4.3	
Tob_former	Larynx	male	22	4.3	
Tob_former	Larynx	male	23	4.3	
Tob_former	Larynx	male	24	4.3	
Tob_former	Larynx	male	25	4.3	
Tob_former	Larynx	male	26	4.3	
Tob_former	Larynx	male	27	4.3	
Tob_former	Larynx	male	28	4.3	
Tob_former	Larynx	male	29	4.3	
Tob_former	Larynx	male	30	4.3	
Tob_former	Larynx	male	31	4.3	
Tob_former	Larynx	male	32	4.3	
Tob_former	Larynx	male	33	4.3	
Tob_former	Larynx	male	34	4.3	
Tob_former	Larynx	male	35	4.3	
Tob_former	Larynx	male	36	4.3	
Tob_former	Larynx	male	37	4.3	
Tob_former	Larynx	male	38	4.3	
Tob_former	Larynx	male	39	4.3	
Tob_former	Larynx	male	40	4.3	
Tob_former	Larynx	male	41	4.3	
Tob_former	Larynx	male	42	4.3	
Tob_former	Larynx	male	43	4.3	
Tob_former	Larynx	male	44	4.3	
Tob_former	Larynx	male	45	4.3	
Tob_former	Larynx	male	46	4.3	
Tob_former	Larynx	male	47	4.3	
Tob_former	Larynx	male	48	4.3	
Tob_former	Larynx	male	49	4.3	
Tob_former	Larynx	male	50	4.3	
Tob_former	Larynx	male	51	4.3	
Tob_former	Larynx	male	52	4.3	
Tob_former	Larynx	male	53	4.3	
Tob_former	Larynx	male	54	4.3	
Tob_former	Larynx	male	55	4.3	
Tob_former	Larynx	male	56	4.3	
Tob_former	Larynx	male	57	4.3	
Tob_former	Larynx	male	58	4.3	
Tob_former	Larynx	male	59	4.3	
Tob_former	Larynx	male	60	4.3	
Tob_former	Larynx	male	61	4.3	
Tob_former	Larynx	male	62	4.3	
Tob_former	Larynx	male	63	4.3	
Tob_former	Larynx	male	64	4.3	
Tob_former	Larynx	male	65	4.3	
Tob_former	Larynx	male	66	4.3	
Tob_former	Larynx	male	67	4.3	
Tob_former	Larynx	male	68	4.3	
Tob_former	Larynx	male	69	4.3	
Tob_former	Larynx	male	70	4.3	
Tob_former	Larynx	male	71	4.3	
Tob_former	Larynx	male	72	4.3	
Tob_former	Larynx	male	73	4.3	
Tob_former	Larynx	male	74	4.3	
Tob_former	Larynx	male	75	4.3	
Tob_former	Larynx	male	76	4.3	
Tob_former	Larynx	male	77	4.3	
Tob_former	Larynx	male	78	4.3	
Tob_former	Larynx	male	79	4.3	
Tob_former	Larynx	male	80	4.3	
Tob_former	Larynx	male	81	4.3	
Tob_former	Larynx	male	82	4.3	
Tob_former	Larynx	male	83	4.3	
Tob_former	Larynx	male	84	4.3	
Tob_former	Larynx	male	85	4.3	
Tob_former	Larynx	male	86	4.3	
Tob_former	Larynx	male	87	4.3	
Tob_former	Larynx	male	88	4.3	
Tob_former	Larynx	male	89	4.3	
Tob_former	Larynx	male	90	4.3	
Tob_former	Larynx	male	91	4.3	
Tob_former	Larynx	male	92	4.3	
Tob_former	Larynx	male	93	4.3	
Tob_former	Larynx	male	94	4.3	
Tob_former	Larynx	male	95	4.3	
Tob_former	Larynx	male	96	4.3	
Tob_former	Larynx	male	97	4.3	
Tob_former	Larynx	male	98	4.3	
Tob_former	Larynx	male	99	4.3	
Tob_former	Larynx	female	15	2.8	
Tob_former	Larynx	female	16	2.8	
Tob_former	Larynx	female	17	2.8	
Tob_former	Larynx	female	18	2.8	
Tob_former	Larynx	female	19	2.8	
Tob_former	Larynx	female	20	2.8	
Tob_former	Larynx	female	21	2.8	
Tob_former	Larynx	female	22	2.8	
Tob_former	Larynx	female	23	2.8	
Tob_former	Larynx	female	24	2.8	
Tob_former	Larynx	female	25	2.8	
Tob_former	Larynx	female	26	2.8	
Tob_former	Larynx	female	27	2.8	
Tob_former	Larynx	female	28	2.8	
Tob_former	Larynx	female	29	2.8	
Tob_former	Larynx	female	30	2.8	
Tob_former	Larynx	female	31	2.8	
Tob_former	Larynx	female	32	2.8	
Tob_former	Larynx	female	33	2.8	
Tob_former	Larynx	female	34	2.8	
Tob_former	Larynx	female	35	2.8	
Tob_former	Larynx	female	36	2.8	
Tob_former	Larynx	female	37	2.8	
Tob_former	Larynx	female	38	2.8	
Tob_former	Larynx	female	39	2.8	
Tob_former	Larynx	female	40	2.8	
Tob_former	Larynx	female	41	2.8	
Tob_former	Larynx	female	42	2.8	
Tob_former	Larynx	female	43	2.8	
Tob_former	Larynx	female	44	2.8	
Tob_former	Larynx	female	45	2.8	
Tob_former	Larynx	female	46	2.8	
Tob_former	Larynx	female	47	2.8	
Tob_former	Larynx	female	48	2.8	
Tob_former	Larynx	female	49	2.8	
Tob_former	Larynx	female	50	2.8	
Tob_former	Larynx	female	51	2.8	
Tob_former	Larynx	female	52	2.8	
Tob_former	Larynx	female	53	2.8	
Tob_former	Larynx	female	54	2.8	
Tob_former	Larynx	female	55	2.8	
Tob_former	Larynx	female	56	2.8	
Tob_former	Larynx	female	57	2.8	
Tob_former	Larynx	female	58	2.8	
Tob_former	Larynx	female	59	2.8	
Tob_former	Larynx	female	60	2.8	
Tob_former	Larynx	female	61	2.8	
Tob_former	Larynx	female	62	2.8	
Tob_former	Larynx	female	63	2.8	
Tob_former	Larynx	female	64	2.8	
Tob_former	Larynx	female	65	2.8	
Tob_former	Larynx	female	66	2.8	
Tob_former	Larynx	female	67	2.8	
Tob_former	Larynx	female	68	2.8	
Tob_former	Larynx	female	69	2.8	
Tob_former	Larynx	female	70	2.8	
Tob_former	Larynx	female	71	2.8	
Tob_former	Larynx	female	72	2.8	
Tob_former	Larynx	female	73	2.8	
Tob_former	Larynx	female	74	2.8	
Tob_former	Larynx	female	75	2.8	
Tob_former	Larynx	female	76	2.8	
Tob_former	Larynx	female	77	2.8	
Tob_former	Larynx	female	78	2.8	
Tob_former	Larynx	female	79	2.8	
Tob_former	Larynx	female	80	2.8	
Tob_former	Larynx	female	81	2.8	
Tob_former	Larynx	female	82	2.8	
Tob_former	Larynx	female	83	2.8	
Tob_former	Larynx	female	84	2.8	
Tob_former	Larynx	female	85	2.8	
Tob_former	Larynx	female	86	2.8	
Tob_former	Larynx	female	87	2.8	
Tob_former	Larynx	female	88	2.8	
Tob_former	Larynx	female	89	2.8	
Tob_former	Larynx	female	90	2.8	
Tob_former	Larynx	female	91	2.8	
Tob_former	Larynx	female	92	2.8	
Tob_former	Larynx	female	93	2.8	
Tob_former	Larynx	female	94	2.8	
Tob_former	Larynx	female	95	2.8	
Tob_former	Larynx	female	96	2.8	
Tob_former	Larynx	female	97	2.8	
Tob_former	Larynx	female	98	2.8	
Tob_former	Larynx	female	99	2.8	
Tob_former	Eso	male	15	4.3	
Tob_former	Eso	male	16	4.3	
Tob_former	Eso	male	17	4.3	
Tob_former	Eso	male	18	4.3	
Tob_former	Eso	male	19	4.3	
Tob_former	Eso	male	20	4.3	
Tob_former	Eso	male	21	4.3	
Tob_former	Eso	male	22	4.3	
Tob_former	Eso	male	23	4.3	
Tob_former	Eso	male	24	4.3	
Tob_former	Eso	male	25	4.3	
Tob_former	Eso	male	26	4.3	
Tob_former	Eso	male	27	4.3	
Tob_former	Eso	male	28	4.3	
Tob_former	Eso	male	29	4.3	
Tob_former	Eso	male	30	4.3	
Tob_former	Eso	male	31	4.3	
Tob_former	Eso	male	32	4.3	
Tob_former	Eso	male	33	4.3	
Tob_former	Eso	male	34	4.3	
Tob_former	Eso	male	35	4.3	
Tob_former	Eso	male	36	4.3	
Tob_former	Eso	male	37	4.3	
Tob_former	Eso	male	38	4.3	
Tob_former	Eso	male	39	4.3	
Tob_former	Eso	male	40	4.3	
Tob_former	Eso	male	41	4.3	
Tob_former	Eso	male	42	4.3	
Tob_former	Eso	male	43	4.3	
Tob_former	Eso	male	44	4.3	
Tob_former	Eso	male	45	4.3	
Tob_former	Eso	male	46	4.3	
Tob_former	Eso	male	47	4.3	
Tob_former	Eso	male	48	4.3	
Tob_former	Eso	male	49	4.3	
Tob_former	Eso	male	50	4.3	
Tob_former	Eso	male	51	4.3	
Tob_former	Eso	male	52	4.3	
Tob_former	Eso	male	53	4.3	
Tob_former	Eso	male	54	4.3	
Tob_former	Eso	male	55	4.3	
Tob_former	Eso	male	56	4.3	
Tob_former	Eso	male	57	4.3	
Tob_former	Eso	male	58	4.3	
Tob_former	Eso	male	59	4.3	
Tob_former	Eso	male	60	4.3	
Tob_former	Eso	male	61	4.3	
Tob_former	Eso	male	62	4.3	
Tob_former	Eso	male	63	4.3	
Tob_former	Eso	male	64	4.3	
Tob_former	Eso	male	65	4.3	
Tob_former	Eso	male	66	4.3	
Tob_former	Eso	male	67	4.3	
Tob_former	Eso	male	68	4.3	
Tob_former	Eso	male	69	4.3	
Tob_former	Eso	male	70	4.3	
Tob_former	Eso	male	71	4.3	
Tob_former	Eso	male	72	4.3	
Tob_former	Eso	male	73	4.3	
Tob_former	Eso	male	74	4.3	
Tob_former	Eso	male	75	4.3	
Tob_former	Eso	male	76	4.3	
Tob_former	Eso	male	77	4.3	
Tob_former	Eso	male	78	4.3	
Tob_former	Eso	male	79	4.3	
Tob_former	Eso	male	80	4.3	
Tob_former	Eso	male	81	4.3	
Tob_former	Eso	male	82	4.3	
Tob_former	Eso	male	83	4.3	
Tob_former	Eso	male	84	4.3	
Tob_former	Eso	male	85	4.3	
Tob_former	Eso	male	86	4.3	
Tob_former	Eso	male	87	4.3	
Tob_former	Eso	male	88	4.3	
Tob_former	Eso	male	89	4.3	
Tob_former	Eso	male	90	4.3	
Tob_former	Eso	male	91	4.3	
Tob_former	Eso	male	92	4.3	
Tob_former	Eso	male	93	4.3	
Tob_former	Eso	male	94	4.3	
Tob_former	Eso	male	95	4.3	
Tob_former	Eso	male	96	4.3	
Tob_former	Eso	male	97	4.3	
Tob_former	Eso	male	98	4.3	
Tob_former	Eso	male	99	4.3	
Tob_former	Eso	female	15	2.8	
Tob_former	Eso	female	16	2.8	
Tob_former	Eso	female	17	2.8	
Tob_former	Eso	female	18	2.8	
Tob_former	Eso	female	19	2.8	
Tob_former	Eso	female	20	2.8	
Tob_former	Eso	female	21	2.8	
Tob_former	Eso	female	22	2.8	
Tob_former	Eso	female	23	2.8	
Tob_former	Eso	female	24	2.8	
Tob_former	Eso	female	25	2.8	
Tob_former	Eso	female	26	2.8	
Tob_former	Eso	female	27	2.8	
Tob_former	Eso	female	28	2.8	
Tob_former	Eso	female	29	2.8	
Tob_former	Eso	female	30	2.8	
Tob_former	Eso	female	31	2.8	
Tob_former	Eso	female	32	2.8	
Tob_former	Eso	female	33	2.8	
Tob_former	Eso	female	34	2.8	
Tob_former	Eso	female	35	2.8	
Tob_former	Eso	female	36	2.8	
Tob_former	Eso	female	37	2.8	
Tob_former	Eso	female	38	2.8	
Tob_former	Eso	female	39	2.8	
Tob_former	Eso	female	40	2.8	
Tob_former	Eso	female	41	2.8	
Tob_former	Eso	female	42	2.8	
Tob_former	Eso	female	43	2.8	
Tob_former	Eso	female	44	2.8	
Tob_former	Eso	female	45	2.8	
Tob_former	Eso	female	46	2.8	
Tob_former	Eso	female	47	2.8	
Tob_former	Eso	female	48	2.8	
Tob_former	Eso	female	49	2.8	
Tob_former	Eso	female	50	2.8	
Tob_former	Eso	female	51	2.8	
Tob_former	Eso	female	52	2.8	
Tob_former	Eso	female	53	2.8	
Tob_former	Eso	female	54	2.8	
Tob_former	Eso	female	55	2.8	
Tob_former	Eso	female	56	2.8	
Tob_former	Eso	female	57	2.8	
Tob_former	Eso	female	58	2.8	
Tob_former	Eso	female	59	2.8	
Tob_former	Eso	female	60	2.8	
Tob_former	Eso	female	61	2.8	
Tob_former	Eso	female	62	2.8	
Tob_former	Eso	female	63	2.8	
Tob_former	Eso	female	64	2.8	
Tob_former	Eso	female	65	2.8	
Tob_former	Eso	female	66	2.8	
Tob_former	Eso	female	67	2.8	
Tob_former	Eso	female	68	2.8	
Tob_former	Eso	female	69	2.8	
Tob_former	Eso	female	70	2.8	
Tob_former	Eso	female	71	2.8	
Tob_former	Eso	female	72	2.8	
Tob_former	Eso	female	73	2.8	
Tob_former	Eso	female	74	2.8	
Tob_former	Eso	female	75	2.8	
Tob_former	Eso	female	76	2.8	
Tob_former	Eso	female	77	2.8	
Tob_former	Eso	female	78	2.8	
Tob_former	Eso	female	79	2.8	
Tob_former	Eso	female	80	2.8	
Tob_former	Eso	female	81	2.8	
Tob_former	Eso	female	82	2.8	
Tob_former	Eso	female	83	2.8	
Tob_former	Eso	female	84	2.8	
Tob_former	Eso	female	85	2.8	
Tob_former	Eso	female	86	2.8	
Tob_former	Eso	female	87	2.8	
Tob_former	Eso	female	88	2.8	
Tob_former	Eso	female	89	2.8	
Tob_former	Eso	female	90	2.8	
Tob_former	Eso	female	91	2.8	
Tob_former	Eso	female	92	2.8	
Tob_former	Eso	female	93	2.8	
Tob_former	Eso	female	94	2.8	
Tob_former	Eso	female	95	2.8	
Tob_former	Eso	female	96	2.8	
Tob_former	Eso	female	97	2.8	
Tob_former	Eso	female	98	2.8	
Tob_former	Eso	female	99	2.8	
Tob_former	Panc	male	15	1.2	
Tob_former	Panc	male	16	1.2	
Tob_former	Panc	male	17	1.2	
Tob_former	Panc	male	18	1.2	
Tob_former	Panc	male	19	1.2	
Tob_former	Panc	male	20	1.2	
Tob_former	Panc	male	21	1.2	
Tob_former	Panc	male	22	1.2	
Tob_former	Panc	male	23	1.2	
Tob_former	Panc	male	24	1.2	
Tob_former	Panc	male	25	1.2	
Tob_former	Panc	male	26	1.2	
Tob_former	Panc	male	27	1.2	
Tob_former	Panc	male	28	1.2	
Tob_former	Panc	male	29	1.2	
Tob_former	Panc	male	30	1.2	
Tob_former	Panc	male	31	1.2	
Tob_former	Panc	male	32	1.2	
Tob_former	Panc	male	33	1.2	
Tob_former	Panc	male	34	1.2	
Tob_former	Panc	male	35	1.2	
Tob_former	Panc	male	36	1.2	
Tob_former	Panc	male	37	1.2	
Tob_former	Panc	male	38	1.2	
Tob_former	Panc	male	39	1.2	
Tob_former	Panc	male	40	1.2	
Tob_former	Panc	male	41	1.2	
Tob_former	Panc	male	42	1.2	
Tob_former	Panc	male	43	1.2	
Tob_former	Panc	male	44	1.2	
Tob_former	Panc	male	45	1.2	
Tob_former	Panc	male	46	1.2	
Tob_former	Panc	male	47	1.2	
Tob_former	Panc	male	48	1.2	
Tob_former	Panc	male	49	1.2	
Tob_former	Panc	male	50	1.2	
Tob_former	Panc	male	51	1.2	
Tob_former	Panc	male	52	1.2	
Tob_former	Panc	male	53	1.2	
Tob_former	Panc	male	54	1.2	
Tob_former	Panc	male	55	1.2	
Tob_former	Panc	male	56	1.2	
Tob_former	Panc	male	57	1.2	
Tob_former	Panc	male	58	1.2	
Tob_former	Panc	male	59	1.2	
Tob_former	Panc	male	60	1.2	
Tob_former	Panc	male	61	1.2	
Tob_former	Panc	male	62	1.2	
Tob_former	Panc	male	63	1.2	
Tob_former	Panc	male	64	1.2	
Tob_former	Panc	male	65	1.2	
Tob_former	Panc	male	66	1.2	
Tob_former	Panc	male	67	1.2	
Tob_former	Panc	male	68	1.2	
Tob_former	Panc	male	69	1.2	
Tob_former	Panc	male	70	1.2	
Tob_former	Panc	male	71	1.2	
Tob_former	Panc	male	72	1.2	
Tob_former	Panc	male	73	1.2	
Tob_former	Panc	male	74	1.2	
Tob_former	Panc	male	75	1.2	
Tob_former	Panc	male	76	1.2	
Tob_former	Panc	male	77	1.2	
Tob_former	Panc	male	78	1.2	
Tob_former	Panc	male	79	1.2	
Tob_former	Panc	male	80	1.2	
Tob_former	Panc	male	81	1.2	
Tob_former	Panc	male	82	1.2	
Tob_former	Panc	male	83	1.2	
Tob_former	Panc	male	84	1.2	
Tob_former	Panc	male	85	1.2	
Tob_former	Panc	male	86	1.2	
Tob_former	Panc	male	87	1.2	
Tob_former	Panc	male	88	1.2	
Tob_former	Panc	male	89	1.2	
Tob_former	Panc	male	90	1.2	
Tob_former	Panc	male	91	1.2	
Tob_former	Panc	male	92	1.2	
Tob_former	Panc	male	93	1.2	
Tob_former	Panc	male	94	1.2	
Tob_former	Panc	male	95	1.2	
Tob_former	Panc	male	96	1.2	
Tob_former	Panc	male	97	1.2	
Tob_former	Panc	male	98	1.2	
Tob_former	Panc	male	99	1.2	
Tob_former	Panc	female	15	1.6	
Tob_former	Panc	female	16	1.6	
Tob_former	Panc	female	17	1.6	
Tob_former	Panc	female	18	1.6	
Tob_former	Panc	female	19	1.6	
Tob_former	Panc	female	20	1.6	
Tob_former	Panc	female	21	1.6	
Tob_former	Panc	female	22	1.6	
Tob_former	Panc	female	23	1.6	
Tob_former	Panc	female	24	1.6	
Tob_former	Panc	female	25	1.6	
Tob_former	Panc	female	26	1.6	
Tob_former	Panc	female	27	1.6	
Tob_former	Panc	female	28	1.6	
Tob_former	Panc	female	29	1.6	
Tob_former	Panc	female	30	1.6	
Tob_former	Panc	female	31	1.6	
Tob_former	Panc	female	32	1.6	
Tob_former	Panc	female	33	1.6	
Tob_former	Panc	female	34	1.6	
Tob_former	Panc	female	35	1.6	
Tob_former	Panc	female	36	1.6	
Tob_former	Panc	female	37	1.6	
Tob_former	Panc	female	38	1.6	
Tob_former	Panc	female	39	1.6	
Tob_former	Panc	female	40	1.6	
Tob_former	Panc	female	41	1.6	
Tob_former	Panc	female	42	1.6	
Tob_former	Panc	female	43	1.6	
Tob_former	Panc	female	44	1.6	
Tob_former	Panc	female	45	1.6	
Tob_former	Panc	female	46	1.6	
Tob_former	Panc	female	47	1.6	
Tob_former	Panc	female	48	1.6	
Tob_former	Panc	female	49	1.6	
Tob_former	Panc	female	50	1.6	
Tob_former	Panc	female	51	1.6	
Tob_former	Panc	female	52	1.6	
Tob_former	Panc	female	53	1.6	
Tob_former	Panc	female	54	1.6	
Tob_former	Panc	female	55	1.6	
Tob_former	Panc	female	56	1.6	
Tob_former	Panc	female	57	1.6	
Tob_former	Panc	female	58	1.6	
Tob_former	Panc	female	59	1.6	
Tob_former	Panc	female	60	1.6	
Tob_former	Panc	female	61	1.6	
Tob_former	Panc	female	62	1.6	
Tob_former	Panc	female	63	1.6	
Tob_former	Panc	female	64	1.6	
Tob_former	Panc	female	65	1.6	
Tob_former	Panc	female	66	1.6	
Tob_former	Panc	female	67	1.6	
Tob_former	Panc	female	68	1.6	
Tob_former	Panc	female	69	1.6	
Tob_former	Panc	female	70	1.6	
Tob_former	Panc	female	71	1.6	
Tob_former	Panc	female	72	1.6	
Tob_former	Panc	female	73	1.6	
Tob_former	Panc	female	74	1.6	
Tob_former	Panc	female	75	1.6	
Tob_former	Panc	female	76	1.6	
Tob_former	Panc	female	77	1.6	
Tob_former	Panc	female	78	1.6	
Tob_former	Panc	female	79	1.6	
Tob_former	Panc	female	80	1.6	
Tob_former	Panc	female	81	1.6	
Tob_former	Panc	female	82	1.6	
Tob_former	Panc	female	83	1.6	
Tob_former	Panc	female	84	1.6	
Tob_former	Panc	female	85	1.6	
Tob_former	Panc	female	86	1.6	
Tob_former	Panc	female	87	1.6	
Tob_former	Panc	female	88	1.6	
Tob_former	Panc	female	89	1.6	
Tob_former	Panc	female	90	1.6	
Tob_former	Panc	female	91	1.6	
Tob_former	Panc	female	92	1.6	
Tob_former	Panc	female	93	1.6	
Tob_former	Panc	female	94	1.6	
Tob_former	Panc	female	95	1.6	
Tob_former	Panc	female	96	1.6	
Tob_former	Panc	female	97	1.6	
Tob_former	Panc	female	98	1.6	
Tob_former	Panc	female	99	1.6	
Tob_former	Crvx	male	15	NA	
Tob_former	Crvx	male	16	NA	
Tob_former	Crvx	male	17	NA	
Tob_former	Crvx	male	18	NA	
Tob_former	Crvx	male	19	NA	
Tob_former	Crvx	male	20	NA	
Tob_former	Crvx	male	21	NA	
Tob_former	Crvx	male	22	NA	
Tob_former	Crvx	male	23	NA	
Tob_former	Crvx	male	24	NA	
Tob_former	Crvx	male	25	NA	
Tob_former	Crvx	male	26	NA	
Tob_former	Crvx	male	27	NA	
Tob_former	Crvx	male	28	NA	
Tob_former	Crvx	male	29	NA	
Tob_former	Crvx	male	30	NA	
Tob_former	Crvx	male	31	NA	
Tob_former	Crvx	male	32	NA	
Tob_former	Crvx	male	33	NA	
Tob_former	Crvx	male	34	NA	
Tob_former	Crvx	male	35	NA	
Tob_former	Crvx	male	36	NA	
Tob_former	Crvx	male	37	NA	
Tob_former	Crvx	male	38	NA	
Tob_former	Crvx	male	39	NA	
Tob_former	Crvx	male	40	NA	
Tob_former	Crvx	male	41	NA	
Tob_former	Crvx	male	42	NA	
Tob_former	Crvx	male	43	NA	
Tob_former	Crvx	male	44	NA	
Tob_former	Crvx	male	45	NA	
Tob_former	Crvx	male	46	NA	
Tob_former	Crvx	male	47	NA	
Tob_former	Crvx	male	48	NA	
Tob_former	Crvx	male	49	NA	
Tob_former	Crvx	male	50	NA	
Tob_former	Crvx	male	51	NA	
Tob_former	Crvx	male	52	NA	
Tob_former	Crvx	male	53	NA	
Tob_former	Crvx	male	54	NA	
Tob_former	Crvx	male	55	NA	
Tob_former	Crvx	male	56	NA	
Tob_former	Crvx	male	57	NA	
Tob_former	Crvx	male	58	NA	
Tob_former	Crvx	male	59	NA	
Tob_former	Crvx	male	60	NA	
Tob_former	Crvx	male	61	NA	
Tob_former	Crvx	male	62	NA	
Tob_former	Crvx	male	63	NA	
Tob_former	Crvx	male	64	NA	
Tob_former	Crvx	male	65	NA	
Tob_former	Crvx	male	66	NA	
Tob_former	Crvx	male	67	NA	
Tob_former	Crvx	male	68	NA	
Tob_former	Crvx	male	69	NA	
Tob_former	Crvx	male	70	NA	
Tob_former	Crvx	male	71	NA	
Tob_former	Crvx	male	72	NA	
Tob_former	Crvx	male	73	NA	
Tob_former	Crvx	male	74	NA	
Tob_former	Crvx	male	75	NA	
Tob_former	Crvx	male	76	NA	
Tob_former	Crvx	male	77	NA	
Tob_former	Crvx	male	78	NA	
Tob_former	Crvx	male	79	NA	
Tob_former	Crvx	male	80	NA	
Tob_former	Crvx	male	81	NA	
Tob_former	Crvx	male	82	NA	
Tob_former	Crvx	male	83	NA	
Tob_former	Crvx	male	84	NA	
Tob_former	Crvx	male	85	NA	
Tob_former	Crvx	male	86	NA	
Tob_former	Crvx	male	87	NA	
Tob_former	Crvx	male	88	NA	
Tob_former	Crvx	male	89	NA	
Tob_former	Crvx	male	90	NA	
Tob_former	Crvx	male	91	NA	
Tob_former	Crvx	male	92	NA	
Tob_former	Crvx	male	93	NA	
Tob_former	Crvx	male	94	NA	
Tob_former	Crvx	male	95	NA	
Tob_former	Crvx	male	96	NA	
Tob_former	Crvx	male	97	NA	
Tob_former	Crvx	male	98	NA	
Tob_former	Crvx	male	99	NA	
Tob_former	Crvx	female	15	1.1	
Tob_former	Crvx	female	16	1.1	
Tob_former	Crvx	female	17	1.1	
Tob_former	Crvx	female	18	1.1	
Tob_former	Crvx	female	19	1.1	
Tob_former	Crvx	female	20	1.1	
Tob_former	Crvx	female	21	1.1	
Tob_former	Crvx	female	22	1.1	
Tob_former	Crvx	female	23	1.1	
Tob_former	Crvx	female	24	1.1	
Tob_former	Crvx	female	25	1.1	
Tob_former	Crvx	female	26	1.1	
Tob_former	Crvx	female	27	1.1	
Tob_former	Crvx	female	28	1.1	
Tob_former	Crvx	female	29	1.1	
Tob_former	Crvx	female	30	1.1	
Tob_former	Crvx	female	31	1.1	
Tob_former	Crvx	female	32	1.1	
Tob_former	Crvx	female	33	1.1	
Tob_former	Crvx	female	34	1.1	
Tob_former	Crvx	female	35	1.1	
Tob_former	Crvx	female	36	1.1	
Tob_former	Crvx	female	37	1.1	
Tob_former	Crvx	female	38	1.1	
Tob_former	Crvx	female	39	1.1	
Tob_former	Crvx	female	40	1.1	
Tob_former	Crvx	female	41	1.1	
Tob_former	Crvx	female	42	1.1	
Tob_former	Crvx	female	43	1.1	
Tob_former	Crvx	female	44	1.1	
Tob_former	Crvx	female	45	1.1	
Tob_former	Crvx	female	46	1.1	
Tob_former	Crvx	female	47	1.1	
Tob_former	Crvx	female	48	1.1	
Tob_former	Crvx	female	49	1.1	
Tob_former	Crvx	female	50	1.1	
Tob_former	Crvx	female	51	1.1	
Tob_former	Crvx	female	52	1.1	
Tob_former	Crvx	female	53	1.1	
Tob_former	Crvx	female	54	1.1	
Tob_former	Crvx	female	55	1.1	
Tob_former	Crvx	female	56	1.1	
Tob_former	Crvx	female	57	1.1	
Tob_former	Crvx	female	58	1.1	
Tob_former	Crvx	female	59	1.1	
Tob_former	Crvx	female	60	1.1	
Tob_former	Crvx	female	61	1.1	
Tob_former	Crvx	female	62	1.1	
Tob_former	Crvx	female	63	1.1	
Tob_former	Crvx	female	64	1.1	
Tob_former	Crvx	female	65	1.1	
Tob_former	Crvx	female	66	1.1	
Tob_former	Crvx	female	67	1.1	
Tob_former	Crvx	female	68	1.1	
Tob_former	Crvx	female	69	1.1	
Tob_former	Crvx	female	70	1.1	
Tob_former	Crvx	female	71	1.1	
Tob_former	Crvx	female	72	1.1	
Tob_former	Crvx	female	73	1.1	
Tob_former	Crvx	female	74	1.1	
Tob_former	Crvx	female	75	1.1	
Tob_former	Crvx	female	76	1.1	
Tob_former	Crvx	female	77	1.1	
Tob_former	Crvx	female	78	1.1	
Tob_former	Crvx	female	79	1.1	
Tob_former	Crvx	female	80	1.1	
Tob_former	Crvx	female	81	1.1	
Tob_former	Crvx	female	82	1.1	
Tob_former	Crvx	female	83	1.1	
Tob_former	Crvx	female	84	1.1	
Tob_former	Crvx	female	85	1.1	
Tob_former	Crvx	female	86	1.1	
Tob_former	Crvx	female	87	1.1	
Tob_former	Crvx	female	88	1.1	
Tob_former	Crvx	female	89	1.1	
Tob_former	Crvx	female	90	1.1	
Tob_former	Crvx	female	91	1.1	
Tob_former	Crvx	female	92	1.1	
Tob_former	Crvx	female	93	1.1	
Tob_former	Crvx	female	94	1.1	
Tob_former	Crvx	female	95	1.1	
Tob_former	Crvx	female	96	1.1	
Tob_former	Crvx	female	97	1.1	
Tob_former	Crvx	female	98	1.1	
Tob_former	Crvx	female	99	1.1	
Tob_former	Bldr	male	15	2.1	
Tob_former	Bldr	male	16	2.1	
Tob_former	Bldr	male	17	2.1	
Tob_former	Bldr	male	18	2.1	
Tob_former	Bldr	male	19	2.1	
Tob_former	Bldr	male	20	2.1	
Tob_former	Bldr	male	21	2.1	
Tob_former	Bldr	male	22	2.1	
Tob_former	Bldr	male	23	2.1	
Tob_former	Bldr	male	24	2.1	
Tob_former	Bldr	male	25	2.1	
Tob_former	Bldr	male	26	2.1	
Tob_former	Bldr	male	27	2.1	
Tob_former	Bldr	male	28	2.1	
Tob_former	Bldr	male	29	2.1	
Tob_former	Bldr	male	30	2.1	
Tob_former	Bldr	male	31	2.1	
Tob_former	Bldr	male	32	2.1	
Tob_former	Bldr	male	33	2.1	
Tob_former	Bldr	male	34	2.1	
Tob_former	Bldr	male	35	2.1	
Tob_former	Bldr	male	36	2.1	
Tob_former	Bldr	male	37	2.1	
Tob_former	Bldr	male	38	2.1	
Tob_former	Bldr	male	39	2.1	
Tob_former	Bldr	male	40	2.1	
Tob_former	Bldr	male	41	2.1	
Tob_former	Bldr	male	42	2.1	
Tob_former	Bldr	male	43	2.1	
Tob_former	Bldr	male	44	2.1	
Tob_former	Bldr	male	45	2.1	
Tob_former	Bldr	male	46	2.1	
Tob_former	Bldr	male	47	2.1	
Tob_former	Bldr	male	48	2.1	
Tob_former	Bldr	male	49	2.1	
Tob_former	Bldr	male	50	2.1	
Tob_former	Bldr	male	51	2.1	
Tob_former	Bldr	male	52	2.1	
Tob_former	Bldr	male	53	2.1	
Tob_former	Bldr	male	54	2.1	
Tob_former	Bldr	male	55	2.1	
Tob_former	Bldr	male	56	2.1	
Tob_former	Bldr	male	57	2.1	
Tob_former	Bldr	male	58	2.1	
Tob_former	Bldr	male	59	2.1	
Tob_former	Bldr	male	60	2.1	
Tob_former	Bldr	male	61	2.1	
Tob_former	Bldr	male	62	2.1	
Tob_former	Bldr	male	63	2.1	
Tob_former	Bldr	male	64	2.1	
Tob_former	Bldr	male	65	2.1	
Tob_former	Bldr	male	66	2.1	
Tob_former	Bldr	male	67	2.1	
Tob_former	Bldr	male	68	2.1	
Tob_former	Bldr	male	69	2.1	
Tob_former	Bldr	male	70	2.1	
Tob_former	Bldr	male	71	2.1	
Tob_former	Bldr	male	72	2.1	
Tob_former	Bldr	male	73	2.1	
Tob_former	Bldr	male	74	2.1	
Tob_former	Bldr	male	75	2.1	
Tob_former	Bldr	male	76	2.1	
Tob_former	Bldr	male	77	2.1	
Tob_former	Bldr	male	78	2.1	
Tob_former	Bldr	male	79	2.1	
Tob_former	Bldr	male	80	2.1	
Tob_former	Bldr	male	81	2.1	
Tob_former	Bldr	male	82	2.1	
Tob_former	Bldr	male	83	2.1	
Tob_former	Bldr	male	84	2.1	
Tob_former	Bldr	male	85	2.1	
Tob_former	Bldr	male	86	2.1	
Tob_former	Bldr	male	87	2.1	
Tob_former	Bldr	male	88	2.1	
Tob_former	Bldr	male	89	2.1	
Tob_former	Bldr	male	90	2.1	
Tob_former	Bldr	male	91	2.1	
Tob_former	Bldr	male	92	2.1	
Tob_former	Bldr	male	93	2.1	
Tob_former	Bldr	male	94	2.1	
Tob_former	Bldr	male	95	2.1	
Tob_former	Bldr	male	96	2.1	
Tob_former	Bldr	male	97	2.1	
Tob_former	Bldr	male	98	2.1	
Tob_former	Bldr	male	99	2.1	
Tob_former	Bldr	female	15	1.9	
Tob_former	Bldr	female	16	1.9	
Tob_former	Bldr	female	17	1.9	
Tob_former	Bldr	female	18	1.9	
Tob_former	Bldr	female	19	1.9	
Tob_former	Bldr	female	20	1.9	
Tob_former	Bldr	female	21	1.9	
Tob_former	Bldr	female	22	1.9	
Tob_former	Bldr	female	23	1.9	
Tob_former	Bldr	female	24	1.9	
Tob_former	Bldr	female	25	1.9	
Tob_former	Bldr	female	26	1.9	
Tob_former	Bldr	female	27	1.9	
Tob_former	Bldr	female	28	1.9	
Tob_former	Bldr	female	29	1.9	
Tob_former	Bldr	female	30	1.9	
Tob_former	Bldr	female	31	1.9	
Tob_former	Bldr	female	32	1.9	
Tob_former	Bldr	female	33	1.9	
Tob_former	Bldr	female	34	1.9	
Tob_former	Bldr	female	35	1.9	
Tob_former	Bldr	female	36	1.9	
Tob_former	Bldr	female	37	1.9	
Tob_former	Bldr	female	38	1.9	
Tob_former	Bldr	female	39	1.9	
Tob_former	Bldr	female	40	1.9	
Tob_former	Bldr	female	41	1.9	
Tob_former	Bldr	female	42	1.9	
Tob_former	Bldr	female	43	1.9	
Tob_former	Bldr	female	44	1.9	
Tob_former	Bldr	female	45	1.9	
Tob_former	Bldr	female	46	1.9	
Tob_former	Bldr	female	47	1.9	
Tob_former	Bldr	female	48	1.9	
Tob_former	Bldr	female	49	1.9	
Tob_former	Bldr	female	50	1.9	
Tob_former	Bldr	female	51	1.9	
Tob_former	Bldr	female	52	1.9	
Tob_former	Bldr	female	53	1.9	
Tob_former	Bldr	female	54	1.9	
Tob_former	Bldr	female	55	1.9	
Tob_former	Bldr	female	56	1.9	
Tob_former	Bldr	female	57	1.9	
Tob_former	Bldr	female	58	1.9	
Tob_former	Bldr	female	59	1.9	
Tob_former	Bldr	female	60	1.9	
Tob_former	Bldr	female	61	1.9	
Tob_former	Bldr	female	62	1.9	
Tob_former	Bldr	female	63	1.9	
Tob_former	Bldr	female	64	1.9	
Tob_former	Bldr	female	65	1.9	
Tob_former	Bldr	female	66	1.9	
Tob_former	Bldr	female	67	1.9	
Tob_former	Bldr	female	68	1.9	
Tob_former	Bldr	female	69	1.9	
Tob_former	Bldr	female	70	1.9	
Tob_former	Bldr	female	71	1.9	
Tob_former	Bldr	female	72	1.9	
Tob_former	Bldr	female	73	1.9	
Tob_former	Bldr	female	74	1.9	
Tob_former	Bldr	female	75	1.9	
Tob_former	Bldr	female	76	1.9	
Tob_former	Bldr	female	77	1.9	
Tob_former	Bldr	female	78	1.9	
Tob_former	Bldr	female	79	1.9	
Tob_former	Bldr	female	80	1.9	
Tob_former	Bldr	female	81	1.9	
Tob_former	Bldr	female	82	1.9	
Tob_former	Bldr	female	83	1.9	
Tob_former	Bldr	female	84	1.9	
Tob_former	Bldr	female	85	1.9	
Tob_former	Bldr	female	86	1.9	
Tob_former	Bldr	female	87	1.9	
Tob_former	Bldr	female	88	1.9	
Tob_former	Bldr	female	89	1.9	
Tob_former	Bldr	female	90	1.9	
Tob_former	Bldr	female	91	1.9	
Tob_former	Bldr	female	92	1.9	
Tob_former	Bldr	female	93	1.9	
Tob_former	Bldr	female	94	1.9	
Tob_former	Bldr	female	95	1.9	
Tob_former	Bldr	female	96	1.9	
Tob_former	Bldr	female	97	1.9	
Tob_former	Bldr	female	98	1.9	
Tob_former	Bldr	female	99	1.9	
Tob_former	Kdny	male	15	1.7	
Tob_former	Kdny	male	16	1.7	
Tob_former	Kdny	male	17	1.7	
Tob_former	Kdny	male	18	1.7	
Tob_former	Kdny	male	19	1.7	
Tob_former	Kdny	male	20	1.7	
Tob_former	Kdny	male	21	1.7	
Tob_former	Kdny	male	22	1.7	
Tob_former	Kdny	male	23	1.7	
Tob_former	Kdny	male	24	1.7	
Tob_former	Kdny	male	25	1.7	
Tob_former	Kdny	male	26	1.7	
Tob_former	Kdny	male	27	1.7	
Tob_former	Kdny	male	28	1.7	
Tob_former	Kdny	male	29	1.7	
Tob_former	Kdny	male	30	1.7	
Tob_former	Kdny	male	31	1.7	
Tob_former	Kdny	male	32	1.7	
Tob_former	Kdny	male	33	1.7	
Tob_former	Kdny	male	34	1.7	
Tob_former	Kdny	male	35	1.7	
Tob_former	Kdny	male	36	1.7	
Tob_former	Kdny	male	37	1.7	
Tob_former	Kdny	male	38	1.7	
Tob_former	Kdny	male	39	1.7	
Tob_former	Kdny	male	40	1.7	
Tob_former	Kdny	male	41	1.7	
Tob_former	Kdny	male	42	1.7	
Tob_former	Kdny	male	43	1.7	
Tob_former	Kdny	male	44	1.7	
Tob_former	Kdny	male	45	1.7	
Tob_former	Kdny	male	46	1.7	
Tob_former	Kdny	male	47	1.7	
Tob_former	Kdny	male	48	1.7	
Tob_former	Kdny	male	49	1.7	
Tob_former	Kdny	male	50	1.7	
Tob_former	Kdny	male	51	1.7	
Tob_former	Kdny	male	52	1.7	
Tob_former	Kdny	male	53	1.7	
Tob_former	Kdny	male	54	1.7	
Tob_former	Kdny	male	55	1.7	
Tob_former	Kdny	male	56	1.7	
Tob_former	Kdny	male	57	1.7	
Tob_former	Kdny	male	58	1.7	
Tob_former	Kdny	male	59	1.7	
Tob_former	Kdny	male	60	1.7	
Tob_former	Kdny	male	61	1.7	
Tob_former	Kdny	male	62	1.7	
Tob_former	Kdny	male	63	1.7	
Tob_former	Kdny	male	64	1.7	
Tob_former	Kdny	male	65	1.7	
Tob_former	Kdny	male	66	1.7	
Tob_former	Kdny	male	67	1.7	
Tob_former	Kdny	male	68	1.7	
Tob_former	Kdny	male	69	1.7	
Tob_former	Kdny	male	70	1.7	
Tob_former	Kdny	male	71	1.7	
Tob_former	Kdny	male	72	1.7	
Tob_former	Kdny	male	73	1.7	
Tob_former	Kdny	male	74	1.7	
Tob_former	Kdny	male	75	1.7	
Tob_former	Kdny	male	76	1.7	
Tob_former	Kdny	male	77	1.7	
Tob_former	Kdny	male	78	1.7	
Tob_former	Kdny	male	79	1.7	
Tob_former	Kdny	male	80	1.7	
Tob_former	Kdny	male	81	1.7	
Tob_former	Kdny	male	82	1.7	
Tob_former	Kdny	male	83	1.7	
Tob_former	Kdny	male	84	1.7	
Tob_former	Kdny	male	85	1.7	
Tob_former	Kdny	male	86	1.7	
Tob_former	Kdny	male	87	1.7	
Tob_former	Kdny	male	88	1.7	
Tob_former	Kdny	male	89	1.7	
Tob_former	Kdny	male	90	1.7	
Tob_former	Kdny	male	91	1.7	
Tob_former	Kdny	male	92	1.7	
Tob_former	Kdny	male	93	1.7	
Tob_former	Kdny	male	94	1.7	
Tob_former	Kdny	male	95	1.7	
Tob_former	Kdny	male	96	1.7	
Tob_former	Kdny	male	97	1.7	
Tob_former	Kdny	male	98	1.7	
Tob_former	Kdny	male	99	1.7	
Tob_former	Kdny	female	15	1	
Tob_former	Kdny	female	16	1	
Tob_former	Kdny	female	17	1	
Tob_former	Kdny	female	18	1	
Tob_former	Kdny	female	19	1	
Tob_former	Kdny	female	20	1	
Tob_former	Kdny	female	21	1	
Tob_former	Kdny	female	22	1	
Tob_former	Kdny	female	23	1	
Tob_former	Kdny	female	24	1	
Tob_former	Kdny	female	25	1	
Tob_former	Kdny	female	26	1	
Tob_former	Kdny	female	27	1	
Tob_former	Kdny	female	28	1	
Tob_former	Kdny	female	29	1	
Tob_former	Kdny	female	30	1	
Tob_former	Kdny	female	31	1	
Tob_former	Kdny	female	32	1	
Tob_former	Kdny	female	33	1	
Tob_former	Kdny	female	34	1	
Tob_former	Kdny	female	35	1	
Tob_former	Kdny	female	36	1	
Tob_former	Kdny	female	37	1	
Tob_former	Kdny	female	38	1	
Tob_former	Kdny	female	39	1	
Tob_former	Kdny	female	40	1	
Tob_former	Kdny	female	41	1	
Tob_former	Kdny	female	42	1	
Tob_former	Kdny	female	43	1	
Tob_former	Kdny	female	44	1	
Tob_former	Kdny	female	45	1	
Tob_former	Kdny	female	46	1	
Tob_former	Kdny	female	47	1	
Tob_former	Kdny	female	48	1	
Tob_former	Kdny	female	49	1	
Tob_former	Kdny	female	50	1	
Tob_former	Kdny	female	51	1	
Tob_former	Kdny	female	52	1	
Tob_former	Kdny	female	53	1	
Tob_former	Kdny	female	54	1	
Tob_former	Kdny	female	55	1	
Tob_former	Kdny	female	56	1	
Tob_former	Kdny	female	57	1	
Tob_former	Kdny	female	58	1	
Tob_former	Kdny	female	59	1	
Tob_former	Kdny	female	60	1	
Tob_former	Kdny	female	61	1	
Tob_former	Kdny	female	62	1	
Tob_former	Kdny	female	63	1	
Tob_former	Kdny	female	64	1	
Tob_former	Kdny	female	65	1	
Tob_former	Kdny	female	66	1	
Tob_former	Kdny	female	67	1	
Tob_former	Kdny	female	68	1	
Tob_former	Kdny	female	69	1	
Tob_former	Kdny	female	70	1	
Tob_former	Kdny	female	71	1	
Tob_former	Kdny	female	72	1	
Tob_former	Kdny	female	73	1	
Tob_former	Kdny	female	74	1	
Tob_former	Kdny	female	75	1	
Tob_former	Kdny	female	76	1	
Tob_former	Kdny	female	77	1	
Tob_former	Kdny	female	78	1	
Tob_former	Kdny	female	79	1	
Tob_former	Kdny	female	80	1	
Tob_former	Kdny	female	81	1	
Tob_former	Kdny	female	82	1	
Tob_former	Kdny	female	83	1	
Tob_former	Kdny	female	84	1	
Tob_former	Kdny	female	85	1	
Tob_former	Kdny	female	86	1	
Tob_former	Kdny	female	87	1	
Tob_former	Kdny	female	88	1	
Tob_former	Kdny	female	89	1	
Tob_former	Kdny	female	90	1	
Tob_former	Kdny	female	91	1	
Tob_former	Kdny	female	92	1	
Tob_former	Kdny	female	93	1	
Tob_former	Kdny	female	94	1	
Tob_former	Kdny	female	95	1	
Tob_former	Kdny	female	96	1	
Tob_former	Kdny	female	97	1	
Tob_former	Kdny	female	98	1	
Tob_former	Kdny	female	99	1	
Tob_former	Hem_stk	male	15	1.1	
Tob_former	Hem_stk	male	16	1.1	
Tob_former	Hem_stk	male	17	1.1	
Tob_former	Hem_stk	male	18	1.1	
Tob_former	Hem_stk	male	19	1.1	
Tob_former	Hem_stk	male	20	1.1	
Tob_former	Hem_stk	male	21	1.1	
Tob_former	Hem_stk	male	22	1.1	
Tob_former	Hem_stk	male	23	1.1	
Tob_former	Hem_stk	male	24	1.1	
Tob_former	Hem_stk	male	25	1.1	
Tob_former	Hem_stk	male	26	1.1	
Tob_former	Hem_stk	male	27	1.1	
Tob_former	Hem_stk	male	28	1.1	
Tob_former	Hem_stk	male	29	1.1	
Tob_former	Hem_stk	male	30	1.1	
Tob_former	Hem_stk	male	31	1.1	
Tob_former	Hem_stk	male	32	1.1	
Tob_former	Hem_stk	male	33	1.1	
Tob_former	Hem_stk	male	34	1.1	
Tob_former	Hem_stk	male	35	1.1	
Tob_former	Hem_stk	male	36	1.1	
Tob_former	Hem_stk	male	37	1.1	
Tob_former	Hem_stk	male	38	1.1	
Tob_former	Hem_stk	male	39	1.1	
Tob_former	Hem_stk	male	40	1.1	
Tob_former	Hem_stk	male	41	1.1	
Tob_former	Hem_stk	male	42	1.1	
Tob_former	Hem_stk	male	43	1.1	
Tob_former	Hem_stk	male	44	1.1	
Tob_former	Hem_stk	male	45	1.1	
Tob_former	Hem_stk	male	46	1.1	
Tob_former	Hem_stk	male	47	1.1	
Tob_former	Hem_stk	male	48	1.1	
Tob_former	Hem_stk	male	49	1.1	
Tob_former	Hem_stk	male	50	1.1	
Tob_former	Hem_stk	male	51	1.1	
Tob_former	Hem_stk	male	52	1.1	
Tob_former	Hem_stk	male	53	1.1	
Tob_former	Hem_stk	male	54	1.1	
Tob_former	Hem_stk	male	55	1.1	
Tob_former	Hem_stk	male	56	1.1	
Tob_former	Hem_stk	male	57	1.1	
Tob_former	Hem_stk	male	58	1.1	
Tob_former	Hem_stk	male	59	1.1	
Tob_former	Hem_stk	male	60	1.1	
Tob_former	Hem_stk	male	61	1.1	
Tob_former	Hem_stk	male	62	1.1	
Tob_former	Hem_stk	male	63	1.1	
Tob_former	Hem_stk	male	64	1.1	
Tob_former	Hem_stk	male	65	1.1	
Tob_former	Hem_stk	male	66	1.1	
Tob_former	Hem_stk	male	67	1.1	
Tob_former	Hem_stk	male	68	1.1	
Tob_former	Hem_stk	male	69	1.1	
Tob_former	Hem_stk	male	70	1.1	
Tob_former	Hem_stk	male	71	1.1	
Tob_former	Hem_stk	male	72	1.1	
Tob_former	Hem_stk	male	73	1.1	
Tob_former	Hem_stk	male	74	1.1	
Tob_former	Hem_stk	male	75	1.1	
Tob_former	Hem_stk	male	76	1.1	
Tob_former	Hem_stk	male	77	1.1	
Tob_former	Hem_stk	male	78	1.1	
Tob_former	Hem_stk	male	79	1.1	
Tob_former	Hem_stk	male	80	1.1	
Tob_former	Hem_stk	male	81	1.1	
Tob_former	Hem_stk	male	82	1.1	
Tob_former	Hem_stk	male	83	1.1	
Tob_former	Hem_stk	male	84	1.1	
Tob_former	Hem_stk	male	85	1.1	
Tob_former	Hem_stk	male	86	1.1	
Tob_former	Hem_stk	male	87	1.1	
Tob_former	Hem_stk	male	88	1.1	
Tob_former	Hem_stk	male	89	1.1	
Tob_former	Hem_stk	male	90	1.1	
Tob_former	Hem_stk	male	91	1.1	
Tob_former	Hem_stk	male	92	1.1	
Tob_former	Hem_stk	male	93	1.1	
Tob_former	Hem_stk	male	94	1.1	
Tob_former	Hem_stk	male	95	1.1	
Tob_former	Hem_stk	male	96	1.1	
Tob_former	Hem_stk	male	97	1.1	
Tob_former	Hem_stk	male	98	1.1	
Tob_former	Hem_stk	male	99	1.1	
Tob_former	Hem_stk	female	15	1.2	
Tob_former	Hem_stk	female	16	1.2	
Tob_former	Hem_stk	female	17	1.2	
Tob_former	Hem_stk	female	18	1.2	
Tob_former	Hem_stk	female	19	1.2	
Tob_former	Hem_stk	female	20	1.2	
Tob_former	Hem_stk	female	21	1.2	
Tob_former	Hem_stk	female	22	1.2	
Tob_former	Hem_stk	female	23	1.2	
Tob_former	Hem_stk	female	24	1.2	
Tob_former	Hem_stk	female	25	1.2	
Tob_former	Hem_stk	female	26	1.2	
Tob_former	Hem_stk	female	27	1.2	
Tob_former	Hem_stk	female	28	1.2	
Tob_former	Hem_stk	female	29	1.2	
Tob_former	Hem_stk	female	30	1.2	
Tob_former	Hem_stk	female	31	1.2	
Tob_former	Hem_stk	female	32	1.2	
Tob_former	Hem_stk	female	33	1.2	
Tob_former	Hem_stk	female	34	1.2	
Tob_former	Hem_stk	female	35	1.3	
Tob_former	Hem_stk	female	36	1.3	
Tob_former	Hem_stk	female	37	1.3	
Tob_former	Hem_stk	female	38	1.3	
Tob_former	Hem_stk	female	39	1.3	
Tob_former	Hem_stk	female	40	1.3	
Tob_former	Hem_stk	female	41	1.3	
Tob_former	Hem_stk	female	42	1.3	
Tob_former	Hem_stk	female	43	1.3	
Tob_former	Hem_stk	female	44	1.3	
Tob_former	Hem_stk	female	45	1.3	
Tob_former	Hem_stk	female	46	1.3	
Tob_former	Hem_stk	female	47	1.3	
Tob_former	Hem_stk	female	48	1.3	
Tob_former	Hem_stk	female	49	1.3	
Tob_former	Hem_stk	female	50	1.3	
Tob_former	Hem_stk	female	51	1.3	
Tob_former	Hem_stk	female	52	1.3	
Tob_former	Hem_stk	female	53	1.3	
Tob_former	Hem_stk	female	54	1.3	
Tob_former	Hem_stk	female	55	1.3	
Tob_former	Hem_stk	female	56	1.3	
Tob_former	Hem_stk	female	57	1.3	
Tob_former	Hem_stk	female	58	1.3	
Tob_former	Hem_stk	female	59	1.3	
Tob_former	Hem_stk	female	60	1.3	
Tob_former	Hem_stk	female	61	1.3	
Tob_former	Hem_stk	female	62	1.3	
Tob_former	Hem_stk	female	63	1.3	
Tob_former	Hem_stk	female	64	1.3	
Tob_former	Hem_stk	female	65	1.1	
Tob_former	Hem_stk	female	66	1.1	
Tob_former	Hem_stk	female	67	1.1	
Tob_former	Hem_stk	female	68	1.1	
Tob_former	Hem_stk	female	69	1.1	
Tob_former	Hem_stk	female	70	1.1	
Tob_former	Hem_stk	female	71	1.1	
Tob_former	Hem_stk	female	72	1.1	
Tob_former	Hem_stk	female	73	1.1	
Tob_former	Hem_stk	female	74	1.1	
Tob_former	Hem_stk	female	75	1.1	
Tob_former	Hem_stk	female	76	1.1	
Tob_former	Hem_stk	female	77	1.1	
Tob_former	Hem_stk	female	78	1.1	
Tob_former	Hem_stk	female	79	1.1	
Tob_former	Hem_stk	female	80	1.1	
Tob_former	Hem_stk	female	81	1.1	
Tob_former	Hem_stk	female	82	1.1	
Tob_former	Hem_stk	female	83	1.1	
Tob_former	Hem_stk	female	84	1.1	
Tob_former	Hem_stk	female	85	1.1	
Tob_former	Hem_stk	female	86	1.1	
Tob_former	Hem_stk	female	87	1.1	
Tob_former	Hem_stk	female	88	1.1	
Tob_former	Hem_stk	female	89	1.1	
Tob_former	Hem_stk	female	90	1.1	
Tob_former	Hem_stk	female	91	1.1	
Tob_former	Hem_stk	female	92	1.1	
Tob_former	Hem_stk	female	93	1.1	
Tob_former	Hem_stk	female	94	1.1	
Tob_former	Hem_stk	female	95	1.1	
Tob_former	Hem_stk	female	96	1.1	
Tob_former	Hem_stk	female	97	1.1	
Tob_former	Hem_stk	female	98	1.1	
Tob_former	Hem_stk	female	99	1.1	
Tob_former	Isch_stk	male	15	1.1	
Tob_former	Isch_stk	male	16	1.1	
Tob_former	Isch_stk	male	17	1.1	
Tob_former	Isch_stk	male	18	1.1	
Tob_former	Isch_stk	male	19	1.1	
Tob_former	Isch_stk	male	20	1.1	
Tob_former	Isch_stk	male	21	1.1	
Tob_former	Isch_stk	male	22	1.1	
Tob_former	Isch_stk	male	23	1.1	
Tob_former	Isch_stk	male	24	1.1	
Tob_former	Isch_stk	male	25	1.1	
Tob_former	Isch_stk	male	26	1.1	
Tob_former	Isch_stk	male	27	1.1	
Tob_former	Isch_stk	male	28	1.1	
Tob_former	Isch_stk	male	29	1.1	
Tob_former	Isch_stk	male	30	1.1	
Tob_former	Isch_stk	male	31	1.1	
Tob_former	Isch_stk	male	32	1.1	
Tob_former	Isch_stk	male	33	1.1	
Tob_former	Isch_stk	male	34	1.1	
Tob_former	Isch_stk	male	35	1.1	
Tob_former	Isch_stk	male	36	1.1	
Tob_former	Isch_stk	male	37	1.1	
Tob_former	Isch_stk	male	38	1.1	
Tob_former	Isch_stk	male	39	1.1	
Tob_former	Isch_stk	male	40	1.1	
Tob_former	Isch_stk	male	41	1.1	
Tob_former	Isch_stk	male	42	1.1	
Tob_former	Isch_stk	male	43	1.1	
Tob_former	Isch_stk	male	44	1.1	
Tob_former	Isch_stk	male	45	1.1	
Tob_former	Isch_stk	male	46	1.1	
Tob_former	Isch_stk	male	47	1.1	
Tob_former	Isch_stk	male	48	1.1	
Tob_former	Isch_stk	male	49	1.1	
Tob_former	Isch_stk	male	50	1.1	
Tob_former	Isch_stk	male	51	1.1	
Tob_former	Isch_stk	male	52	1.1	
Tob_former	Isch_stk	male	53	1.1	
Tob_former	Isch_stk	male	54	1.1	
Tob_former	Isch_stk	male	55	1.1	
Tob_former	Isch_stk	male	56	1.1	
Tob_former	Isch_stk	male	57	1.1	
Tob_former	Isch_stk	male	58	1.1	
Tob_former	Isch_stk	male	59	1.1	
Tob_former	Isch_stk	male	60	1.1	
Tob_former	Isch_stk	male	61	1.1	
Tob_former	Isch_stk	male	62	1.1	
Tob_former	Isch_stk	male	63	1.1	
Tob_former	Isch_stk	male	64	1.1	
Tob_former	Isch_stk	male	65	1.1	
Tob_former	Isch_stk	male	66	1.1	
Tob_former	Isch_stk	male	67	1.1	
Tob_former	Isch_stk	male	68	1.1	
Tob_former	Isch_stk	male	69	1.1	
Tob_former	Isch_stk	male	70	1.1	
Tob_former	Isch_stk	male	71	1.1	
Tob_former	Isch_stk	male	72	1.1	
Tob_former	Isch_stk	male	73	1.1	
Tob_former	Isch_stk	male	74	1.1	
Tob_former	Isch_stk	male	75	1.1	
Tob_former	Isch_stk	male	76	1.1	
Tob_former	Isch_stk	male	77	1.1	
Tob_former	Isch_stk	male	78	1.1	
Tob_former	Isch_stk	male	79	1.1	
Tob_former	Isch_stk	male	80	1.1	
Tob_former	Isch_stk	male	81	1.1	
Tob_former	Isch_stk	male	82	1.1	
Tob_former	Isch_stk	male	83	1.1	
Tob_former	Isch_stk	male	84	1.1	
Tob_former	Isch_stk	male	85	1.1	
Tob_former	Isch_stk	male	86	1.1	
Tob_former	Isch_stk	male	87	1.1	
Tob_former	Isch_stk	male	88	1.1	
Tob_former	Isch_stk	male	89	1.1	
Tob_former	Isch_stk	male	90	1.1	
Tob_former	Isch_stk	male	91	1.1	
Tob_former	Isch_stk	male	92	1.1	
Tob_former	Isch_stk	male	93	1.1	
Tob_former	Isch_stk	male	94	1.1	
Tob_former	Isch_stk	male	95	1.1	
Tob_former	Isch_stk	male	96	1.1	
Tob_former	Isch_stk	male	97	1.1	
Tob_former	Isch_stk	male	98	1.1	
Tob_former	Isch_stk	male	99	1.1	
Tob_former	Isch_stk	female	15	1.2	
Tob_former	Isch_stk	female	16	1.2	
Tob_former	Isch_stk	female	17	1.2	
Tob_former	Isch_stk	female	18	1.2	
Tob_former	Isch_stk	female	19	1.2	
Tob_former	Isch_stk	female	20	1.2	
Tob_former	Isch_stk	female	21	1.2	
Tob_former	Isch_stk	female	22	1.2	
Tob_former	Isch_stk	female	23	1.2	
Tob_former	Isch_stk	female	24	1.2	
Tob_former	Isch_stk	female	25	1.2	
Tob_former	Isch_stk	female	26	1.2	
Tob_former	Isch_stk	female	27	1.2	
Tob_former	Isch_stk	female	28	1.2	
Tob_former	Isch_stk	female	29	1.2	
Tob_former	Isch_stk	female	30	1.2	
Tob_former	Isch_stk	female	31	1.2	
Tob_former	Isch_stk	female	32	1.2	
Tob_former	Isch_stk	female	33	1.2	
Tob_former	Isch_stk	female	34	1.2	
Tob_former	Isch_stk	female	35	1.3	
Tob_former	Isch_stk	female	36	1.3	
Tob_former	Isch_stk	female	37	1.3	
Tob_former	Isch_stk	female	38	1.3	
Tob_former	Isch_stk	female	39	1.3	
Tob_former	Isch_stk	female	40	1.3	
Tob_former	Isch_stk	female	41	1.3	
Tob_former	Isch_stk	female	42	1.3	
Tob_former	Isch_stk	female	43	1.3	
Tob_former	Isch_stk	female	44	1.3	
Tob_former	Isch_stk	female	45	1.3	
Tob_former	Isch_stk	female	46	1.3	
Tob_former	Isch_stk	female	47	1.3	
Tob_former	Isch_stk	female	48	1.3	
Tob_former	Isch_stk	female	49	1.3	
Tob_former	Isch_stk	female	50	1.3	
Tob_former	Isch_stk	female	51	1.3	
Tob_former	Isch_stk	female	52	1.3	
Tob_former	Isch_stk	female	53	1.3	
Tob_former	Isch_stk	female	54	1.3	
Tob_former	Isch_stk	female	55	1.3	
Tob_former	Isch_stk	female	56	1.3	
Tob_former	Isch_stk	female	57	1.3	
Tob_former	Isch_stk	female	58	1.3	
Tob_former	Isch_stk	female	59	1.3	
Tob_former	Isch_stk	female	60	1.3	
Tob_former	Isch_stk	female	61	1.3	
Tob_former	Isch_stk	female	62	1.3	
Tob_former	Isch_stk	female	63	1.3	
Tob_former	Isch_stk	female	64	1.3	
Tob_former	Isch_stk	female	65	1.1	
Tob_former	Isch_stk	female	66	1.1	
Tob_former	Isch_stk	female	67	1.1	
Tob_former	Isch_stk	female	68	1.1	
Tob_former	Isch_stk	female	69	1.1	
Tob_former	Isch_stk	female	70	1.1	
Tob_former	Isch_stk	female	71	1.1	
Tob_former	Isch_stk	female	72	1.1	
Tob_former	Isch_stk	female	73	1.1	
Tob_former	Isch_stk	female	74	1.1	
Tob_former	Isch_stk	female	75	1.1	
Tob_former	Isch_stk	female	76	1.1	
Tob_former	Isch_stk	female	77	1.1	
Tob_former	Isch_stk	female	78	1.1	
Tob_former	Isch_stk	female	79	1.1	
Tob_former	Isch_stk	female	80	1.1	
Tob_former	Isch_stk	female	81	1.1	
Tob_former	Isch_stk	female	82	1.1	
Tob_former	Isch_stk	female	83	1.1	
Tob_former	Isch_stk	female	84	1.1	
Tob_former	Isch_stk	female	85	1.1	
Tob_former	Isch_stk	female	86	1.1	
Tob_former	Isch_stk	female	87	1.1	
Tob_former	Isch_stk	female	88	1.1	
Tob_former	Isch_stk	female	89	1.1	
Tob_former	Isch_stk	female	90	1.1	
Tob_former	Isch_stk	female	91	1.1	
Tob_former	Isch_stk	female	92	1.1	
Tob_former	Isch_stk	female	93	1.1	
Tob_former	Isch_stk	female	94	1.1	
Tob_former	Isch_stk	female	95	1.1	
Tob_former	Isch_stk	female	96	1.1	
Tob_former	Isch_stk	female	97	1.1	
Tob_former	Isch_stk	female	98	1.1	
Tob_former	Isch_stk	female	99	1.1	
Tob_former	Copd	male	15	8.4	
Tob_former	Copd	male	16	8.4	
Tob_former	Copd	male	17	8.4	
Tob_former	Copd	male	18	8.4	
Tob_former	Copd	male	19	8.4	
Tob_former	Copd	male	20	8.4	
Tob_former	Copd	male	21	8.4	
Tob_former	Copd	male	22	8.4	
Tob_former	Copd	male	23	8.4	
Tob_former	Copd	male	24	8.4	
Tob_former	Copd	male	25	8.4	
Tob_former	Copd	male	26	8.4	
Tob_former	Copd	male	27	8.4	
Tob_former	Copd	male	28	8.4	
Tob_former	Copd	male	29	8.4	
Tob_former	Copd	male	30	8.4	
Tob_former	Copd	male	31	8.4	
Tob_former	Copd	male	32	8.4	
Tob_former	Copd	male	33	8.4	
Tob_former	Copd	male	34	8.4	
Tob_former	Copd	male	35	8.4	
Tob_former	Copd	male	36	8.4	
Tob_former	Copd	male	37	8.4	
Tob_former	Copd	male	38	8.4	
Tob_former	Copd	male	39	8.4	
Tob_former	Copd	male	40	8.4	
Tob_former	Copd	male	41	8.4	
Tob_former	Copd	male	42	8.4	
Tob_former	Copd	male	43	8.4	
Tob_former	Copd	male	44	8.4	
Tob_former	Copd	male	45	8.4	
Tob_former	Copd	male	46	8.4	
Tob_former	Copd	male	47	8.4	
Tob_former	Copd	male	48	8.4	
Tob_former	Copd	male	49	8.4	
Tob_former	Copd	male	50	8.4	
Tob_former	Copd	male	51	8.4	
Tob_former	Copd	male	52	8.4	
Tob_former	Copd	male	53	8.4	
Tob_former	Copd	male	54	8.4	
Tob_former	Copd	male	55	8.4	
Tob_former	Copd	male	56	8.4	
Tob_former	Copd	male	57	8.4	
Tob_former	Copd	male	58	8.4	
Tob_former	Copd	male	59	8.4	
Tob_former	Copd	male	60	8.4	
Tob_former	Copd	male	61	8.4	
Tob_former	Copd	male	62	8.4	
Tob_former	Copd	male	63	8.4	
Tob_former	Copd	male	64	8.4	
Tob_former	Copd	male	65	8.4	
Tob_former	Copd	male	66	8.4	
Tob_former	Copd	male	67	8.4	
Tob_former	Copd	male	68	8.4	
Tob_former	Copd	male	69	8.4	
Tob_former	Copd	male	70	8.4	
Tob_former	Copd	male	71	8.4	
Tob_former	Copd	male	72	8.4	
Tob_former	Copd	male	73	8.4	
Tob_former	Copd	male	74	8.4	
Tob_former	Copd	male	75	8.4	
Tob_former	Copd	male	76	8.4	
Tob_former	Copd	male	77	8.4	
Tob_former	Copd	male	78	8.4	
Tob_former	Copd	male	79	8.4	
Tob_former	Copd	male	80	8.4	
Tob_former	Copd	male	81	8.4	
Tob_former	Copd	male	82	8.4	
Tob_former	Copd	male	83	8.4	
Tob_former	Copd	male	84	8.4	
Tob_former	Copd	male	85	8.4	
Tob_former	Copd	male	86	8.4	
Tob_former	Copd	male	87	8.4	
Tob_former	Copd	male	88	8.4	
Tob_former	Copd	male	89	8.4	
Tob_former	Copd	male	90	8.4	
Tob_former	Copd	male	91	8.4	
Tob_former	Copd	male	92	8.4	
Tob_former	Copd	male	93	8.4	
Tob_former	Copd	male	94	8.4	
Tob_former	Copd	male	95	8.4	
Tob_former	Copd	male	96	8.4	
Tob_former	Copd	male	97	8.4	
Tob_former	Copd	male	98	8.4	
Tob_former	Copd	male	99	8.4	
Tob_former	Copd	female	15	8	
Tob_former	Copd	female	16	8	
Tob_former	Copd	female	17	8	
Tob_former	Copd	female	18	8	
Tob_former	Copd	female	19	8	
Tob_former	Copd	female	20	8	
Tob_former	Copd	female	21	8	
Tob_former	Copd	female	22	8	
Tob_former	Copd	female	23	8	
Tob_former	Copd	female	24	8	
Tob_former	Copd	female	25	8	
Tob_former	Copd	female	26	8	
Tob_former	Copd	female	27	8	
Tob_former	Copd	female	28	8	
Tob_former	Copd	female	29	8	
Tob_former	Copd	female	30	8	
Tob_former	Copd	female	31	8	
Tob_former	Copd	female	32	8	
Tob_former	Copd	female	33	8	
Tob_former	Copd	female	34	8	
Tob_former	Copd	female	35	8	
Tob_former	Copd	female	36	8	
Tob_former	Copd	female	37	8	
Tob_former	Copd	female	38	8	
Tob_former	Copd	female	39	8	
Tob_former	Copd	female	40	8	
Tob_former	Copd	female	41	8	
Tob_former	Copd	female	42	8	
Tob_former	Copd	female	43	8	
Tob_former	Copd	female	44	8	
Tob_former	Copd	female	45	8	
Tob_former	Copd	female	46	8	
Tob_former	Copd	female	47	8	
Tob_former	Copd	female	48	8	
Tob_former	Copd	female	49	8	
Tob_former	Copd	female	50	8	
Tob_former	Copd	female	51	8	
Tob_former	Copd	female	52	8	
Tob_former	Copd	female	53	8	
Tob_former	Copd	female	54	8	
Tob_former	Copd	female	55	8	
Tob_former	Copd	female	56	8	
Tob_former	Copd	female	57	8	
Tob_former	Copd	female	58	8	
Tob_former	Copd	female	59	8	
Tob_former	Copd	female	60	8	
Tob_former	Copd	female	61	8	
Tob_former	Copd	female	62	8	
Tob_former	Copd	female	63	8	
Tob_former	Copd	female	64	8	
Tob_former	Copd	female	65	8	
Tob_former	Copd	female	66	8	
Tob_former	Copd	female	67	8	
Tob_former	Copd	female	68	8	
Tob_former	Copd	female	69	8	
Tob_former	Copd	female	70	8	
Tob_former	Copd	female	71	8	
Tob_former	Copd	female	72	8	
Tob_former	Copd	female	73	8	
Tob_former	Copd	female	74	8	
Tob_former	Copd	female	75	8	
Tob_former	Copd	female	76	8	
Tob_former	Copd	female	77	8	
Tob_former	Copd	female	78	8	
Tob_former	Copd	female	79	8	
Tob_former	Copd	female	80	8	
Tob_former	Copd	female	81	8	
Tob_former	Copd	female	82	8	
Tob_former	Copd	female	83	8	
Tob_former	Copd	female	84	8	
Tob_former	Copd	female	85	8	
Tob_former	Copd	female	86	8	
Tob_former	Copd	female	87	8	
Tob_former	Copd	female	88	8	
Tob_former	Copd	female	89	8	
Tob_former	Copd	female	90	8	
Tob_former	Copd	female	91	8	
Tob_former	Copd	female	92	8	
Tob_former	Copd	female	93	8	
Tob_former	Copd	female	94	8	
Tob_former	Copd	female	95	8	
Tob_former	Copd	female	96	8	
Tob_former	Copd	female	97	8	
Tob_former	Copd	female	98	8	
Tob_former	Copd	female	99	8	
Tob_former	Oth_rsp	male	15	1.5	
Tob_former	Oth_rsp	male	16	1.5	
Tob_former	Oth_rsp	male	17	1.5	
Tob_former	Oth_rsp	male	18	1.5	
Tob_former	Oth_rsp	male	19	1.5	
Tob_former	Oth_rsp	male	20	1.5	
Tob_former	Oth_rsp	male	21	1.5	
Tob_former	Oth_rsp	male	22	1.5	
Tob_former	Oth_rsp	male	23	1.5	
Tob_former	Oth_rsp	male	24	1.5	
Tob_former	Oth_rsp	male	25	1.5	
Tob_former	Oth_rsp	male	26	1.5	
Tob_former	Oth_rsp	male	27	1.5	
Tob_former	Oth_rsp	male	28	1.5	
Tob_former	Oth_rsp	male	29	1.5	
Tob_former	Oth_rsp	male	30	1.5	
Tob_former	Oth_rsp	male	31	1.5	
Tob_former	Oth_rsp	male	32	1.5	
Tob_former	Oth_rsp	male	33	1.5	
Tob_former	Oth_rsp	male	34	1.5	
Tob_former	Oth_rsp	male	35	1.5	
Tob_former	Oth_rsp	male	36	1.5	
Tob_former	Oth_rsp	male	37	1.5	
Tob_former	Oth_rsp	male	38	1.5	
Tob_former	Oth_rsp	male	39	1.5	
Tob_former	Oth_rsp	male	40	1.5	
Tob_former	Oth_rsp	male	41	1.5	
Tob_former	Oth_rsp	male	42	1.5	
Tob_former	Oth_rsp	male	43	1.5	
Tob_former	Oth_rsp	male	44	1.5	
Tob_former	Oth_rsp	male	45	1.5	
Tob_former	Oth_rsp	male	46	1.5	
Tob_former	Oth_rsp	male	47	1.5	
Tob_former	Oth_rsp	male	48	1.5	
Tob_former	Oth_rsp	male	49	1.5	
Tob_former	Oth_rsp	male	50	1.5	
Tob_former	Oth_rsp	male	51	1.5	
Tob_former	Oth_rsp	male	52	1.5	
Tob_former	Oth_rsp	male	53	1.5	
Tob_former	Oth_rsp	male	54	1.5	
Tob_former	Oth_rsp	male	55	1.5	
Tob_former	Oth_rsp	male	56	1.5	
Tob_former	Oth_rsp	male	57	1.5	
Tob_former	Oth_rsp	male	58	1.5	
Tob_former	Oth_rsp	male	59	1.5	
Tob_former	Oth_rsp	male	60	1.5	
Tob_former	Oth_rsp	male	61	1.5	
Tob_former	Oth_rsp	male	62	1.5	
Tob_former	Oth_rsp	male	63	1.5	
Tob_former	Oth_rsp	male	64	1.5	
Tob_former	Oth_rsp	male	65	1.5	
Tob_former	Oth_rsp	male	66	1.5	
Tob_former	Oth_rsp	male	67	1.5	
Tob_former	Oth_rsp	male	68	1.5	
Tob_former	Oth_rsp	male	69	1.5	
Tob_former	Oth_rsp	male	70	1.5	
Tob_former	Oth_rsp	male	71	1.5	
Tob_former	Oth_rsp	male	72	1.5	
Tob_former	Oth_rsp	male	73	1.5	
Tob_former	Oth_rsp	male	74	1.5	
Tob_former	Oth_rsp	male	75	1.5	
Tob_former	Oth_rsp	male	76	1.5	
Tob_former	Oth_rsp	male	77	1.5	
Tob_former	Oth_rsp	male	78	1.5	
Tob_former	Oth_rsp	male	79	1.5	
Tob_former	Oth_rsp	male	80	1.5	
Tob_former	Oth_rsp	male	81	1.5	
Tob_former	Oth_rsp	male	82	1.5	
Tob_former	Oth_rsp	male	83	1.5	
Tob_former	Oth_rsp	male	84	1.5	
Tob_former	Oth_rsp	male	85	1.5	
Tob_former	Oth_rsp	male	86	1.5	
Tob_former	Oth_rsp	male	87	1.5	
Tob_former	Oth_rsp	male	88	1.5	
Tob_former	Oth_rsp	male	89	1.5	
Tob_former	Oth_rsp	male	90	1.5	
Tob_former	Oth_rsp	male	91	1.5	
Tob_former	Oth_rsp	male	92	1.5	
Tob_former	Oth_rsp	male	93	1.5	
Tob_former	Oth_rsp	male	94	1.5	
Tob_former	Oth_rsp	male	95	1.5	
Tob_former	Oth_rsp	male	96	1.5	
Tob_former	Oth_rsp	male	97	1.5	
Tob_former	Oth_rsp	male	98	1.5	
Tob_former	Oth_rsp	male	99	1.5	
Tob_former	Oth_rsp	female	15	1.2	
Tob_former	Oth_rsp	female	16	1.2	
Tob_former	Oth_rsp	female	17	1.2	
Tob_former	Oth_rsp	female	18	1.2	
Tob_former	Oth_rsp	female	19	1.2	
Tob_former	Oth_rsp	female	20	1.2	
Tob_former	Oth_rsp	female	21	1.2	
Tob_former	Oth_rsp	female	22	1.2	
Tob_former	Oth_rsp	female	23	1.2	
Tob_former	Oth_rsp	female	24	1.2	
Tob_former	Oth_rsp	female	25	1.2	
Tob_former	Oth_rsp	female	26	1.2	
Tob_former	Oth_rsp	female	27	1.2	
Tob_former	Oth_rsp	female	28	1.2	
Tob_former	Oth_rsp	female	29	1.2	
Tob_former	Oth_rsp	female	30	1.2	
Tob_former	Oth_rsp	female	31	1.2	
Tob_former	Oth_rsp	female	32	1.2	
Tob_former	Oth_rsp	female	33	1.2	
Tob_former	Oth_rsp	female	34	1.2	
Tob_former	Oth_rsp	female	35	1.2	
Tob_former	Oth_rsp	female	36	1.2	
Tob_former	Oth_rsp	female	37	1.2	
Tob_former	Oth_rsp	female	38	1.2	
Tob_former	Oth_rsp	female	39	1.2	
Tob_former	Oth_rsp	female	40	1.2	
Tob_former	Oth_rsp	female	41	1.2	
Tob_former	Oth_rsp	female	42	1.2	
Tob_former	Oth_rsp	female	43	1.2	
Tob_former	Oth_rsp	female	44	1.2	
Tob_former	Oth_rsp	female	45	1.2	
Tob_former	Oth_rsp	female	46	1.2	
Tob_former	Oth_rsp	female	47	1.2	
Tob_former	Oth_rsp	female	48	1.2	
Tob_former	Oth_rsp	female	49	1.2	
Tob_former	Oth_rsp	female	50	1.2	
Tob_former	Oth_rsp	female	51	1.2	
Tob_former	Oth_rsp	female	52	1.2	
Tob_former	Oth_rsp	female	53	1.2	
Tob_former	Oth_rsp	female	54	1.2	
Tob_former	Oth_rsp	female	55	1.2	
Tob_former	Oth_rsp	female	56	1.2	
Tob_former	Oth_rsp	female	57	1.2	
Tob_former	Oth_rsp	female	58	1.2	
Tob_former	Oth_rsp	female	59	1.2	
Tob_former	Oth_rsp	female	60	1.2	
Tob_former	Oth_rsp	female	61	1.2	
Tob_former	Oth_rsp	female	62	1.2	
Tob_former	Oth_rsp	female	63	1.2	
Tob_former	Oth_rsp	female	64	1.2	
Tob_former	Oth_rsp	female	65	1.2	
Tob_former	Oth_rsp	female	66	1.2	
Tob_former	Oth_rsp	female	67	1.2	
Tob_former	Oth_rsp	female	68	1.2	
Tob_former	Oth_rsp	female	69	1.2	
Tob_former	Oth_rsp	female	70	1.2	
Tob_former	Oth_rsp	female	71	1.2	
Tob_former	Oth_rsp	female	72	1.2	
Tob_former	Oth_rsp	female	73	1.2	
Tob_former	Oth_rsp	female	74	1.2	
Tob_former	Oth_rsp	female	75	1.2	
Tob_former	Oth_rsp	female	76	1.2	
Tob_former	Oth_rsp	female	77	1.2	
Tob_former	Oth_rsp	female	78	1.2	
Tob_former	Oth_rsp	female	79	1.2	
Tob_former	Oth_rsp	female	80	1.2	
Tob_former	Oth_rsp	female	81	1.2	
Tob_former	Oth_rsp	female	82	1.2	
Tob_former	Oth_rsp	female	83	1.2	
Tob_former	Oth_rsp	female	84	1.2	
Tob_former	Oth_rsp	female	85	1.2	
Tob_former	Oth_rsp	female	86	1.2	
Tob_former	Oth_rsp	female	87	1.2	
Tob_former	Oth_rsp	female	88	1.2	
Tob_former	Oth_rsp	female	89	1.2	
Tob_former	Oth_rsp	female	90	1.2	
Tob_former	Oth_rsp	female	91	1.2	
Tob_former	Oth_rsp	female	92	1.2	
Tob_former	Oth_rsp	female	93	1.2	
Tob_former	Oth_rsp	female	94	1.2	
Tob_former	Oth_rsp	female	95	1.2	
Tob_former	Oth_rsp	female	96	1.2	
Tob_former	Oth_rsp	female	97	1.2	
Tob_former	Oth_rsp	female	98	1.2	
Tob_former	Oth_rsp	female	99	1.2	
Tob_former	Tb	male	15	2.84	
Tob_former	Tb	male	16	2.84	
Tob_former	Tb	male	17	2.84	
Tob_former	Tb	male	18	2.84	
Tob_former	Tb	male	19	2.84	
Tob_former	Tb	male	20	2.84	
Tob_former	Tb	male	21	2.84	
Tob_former	Tb	male	22	2.84	
Tob_former	Tb	male	23	2.84	
Tob_former	Tb	male	24	2.84	
Tob_former	Tb	male	25	2.84	
Tob_former	Tb	male	26	2.84	
Tob_former	Tb	male	27	2.84	
Tob_former	Tb	male	28	2.84	
Tob_former	Tb	male	29	2.84	
Tob_former	Tb	male	30	2.84	
Tob_former	Tb	male	31	2.84	
Tob_former	Tb	male	32	2.84	
Tob_former	Tb	male	33	2.84	
Tob_former	Tb	male	34	2.84	
Tob_former	Tb	male	35	2.84	
Tob_former	Tb	male	36	2.84	
Tob_former	Tb	male	37	2.84	
Tob_former	Tb	male	38	2.84	
Tob_former	Tb	male	39	2.84	
Tob_former	Tb	male	40	2.84	
Tob_former	Tb	male	41	2.84	
Tob_former	Tb	male	42	2.84	
Tob_former	Tb	male	43	2.84	
Tob_former	Tb	male	44	2.84	
Tob_former	Tb	male	45	2.84	
Tob_former	Tb	male	46	2.84	
Tob_former	Tb	male	47	2.84	
Tob_former	Tb	male	48	2.84	
Tob_former	Tb	male	49	2.84	
Tob_former	Tb	male	50	2.84	
Tob_former	Tb	male	51	2.84	
Tob_former	Tb	male	52	2.84	
Tob_former	Tb	male	53	2.84	
Tob_former	Tb	male	54	2.84	
Tob_former	Tb	male	55	2.84	
Tob_former	Tb	male	56	2.84	
Tob_former	Tb	male	57	2.84	
Tob_former	Tb	male	58	2.84	
Tob_former	Tb	male	59	2.84	
Tob_former	Tb	male	60	2.84	
Tob_former	Tb	male	61	2.84	
Tob_former	Tb	male	62	2.84	
Tob_former	Tb	male	63	2.84	
Tob_former	Tb	male	64	2.84	
Tob_former	Tb	male	65	2.84	
Tob_former	Tb	male	66	2.84	
Tob_former	Tb	male	67	2.84	
Tob_former	Tb	male	68	2.84	
Tob_former	Tb	male	69	2.84	
Tob_former	Tb	male	70	2.84	
Tob_former	Tb	male	71	2.84	
Tob_former	Tb	male	72	2.84	
Tob_former	Tb	male	73	2.84	
Tob_former	Tb	male	74	2.84	
Tob_former	Tb	male	75	2.84	
Tob_former	Tb	male	76	2.84	
Tob_former	Tb	male	77	2.84	
Tob_former	Tb	male	78	2.84	
Tob_former	Tb	male	79	2.84	
Tob_former	Tb	male	80	2.84	
Tob_former	Tb	male	81	2.84	
Tob_former	Tb	male	82	2.84	
Tob_former	Tb	male	83	2.84	
Tob_former	Tb	male	84	2.84	
Tob_former	Tb	male	85	2.84	
Tob_former	Tb	male	86	2.84	
Tob_former	Tb	male	87	2.84	
Tob_former	Tb	male	88	2.84	
Tob_former	Tb	male	89	2.84	
Tob_former	Tb	male	90	2.84	
Tob_former	Tb	male	91	2.84	
Tob_former	Tb	male	92	2.84	
Tob_former	Tb	male	93	2.84	
Tob_former	Tb	male	94	2.84	
Tob_former	Tb	male	95	2.84	
Tob_former	Tb	male	96	2.84	
Tob_former	Tb	male	97	2.84	
Tob_former	Tb	male	98	2.84	
Tob_former	Tb	male	99	2.84	
Tob_former	Tb	female	15	2.84	
Tob_former	Tb	female	16	2.84	
Tob_former	Tb	female	17	2.84	
Tob_former	Tb	female	18	2.84	
Tob_former	Tb	female	19	2.84	
Tob_former	Tb	female	20	2.84	
Tob_former	Tb	female	21	2.84	
Tob_former	Tb	female	22	2.84	
Tob_former	Tb	female	23	2.84	
Tob_former	Tb	female	24	2.84	
Tob_former	Tb	female	25	2.84	
Tob_former	Tb	female	26	2.84	
Tob_former	Tb	female	27	2.84	
Tob_former	Tb	female	28	2.84	
Tob_former	Tb	female	29	2.84	
Tob_former	Tb	female	30	2.84	
Tob_former	Tb	female	31	2.84	
Tob_former	Tb	female	32	2.84	
Tob_former	Tb	female	33	2.84	
Tob_former	Tb	female	34	2.84	
Tob_former	Tb	female	35	2.84	
Tob_former	Tb	female	36	2.84	
Tob_former	Tb	female	37	2.84	
Tob_former	Tb	female	38	2.84	
Tob_former	Tb	female	39	2.84	
Tob_former	Tb	female	40	2.84	
Tob_former	Tb	female	41	2.84	
Tob_former	Tb	female	42	2.84	
Tob_former	Tb	female	43	2.84	
Tob_former	Tb	female	44	2.84	
Tob_former	Tb	female	45	2.84	
Tob_former	Tb	female	46	2.84	
Tob_former	Tb	female	47	2.84	
Tob_former	Tb	female	48	2.84	
Tob_former	Tb	female	49	2.84	
Tob_former	Tb	female	50	2.84	
Tob_former	Tb	female	51	2.84	
Tob_former	Tb	female	52	2.84	
Tob_former	Tb	female	53	2.84	
Tob_former	Tb	female	54	2.84	
Tob_former	Tb	female	55	2.84	
Tob_former	Tb	female	56	2.84	
Tob_former	Tb	female	57	2.84	
Tob_former	Tb	female	58	2.84	
Tob_former	Tb	female	59	2.84	
Tob_former	Tb	female	60	2.84	
Tob_former	Tb	female	61	2.84	
Tob_former	Tb	female	62	2.84	
Tob_former	Tb	female	63	2.84	
Tob_former	Tb	female	64	2.84	
Tob_former	Tb	female	65	2.84	
Tob_former	Tb	female	66	2.84	
Tob_former	Tb	female	67	2.84	
Tob_former	Tb	female	68	2.84	
Tob_former	Tb	female	69	2.84	
Tob_former	Tb	female	70	2.84	
Tob_former	Tb	female	71	2.84	
Tob_former	Tb	female	72	2.84	
Tob_former	Tb	female	73	2.84	
Tob_former	Tb	female	74	2.84	
Tob_former	Tb	female	75	2.84	
Tob_former	Tb	female	76	2.84	
Tob_former	Tb	female	77	2.84	
Tob_former	Tb	female	78	2.84	
Tob_former	Tb	female	79	2.84	
Tob_former	Tb	female	80	2.84	
Tob_former	Tb	female	81	2.84	
Tob_former	Tb	female	82	2.84	
Tob_former	Tb	female	83	2.84	
Tob_former	Tb	female	84	2.84	
Tob_former	Tb	female	85	2.84	
Tob_former	Tb	female	86	2.84	
Tob_former	Tb	female	87	2.84	
Tob_former	Tb	female	88	2.84	
Tob_former	Tb	female	89	2.84	
Tob_former	Tb	female	90	2.84	
Tob_former	Tb	female	91	2.84	
Tob_former	Tb	female	92	2.84	
Tob_former	Tb	female	93	2.84	
Tob_former	Tb	female	94	2.84	
Tob_former	Tb	female	95	2.84	
Tob_former	Tb	female	96	2.84	
Tob_former	Tb	female	97	2.84	
Tob_former	Tb	female	98	2.84	
Tob_former	Tb	female	99	2.84	