Riskfactor	Issue	Sex	Age	OldCoefficient	Coefficient
Omega3	Ihd	male	15	1.249	1.247789221
Omega3	Ihd	male	16	1.249	1.249939333
Omega3	Ihd	male	17	1.249	1.252092475
Omega3	Ihd	male	18	1.249	1.254249694
Omega3	Ihd	male	19	1.249	1.256398002
Omega3	Ihd	male	20	1.249	1.258516968
Omega3	Ihd	male	21	1.249	1.260562628
Omega3	Ihd	male	22	1.249	1.262453966
Omega3	Ihd	male	23	1.249	1.264092976
Omega3	Ihd	male	24	1.249	1.265335764
Omega3	Ihd	male	25	1.291	1.265985084
Omega3	Ihd	male	26	1.291	1.265835589
Omega3	Ihd	male	27	1.291	1.2647173
Omega3	Ihd	male	28	1.291	1.262555749
Omega3	Ihd	male	29	1.291	1.259322711
Omega3	Ihd	male	30	1.249	1.25509276
Omega3	Ihd	male	31	1.249	1.250004681
Omega3	Ihd	male	32	1.249	1.244204037
Omega3	Ihd	male	33	1.249	1.237828959
Omega3	Ihd	male	34	1.249	1.231040305
Omega3	Ihd	male	35	1.199	1.224019942
Omega3	Ihd	male	36	1.199	1.216988111
Omega3	Ihd	male	37	1.199	1.210101766
Omega3	Ihd	male	38	1.199	1.203486769
Omega3	Ihd	male	39	1.199	1.19722285
Omega3	Ihd	male	40	1.173	1.191380095
Omega3	Ihd	male	41	1.173	1.186021525
Omega3	Ihd	male	42	1.173	1.181170729
Omega3	Ihd	male	43	1.173	1.176807144
Omega3	Ihd	male	44	1.173	1.172896299
Omega3	Ihd	male	45	1.165	1.169386066
Omega3	Ihd	male	46	1.165	1.16622237
Omega3	Ihd	male	47	1.165	1.163341677
Omega3	Ihd	male	48	1.165	1.160677359
Omega3	Ihd	male	49	1.165	1.158165837
Omega3	Ihd	male	50	1.154	1.155761506
Omega3	Ihd	male	51	1.154	1.153424596
Omega3	Ihd	male	52	1.154	1.151120649
Omega3	Ihd	male	53	1.154	1.148817868
Omega3	Ihd	male	54	1.154	1.146488916
Omega3	Ihd	male	55	1.14	1.144124713
Omega3	Ihd	male	56	1.14	1.141727509
Omega3	Ihd	male	57	1.14	1.139298795
Omega3	Ihd	male	58	1.14	1.136831645
Omega3	Ihd	male	59	1.14	1.134324013
Omega3	Ihd	male	60	1.126	1.131779824
Omega3	Ihd	male	61	1.126	1.12921528
Omega3	Ihd	male	62	1.126	1.126634039
Omega3	Ihd	male	63	1.126	1.124033671
Omega3	Ihd	male	64	1.126	1.121406952
Omega3	Ihd	male	65	1.113	1.11875635
Omega3	Ihd	male	66	1.113	1.116086107
Omega3	Ihd	male	67	1.113	1.113393706
Omega3	Ihd	male	68	1.113	1.110666559
Omega3	Ihd	male	69	1.113	1.107891424
Omega3	Ihd	male	70	1.101	1.105062377
Omega3	Ihd	male	71	1.101	1.102179094
Omega3	Ihd	male	72	1.101	1.09924049
Omega3	Ihd	male	73	1.101	1.096238681
Omega3	Ihd	male	74	1.101	1.093170043
Omega3	Ihd	male	75	1.088	1.090051368
Omega3	Ihd	male	76	1.088	1.086905807
Omega3	Ihd	male	77	1.088	1.083762635
Omega3	Ihd	male	78	1.088	1.080655791
Omega3	Ihd	male	79	1.088	1.077626743
Omega3	Ihd	male	80	1.062	1.07474361
Omega3	Ihd	male	81	1.062	1.072080797
Omega3	Ihd	male	82	1.062	1.069704054
Omega3	Ihd	male	83	1.062	1.067640804
Omega3	Ihd	male	84	1.062	1.065893304
Omega3	Ihd	male	85	1.062	1.064455752
Omega3	Ihd	male	86	1.062	1.063305856
Omega3	Ihd	male	87	1.062	1.062413994
Omega3	Ihd	male	88	1.062	1.061748847
Omega3	Ihd	male	89	1.062	1.061276292
Omega3	Ihd	male	90	1.062	1.060963672
Omega3	Ihd	male	91	1.062	1.060779489
Omega3	Ihd	male	92	1.062	1.060695514
Omega3	Ihd	male	93	1.062	1.060687954
Omega3	Ihd	male	94	1.062	1.060734945
Omega3	Ihd	male	95	1.062	1.060819343
Omega3	Ihd	male	96	1.062	1.060928378
Omega3	Ihd	male	97	1.062	1.061051017
Omega3	Ihd	male	98	1.062	1.061180283
Omega3	Ihd	male	99	1.062	1.061312205
Omega3	Ihd	female	15	1.249	1.247789221
Omega3	Ihd	female	16	1.249	1.249939333
Omega3	Ihd	female	17	1.249	1.252092475
Omega3	Ihd	female	18	1.249	1.254249694
Omega3	Ihd	female	19	1.249	1.256398002
Omega3	Ihd	female	20	1.249	1.258516968
Omega3	Ihd	female	21	1.249	1.260562628
Omega3	Ihd	female	22	1.249	1.262453966
Omega3	Ihd	female	23	1.249	1.264092976
Omega3	Ihd	female	24	1.249	1.265335764
Omega3	Ihd	female	25	1.291	1.265985084
Omega3	Ihd	female	26	1.291	1.265835589
Omega3	Ihd	female	27	1.291	1.2647173
Omega3	Ihd	female	28	1.291	1.262555749
Omega3	Ihd	female	29	1.291	1.259322711
Omega3	Ihd	female	30	1.249	1.25509276
Omega3	Ihd	female	31	1.249	1.250004681
Omega3	Ihd	female	32	1.249	1.244204037
Omega3	Ihd	female	33	1.249	1.237828959
Omega3	Ihd	female	34	1.249	1.231040305
Omega3	Ihd	female	35	1.199	1.224019942
Omega3	Ihd	female	36	1.199	1.216988111
Omega3	Ihd	female	37	1.199	1.210101766
Omega3	Ihd	female	38	1.199	1.203486769
Omega3	Ihd	female	39	1.199	1.19722285
Omega3	Ihd	female	40	1.173	1.191380095
Omega3	Ihd	female	41	1.173	1.186021525
Omega3	Ihd	female	42	1.173	1.181170729
Omega3	Ihd	female	43	1.173	1.176807144
Omega3	Ihd	female	44	1.173	1.172896299
Omega3	Ihd	female	45	1.165	1.169386066
Omega3	Ihd	female	46	1.165	1.16622237
Omega3	Ihd	female	47	1.165	1.163341677
Omega3	Ihd	female	48	1.165	1.160677359
Omega3	Ihd	female	49	1.165	1.158165837
Omega3	Ihd	female	50	1.154	1.155761506
Omega3	Ihd	female	51	1.154	1.153424596
Omega3	Ihd	female	52	1.154	1.151120649
Omega3	Ihd	female	53	1.154	1.148817868
Omega3	Ihd	female	54	1.154	1.146488916
Omega3	Ihd	female	55	1.14	1.144124713
Omega3	Ihd	female	56	1.14	1.141727509
Omega3	Ihd	female	57	1.14	1.139298795
Omega3	Ihd	female	58	1.14	1.136831645
Omega3	Ihd	female	59	1.14	1.134324013
Omega3	Ihd	female	60	1.126	1.131779824
Omega3	Ihd	female	61	1.126	1.12921528
Omega3	Ihd	female	62	1.126	1.126634039
Omega3	Ihd	female	63	1.126	1.124033671
Omega3	Ihd	female	64	1.126	1.121406952
Omega3	Ihd	female	65	1.113	1.11875635
Omega3	Ihd	female	66	1.113	1.116086107
Omega3	Ihd	female	67	1.113	1.113393706
Omega3	Ihd	female	68	1.113	1.110666559
Omega3	Ihd	female	69	1.113	1.107891424
Omega3	Ihd	female	70	1.101	1.105062377
Omega3	Ihd	female	71	1.101	1.102179094
Omega3	Ihd	female	72	1.101	1.09924049
Omega3	Ihd	female	73	1.101	1.096238681
Omega3	Ihd	female	74	1.101	1.093170043
Omega3	Ihd	female	75	1.088	1.090051368
Omega3	Ihd	female	76	1.088	1.086905807
Omega3	Ihd	female	77	1.088	1.083762635
Omega3	Ihd	female	78	1.088	1.080655791
Omega3	Ihd	female	79	1.088	1.077626743
Omega3	Ihd	female	80	1.062	1.07474361
Omega3	Ihd	female	81	1.062	1.072080797
Omega3	Ihd	female	82	1.062	1.069704054
Omega3	Ihd	female	83	1.062	1.067640804
Omega3	Ihd	female	84	1.062	1.065893304
Omega3	Ihd	female	85	1.062	1.064455752
Omega3	Ihd	female	86	1.062	1.063305856
Omega3	Ihd	female	87	1.062	1.062413994
Omega3	Ihd	female	88	1.062	1.061748847
Omega3	Ihd	female	89	1.062	1.061276292
Omega3	Ihd	female	90	1.062	1.060963672
Omega3	Ihd	female	91	1.062	1.060779489
Omega3	Ihd	female	92	1.062	1.060695514
Omega3	Ihd	female	93	1.062	1.060687954
Omega3	Ihd	female	94	1.062	1.060734945
Omega3	Ihd	female	95	1.062	1.060819343
Omega3	Ihd	female	96	1.062	1.060928378
Omega3	Ihd	female	97	1.062	1.061051017
Omega3	Ihd	female	98	1.062	1.061180283
Omega3	Ihd	female	99	1.062	1.061312205