﻿{
  "ProviderId": "Microsoft.VisualStudio.ConnectedService.Wcf",
  "Version": "15.0.30730.948",
  "GettingStartedDocument": {
    "Uri": "https://go.microsoft.com/fwlink/?linkid=858517"
  },
  "ExtendedData": {
    "inputs": [
      "../../../../../../../AppData/Local/Microsoft/Windows/INetCache/IE/POGKJD8A/PrintReport[2].asmx"
    ],
    "collectionTypes": [
      "System.Array",
      "System.Collections.Generic.Dictionary`2"
    ],
    "namespaceMappings": [
      "*, Cognos"
    ],
    "references": [
      "C:\\Users\\senecdav\\source\\repos\\TMGA\\Engine\\Infrastructure\\bin\\Debug\\netstandard2.1\\Domain.dll",
      "Microsoft.EntityFrameworkCore, {Microsoft.EntityFrameworkCore, 2.2.6}",
      "Microsoft.EntityFrameworkCore.Abstractions, {Microsoft.EntityFrameworkCore.Abstractions, 2.2.6}",
      "Microsoft.EntityFrameworkCore.Relational, {Microsoft.EntityFrameworkCore.Relational, 2.2.6}",
      "Microsoft.EntityFrameworkCore.SqlServer, {Microsoft.EntityFrameworkCore.SqlServer, 2.2.6}",
      "Microsoft.Extensions.Caching.Abstractions, {Microsoft.Extensions.Caching.Abstractions, 2.2.0}",
      "Microsoft.Extensions.Caching.Memory, {Microsoft.Extensions.Caching.Memory, 2.2.0}",
      "Microsoft.Extensions.Configuration, {Microsoft.Extensions.Configuration, 2.2.0}",
      "Microsoft.Extensions.Configuration.Abstractions, {Microsoft.Extensions.Configuration.Abstractions, 2.2.0}",
      "Microsoft.Extensions.Configuration.Binder, {Microsoft.Extensions.Configuration.Binder, 2.2.0}",
      "Microsoft.Extensions.DependencyInjection, {Microsoft.Extensions.DependencyInjection, 2.2.0}",
      "Microsoft.Extensions.DependencyInjection.Abstractions, {Microsoft.Extensions.DependencyInjection.Abstractions, 2.2.0}",
      "Microsoft.Extensions.Logging, {Microsoft.Extensions.Logging, 2.2.0}",
      "Microsoft.Extensions.Logging.Abstractions, {Microsoft.Extensions.Logging.Abstractions, 2.2.0}",
      "Microsoft.Extensions.Options, {Microsoft.Extensions.Options, 2.2.0}",
      "Microsoft.Extensions.Primitives, {Microsoft.Extensions.Primitives, 2.2.0}",
      "Remotion.Linq, {Remotion.Linq, 2.2.0}",
      "System.Collections, {System.Collections, 4.0.11}",
      "System.Collections.Immutable, {System.Collections.Immutable, 1.5.0}",
      "System.ComponentModel.Annotations, {System.ComponentModel.Annotations, 4.5.0}",
      "System.Data.SqlClient, {System.Data.SqlClient, 4.6.1}",
      "System.Diagnostics.Debug, {System.Diagnostics.Debug, 4.0.11}",
      "System.Diagnostics.DiagnosticSource, {System.Diagnostics.DiagnosticSource, 4.5.0}",
      "System.Interactive.Async, {System.Interactive.Async, 3.2.0}",
      "System.IO, {System.IO, 4.1.0}",
      "System.Linq, {System.Linq, 4.1.0}",
      "System.Linq.Expressions, {System.Linq.Expressions, 4.1.0}",
      "System.Linq.Queryable, {System.Linq.Queryable, 4.0.1}",
      "System.Memory, {System.Memory, 4.5.1}",
      "System.ObjectModel, {System.ObjectModel, 4.0.12}",
      "System.Reflection, {System.Reflection, 4.1.0}",
      "System.Reflection.Extensions, {System.Reflection.Extensions, 4.0.1}",
      "System.Reflection.Primitives, {System.Reflection.Primitives, 4.0.1}",
      "System.Runtime, {System.Runtime, 4.1.0}",
      "System.Runtime.CompilerServices.Unsafe, {System.Runtime.CompilerServices.Unsafe, 4.5.1}",
      "System.Runtime.Extensions, {System.Runtime.Extensions, 4.1.0}",
      "System.Text.Encoding, {System.Text.Encoding, 4.0.11}",
      "System.Threading, {System.Threading, 4.0.11}",
      "System.Threading.Tasks, {System.Threading.Tasks, 4.0.11}"
    ],
    "targetFramework": "netstandard2.1",
    "typeReuseMode": "All"
  }
}