{
  "sapiensTokenId": "123abc",
  "generatedOn": "2018-10-09 11:02:10-0700",
  "startDate": "2018-08-01 00:00:00-0700",
  "endDate": "2018-10-09 11:59:59-0700",
  "age": [
    {
      "value": 50,
      "units":  "years",
      "subsystem": "ManualEntry",
      "takenOn": "2018-08-01 8:55:10-0700"
    } ],

    "sex": [
      {
      "value": "male",
      "units":  "male/female",
      "subsystem": "manualEntry",
      "takenOn": "2018-08-01 8:55:10-0700"
    }],
    
   "weight": [
     {
      "value": 195,
      "units":  "pounds",
      "subsystem": "Nokia Body+",
      "takenOn": "2018-08-01 9:55:10-0700"
    },
    {
      "value": 204,
      "units":  "pounds",
      "subsystem": "Nokia Body+",
      "takenOn": "2018-08-07 11:55:10-0700"
    }],
    
   "height":[ {
      "value": 72,
      "units":  "inches",
      "subsystem": "manualEntry",
      "takenOn": "2018-08-03 9:55:10-0700"
    }],

  "smoker": [{
      "value": "yes",
      "units":  "yes/no",
      "subsystem": "manualEntry",
      "takenOn": "2018-08-01 7:55:10-0700"
    }],
    
    "smoker_quitover1year": [{
      "value": "yes",
      "units":  "yes/no",
      "subsystem": "manualEntry",
      "takenOn": "2018-08-01 12:55:10-0700"
    }],

   "drinks30": [{
      "value": "ltmonthly",
      "units":  "never/ltmonthly/monthly/weekly/daily",
      "subsystem": "manualEntry",
      "takenOn": "2018-08-01 8:55:10-0700"
    }],

   "drinks30Average": [{
      "value": 2,
      "units":  "average # drinks in past 30 days",
      "subsystem": "manualEntry",
      "takenOn": "2018-08-01 8:55:10-0700"
    }],

   "drinks5orMore": [ {
      "value": "never",
      "units": "never/ltmonthly/monthly/weekly/daily",
      "subsystem": "manualEntry",
      "takenOn": "2018-08-01 8:55:10-0700"
    }],

    "glucose_total": [
      {
      "value": 120,
      "units":  "mg/dl",
      "subsystem": "FHIR Lab Results",
      "takenOn": "2018-08-01 8:55:10-0700"
    },
    {
      "value": 110,
      "units":  "mg/dl",
      "subsystem": "manualEntry",
      "takenOn": "2018-08-01 8:55:10-0700"
    },
    {
      "value": 118,
      "units":  "mg/dl",
      "subsystem": "FHIR Lab Results",
      "takenOn": "2018-09-10 10:15:10-0700"
    }],

   "glucose_h1ac": [
     {
      "value": 5.8,
      "units": "percent",
      "subsystem": "FHIR Lab Results",
      "takenOn": "2018-08-015 9:13:11-0700"
    },
    {
      "value": 5.4,
      "units": "percent",
      "subsystem": "FHIR Lab Results",
      "takenOn": "2018-09-22 10:14:11-0700"
    }
    ],

   "cholesterol_total": [ 
     {
      "value": 177,
      "units": "mg/dl",  
      "subsystem": "FHIR Lab Results",
      "takenOn": "2018-08-01 8:55:10-0700"
    },
    {
      "value": 173,
      "units": "mg/dl",  
      "subsystem": "FHIR Lab Results",
      "takenOn": "2018-10-02 7:55:10-0700"
    }
    ],

   "cholesterol_ldl": [
     {
      "value": 50,
      "units":  "mg/dl",
      "subsystem": "FHIR Lab Results",
      "takenOn": "2018-08-15 6:55:10-0700"
    },
    {
      "value": 39,
      "units":  "mg/dl",
      "subsystem": "FHIR Lab Results",
      "takenOn": "2018-10-03 9:13:10-0700"
    }
    ],

   "bp_systolic": [
     {
      "value": 120,
      "units" :  "mmhg",
      "subsystem": "Nokia BPM",
      "takenOn": "2018-08-05 7:55:10-0700"
    },
    {
      "value": 124,
      "units" :  "mmhg",
      "subsystem": "Nokia BPM",
      "takenOn": "2018-08-06 8:01:10-0700"
    },
    {
      "value": 124,
      "units" :  "mmhg",
      "subsystem": "FHIR Clinical Vitals",
      "takenOn": "2018-10-03 10:15:10-0700"
    },
    {
      "value": 119,
      "units" :  "mmhg",
      "subsystem": "manualEntry",
      "takenOn": "2018-10-04 9:07:10-0700"
    }
    ],

   "bp_diastolic": [
     {
      "value": 82,
      "units" :  "mmhg",
      "subsystem": "Nokia BPM",
      "takenOn": "2018-08-05 7:55:10-0700"
    },
    {
      "value": 88,
      "units" :  "mmhg",
      "subsystem": "Nokia BPM",
      "takenOn": "2018-08-06 8:01:10-0700"
    },
    {
      "value": 79,
      "units" :  "mmhg",
      "subsystem": "FHIR Clinical Vitals",
      "takenOn": "2018-10-03 10:15:10-0700"
    },
    {
      "value": 81,
      "units" :  "mmhg",
      "subsystem": "manualEntry",
      "takenOn": "2018-10-04 9:07:10-0700"
    }
    ],

  "fruit_weeklyaverage": [
    {
      "value": 2,
      "units": "servings",
      "subsystem": "manualEntry",
      "takenOn": "2018-08-01 8:55:10-0700"
    }
    ],

  "fruit_dailyactual": [
    {
      "value": 1,
      "units": "servings",
      "subsystem": "manualEntry",
      "takenOn": "2018-08-01 8:55:10-0700"
    },
    {
      "value": 1,
      "units": "servings",
      "subsystem": "manualEntry",
      "takenOn": "2018-08-02 9:45:10-0700"
    },
    {
      "value": 2,
      "units": "servings",
      "subsystem": "manualEntry",
      "takenOn": "2018-08-15 8:45:10-0700"
    }
    ],

   "vegetable_weeklyaverage": [
     {
      "value": 3,
      "units": "servings",
      "subsystem": "manualEntry",
      "takenOn": "2018-08-01 8:55:10-0700"
    }
    ],

  "vegetable_dailyactual": [
    {
      "value": 2,
      "units": "servings",
      "subsystem": "manualEntry",
      "takenOn": "2018-08-01 8:55:10-0700"
    },
    {
      "value": 1,
      "units": "servings",
      "subsystem": "manualEntry",
      "takenOn": "2018-08-11 7:55:10-0700"
    },
    {
      "value": 3,
      "units": "servings",
      "subsystem": "manualEntry",
      "takenOn": "2018-08-15 15:25:10-0700"
    }
    ],

 "peanutbutter_weeklyaverage": [   
   {
      "value": 2,
      "units": "servings",
      "subsystem": "manualEntry",
      "takenOn": "2018-08-01 8:55:10-0700"
    }
    ],

  "peanutbutter_dailyactual": [
    {
      "value": 1,
      "units": "servings",
      "subsystem": "manualEntry",
      "takenOn": "2018-08-01 8:55:10-0700"
    },
    {
      "value": 2,
      "units": "servings",
      "subsystem": "manualEntry",
      "takenOn": "2018-08-03 10:55:10-0700"
    },
    {
      "value": 3,
      "units": "servings",
      "subsystem": "manualEntry",
      "takenOn": "2018-08-04 11:55:10-0700"
    }
    ],

 "nuts_weeklyaverage": [   {
      "value": 3,
      "units": "servings",
      "subsystem": "manualEntry",
      "takenOn": "2018-08-01 8:55:10-0700"
    }],

 "nuts_dailyactual": [
   {
      "value": 1,
      "units": "servings",
      "subsystem": "manualEntry",
      "takenOn": "2018-08-01 8:55:10-0700"
    },
    {
      "value": 2,
      "units": "servings",
      "subsystem": "manualEntry",
      "takenOn": "2018-08-15 13:10:10-0700"
    },
    {
      "value": 3,
      "units": "servings",
      "subsystem": "manualEntry",
      "takenOn": "2018-09-15 13:10:10-0700"
    }
    ],

 "fish_weeklyaverage": [   {
      "value": 3,
      "units": "servings",
      "subsystem": "manualEntry",
      "takenOn": "2018-08-01 8:55:10-0700"
    }],

 "fish_dailyactual": [
   {
      "value": 1,
      "units": "servings",
      "subsystem": "manualEntry",
      "takenOn": "2018-08-01 8:55:10-0700"
    },
    {
      "value": 1,
      "units": "servings",
      "subsystem": "manualEntry",
      "takenOn": "2018-08-11 10:55:10-0700"
    }
    ],

 "omega3_weeklyaverage": [   {
      "value": 2,
      "units": "servings",
      "subsystem": "manualEntry",
      "takenOn": "2018-08-01 8:55:10-0700"
    }],

 "omega3_dailyactual": [
   {
      "value": 1,
      "units": "servings",
      "subsystem": "manualEntry",
      "takenOn": "2018-08-01 8:55:10-0700"
    },
    {
      "value": 1,
      "units": "servings",
      "subsystem": "manualEntry",
      "takenOn": "2018-09-01 8:55:10-0700"
    },
    {
      "value": 2,
      "units": "servings",
      "subsystem": "manualEntry",
      "takenOn": "2018-09-15 8:55:10-0700"
    }
    ],

  "moderateActivity_daily": [
    {
      "value": 30,
      "units": "minutes",
      "subsystem": "Fitbit",
      "takenOn": "2018-08-01 8:55:10-0700"
    },
    {
      "value": 22,
      "units": "minutes",
      "subsystem": "Apple Watch",
      "takenOn": "2018-08-02 11:55:10-0700"
    },
    {
      "value": 28,
      "units": "minutes",
      "subsystem": "Apple Watch",
      "takenOn": "2018-08-03 23:55:10-0700"
    },
    {
      "value": 45,
      "units": "minutes",
      "subsystem": "iPhone",
      "takenOn": "2018-08-04 23:55:10-0700"
    }
    ],

 "moderateActivity_daysweek": [   {
      "value": 5,
      "units": "days",
      "subsystem": "iPhone",
      "takenOn": "2018-08-15 23:55:10-0700"
    }],

 "vigorousActivity_daily": [
   {
      "value": 30,
      "units": "minutes",
      "subsystem": "Apple Watch",
      "takenOn": "2018-08-01 8:55:10-0700"
    },
    {
      "value": 45,
      "units": "minutes",
      "subsystem": "Fitbit",
      "takenOn": "2018-08-02 23:55:10-0700"
    },
    {
      "value": 22,
      "units": "minutes",
      "subsystem": "iPhone",
      "takenOn": "2018-08-03 23:55:10-0700"
    },
    {
      "value": 63,
      "units": "minutes",
      "subsystem": "Apple Watch",
      "takenOn": "2018-08-04 23:55:10-0700"
    },
    {
      "value": 25,
      "units": "minutes",
      "subsystem": "Apple Watch",
      "takenOn": "2018-08-05 23:55:10-0700"
    }
    ],

 "vigorousActivity_daysweek": [   {
      "value": 2,
      "units": "days",
      "subsystem": "iPhone",
      "takenOn": "2018-08-01 8:55:10-0700"
    }],

 "seatbeltuse": [   {
      "value": "yes",
      "units": "yes/no",
      "subsystem": "manualEntry",
      "takenOn": "2018-08-01 8:55:10-0700"
    }
  ]
}

