{
  "sapiensTokenId": "123abc",
  "acquiredOn”": "2018-08-01 8:55:10-0700",
  "sourceSystemName": "Healthkit",
  "version" : "alpha",
  "inputs": [
    {
      "name": "age",
      "value": 32,
      "units":  "years",
      "subsystem": "ManualEntry",
      "takenOn": "2018-08-01 8:55:10-0700"
    },

    {
      "name": "sex",
      "value": "male",
      "units":  "male/female",
      "subsystem": "manualEntry",
      "takenOn": "2018-08-01 8:55:10-0700"
    },
    
    {
      "name": "bmi",
      "value": 20.7,
      "units":  "percentage",
      "subsystem": "Nokia Body+",
      "takenOn": "2018-08-01 11:55:10-0700"
    },
    
    {
      "name": "weight",
      "value": 166	,
      "units":  "pounds",
      "subsystem": "Nokia Body+",
      "takenOn": "2018-08-01 9:55:10-0700"
    },
    
    {
      "name": "height",
      "value": 66,
      "units":  "inches",
      "subsystem": "manualEntry",
      "takenOn": "2018-08-01 9:55:10-0700"
    },

    {
      "name": "smoker",
      "value": "no",
      "units":  "yes/no",
      "subsystem": "manualEntry",
      "takenOn": "2018-08-01 7:55:10-0700"
    },
    
    {
      "name": "smoker_quitover1year",
      "value": "no",
      "units":  "yes/no",
      "subsystem": "manualEntry",
      "takenOn": "2018-08-01 12:55:10-0700"
    },

    {
      "name": "drinks30",
      "value": "weekly",
      "units":  "never/ltmonthly/monthly/weekly/daily",
      "subsystem": "manualEntry",
      "takenOn": "2018-08-01 8:55:10-0700"
    },

    {
      "name": "drinks30_frequency",
      "value": 3,
      "units":  "days",
      "subsystem": "manualEntry",
      "takenOn": "2018-08-01 8:55:10-0700"
    },

    {
      "name": "drinks30Average",
      "value": 1,
      "units":  "average # drinks in past 30 days",
      "subsystem": "manualEntry",
      "takenOn": "2018-08-01 8:55:10-0700"
    },

    {
      "name": "drinks5orMore",
      "value": "never",
      "units": "never/ltmonthly/monthly/weekly/daily",
      "subsystem": "manualEntry",
      "takenOn": "2018-08-01 8:55:10-0700"
    },

    {
      "name": "glucose_total",
      "value": 83,
      "units":  "mg/dl",
      "subsystem": "labResults",
      "takenOn": "2018-08-01 8:55:10-0700"
    },

    {
      "name": "glucose_h1ac",
      "value": 4.7,
      "units": "percent",
      "subsystem": "labResults",
      "takenOn": "2018-08-01 8:55:11-0700"
    },

    {
      "name": "cholesterol_total",
      "value": 204,
      "units": "mg/dl",  
      "subsystem": "labResults",
      "takenOn": "2018-08-01 8:55:10-0700"
    },

    {
      "name": "cholesterol_ldl",
      "value": 82,
      "units":  "mg/dl",
      "subsystem": "labResults",
      "takenOn": "2018-08-01 8:55:10-0700"
    },

    {
      "name": "bp_systolic",
      "value": 120,
      "units" :  "mmhg",
      "subsystem": "Nokia BP",
      "takenOn": "2018-08-01 8:55:10-0700"
    },

    {
      "name": "bp_diastolic",
      "value": 84,
      "units": "mmhg",
      "subsystem": "Nokia BP",
      "takenOn": "2018-08-01 8:55:10-0700"
    },

    {
      "name": "fruit_weeklyaverage",
      "value": 10,
      "units": "servings",
      "subsystem": "manualEntry",
      "takenOn": "2018-08-01 8:55:10-0700"
    },

    {
      "name": "fruit_dailyactual",
      "value": 2,
      "units": "servings",
      "subsystem": "manualEntry",
      "takenOn": "2018-08-01 8:55:10-0700"
    },

    {
      "name": "vegetable_weeklyaverage",
      "value": 14,
      "units": "servings",
      "subsystem": "manualEntry",
      "takenOn": "2018-08-01 8:55:10-0700"
    },

    {
      "name": "vegetable_dailyactual",
      "value": 2,
      "units": "servings",
      "subsystem": "manualEntry",
      "takenOn": "2018-08-01 8:55:10-0700"
    },

    {
      "name": "peanutbutter_weeklyaverage",
      "value": 0,
      "units": "servings",
      "subsystem": "manualEntry",
      "takenOn": "2018-08-01 8:55:10-0700"
    },

    {
      "name": "peanutbutter_dailyactual",
      "value": 0,
      "units": "servings",
      "subsystem": "manualEntry",
      "takenOn": "2018-08-01 8:55:10-0700"
    },

    {
      "name": "nuts_weeklyaverage",
      "value": 3,
      "units": "servings",
      "subsystem": "manualEntry",
      "takenOn": "2018-08-01 8:55:10-0700"
    },

    {
      "name": "nuts_dailyactual",
      "value": 1,
      "units": "servings",
      "subsystem": "manualEntry",
      "takenOn": "2018-08-01 8:55:10-0700"
    },

    {
      "name": "fish_weeklyaverage",
      "value": 2,
      "units": "servings",
      "subsystem": "manualEntry",
      "takenOn": "2018-08-01 8:55:10-0700"
    },


    {
      "name": "fish_dailyactual",
      "value": 0.28,
      "units": "servings",
      "subsystem": "manualEntry",
      "takenOn": "2018-08-01 8:55:10-0700"
    },

    {
      "name": "omega3_weeklyaverage",
      "value": 0,
      "units": "servings",
      "subsystem": "manualEntry",
      "takenOn": "2018-08-01 8:55:10-0700"
    },

    {
      "name": "omega3_dailyactual",
      "value": 0,
      "units": "servings",
      "subsystem": "manualEntry",
      "takenOn": "2018-08-01 8:55:10-0700"
    },

    {
      "name": "moderateActivity_daily",
      "value": 20,
      "units": "minutes",
      "subsystem": "iPhone",
      "takenOn": "2018-08-01 8:55:10-0700"
    },

    {
      "name": "moderateActivity_daysweek",
      "value": 2,
      "units": "days",
      "subsystem": "iPhone",
      "takenOn": "2018-08-01 8:55:10-0700"
    },

    {
      "name": "vigorousActivity_daily",
      "value": 90,
      "units": "minutes",
      "subsystem": "iPhone",
      "takenOn": "2018-08-01 8:55:10-0700"
    },

    {
      "name": "vigorousActivity_daysweek",
      "value": 2,
      "units": "days",
      "subsystem": "iPhone",
      "takenOn": "2018-08-01 8:55:10-0700"
    },

    {
      "name": "seatbeltuse",
      "value": "yes",
      "units": "yes/no",
      "subsystem": "manualEntry",
      "takenOn": "2018-08-01 8:55:10-0700"
    }

  ]
}
