Issue	abbreviation	15	16	17	18	19	20	21	22	23	24	25	26	27	28	29	30	31	32	33	34	35	36	37	38	39	40	41	42	43	44	45	46	47	48	49	50	51	52	53	54	55	56	57	58	59	60	61	62	63	64	65	66	67	68	69	70	71	72	73	74	75	76	77	78	79	80	81	82	83	84	85	86	87	88	89	90	91	92	93	94	95	96	97	98	99
Ischemic heart disease	Ihd	2.16E-06	2.16E-06	2.16E-06	2.16E-06	2.16E-06	5.90E-06	5.90E-06	5.90E-06	5.90E-06	5.90E-06	1.40E-05	1.40E-05	1.40E-05	1.40E-05	1.40E-05	3.10E-05	3.10E-05	3.10E-05	3.10E-05	3.10E-05	5.98E-05	5.98E-05	5.98E-05	5.98E-05	5.98E-05	0.000115617	0.000115617	0.000115617	0.000115617	0.000115617	0.000226255	0.000226255	0.000226255	0.000226255	0.000226255	0.000429616	0.000429616	0.000429616	0.000429616	0.000429616	0.000681739	0.000681739	0.000681739	0.000681739	0.000681739	0.001075137	0.001075137	0.001075137	0.001075137	0.001075137	0.001670142	0.001670142	0.001670142	0.001670142	0.001670142	0.002895597	0.002895597	0.002895597	0.002895597	0.002895597	0.005321773	0.005321773	0.005321773	0.005321773	0.005321773	0.010190702	0.010190702	0.010190702	0.010190702	0.010190702	0.020390974	0.020390974	0.020390974	0.020390974	0.020390974	0.042251746	0.042251746	0.042251746	0.042251746	0.042251746	0.092927512	0.092927512	0.092927512	0.092927512	0.092927512
Ischemic stroke	Isch_stk	5.15E-07	5.15E-07	5.15E-07	5.15E-07	5.15E-07	1.09E-06	1.09E-06	1.09E-06	1.09E-06	1.09E-06	1.87E-06	1.87E-06	1.87E-06	1.87E-06	1.87E-06	2.99E-06	2.99E-06	2.99E-06	2.99E-06	2.99E-06	4.41E-06	4.41E-06	4.41E-06	4.41E-06	4.41E-06	7.10E-06	7.10E-06	7.10E-06	7.10E-06	7.10E-06	1.41E-05	1.41E-05	1.41E-05	1.41E-05	1.41E-05	2.53E-05	2.53E-05	2.53E-05	2.53E-05	2.53E-05	4.46E-05	4.46E-05	4.46E-05	4.46E-05	4.46E-05	0.000147605	0.000147605	0.000147605	0.000147605	0.000147605	0.000265808	0.000265808	0.000265808	0.000265808	0.000265808	0.000530624	0.000530624	0.000530624	0.000530624	0.000530624	0.001469608	0.001469608	0.001469608	0.001469608	0.001469608	0.002936439	0.002936439	0.002936439	0.002936439	0.002936439	0.006585648	0.006585648	0.006585648	0.006585648	0.006585648	0.012591322	0.012591322	0.012591322	0.012591322	0.012591322	0.02751127	0.02751127	0.02751127	0.02751127	0.02751127
Intracerebral hemorrhage	Hem_stk	2.78E-06	2.78E-06	2.78E-06	2.78E-06	2.78E-06	5.57E-06	5.57E-06	5.57E-06	5.57E-06	5.57E-06	1.01E-05	1.01E-05	1.01E-05	1.01E-05	1.01E-05	1.86E-05	1.86E-05	1.86E-05	1.86E-05	1.86E-05	3.07E-05	3.07E-05	3.07E-05	3.07E-05	3.07E-05	5.53E-05	5.53E-05	5.53E-05	5.53E-05	5.53E-05	8.66E-05	8.66E-05	8.66E-05	8.66E-05	8.66E-05	0.000135438	0.000135438	0.000135438	0.000135438	0.000135438	0.000199502	0.000199502	0.000199502	0.000199502	0.000199502	0.000211627	0.000211627	0.000211627	0.000211627	0.000211627	0.000316132	0.000316132	0.000316132	0.000316132	0.000316132	0.000560341	0.000560341	0.000560341	0.000560341	0.000560341	0.000754217	0.000754217	0.000754217	0.000754217	0.000754217	0.001539372	0.001539372	0.001539372	0.001539372	0.001539372	0.002241025	0.002241025	0.002241025	0.002241025	0.002241025	0.003386092	0.003386092	0.003386092	0.003386092	0.003386092	0.00601543	0.00601543	0.00601543	0.00601543	0.00601543
Hypertensive heart disease	Hyp_dis	1.64E-07	1.64E-07	1.64E-07	1.64E-07	1.64E-07	8.23E-07	8.23E-07	8.23E-07	8.23E-07	8.23E-07	2.88E-06	2.88E-06	2.88E-06	2.88E-06	2.88E-06	7.04E-06	7.04E-06	7.04E-06	7.04E-06	7.04E-06	1.39E-05	1.39E-05	1.39E-05	1.39E-05	1.39E-05	2.69E-05	2.69E-05	2.69E-05	2.69E-05	2.69E-05	4.46E-05	4.46E-05	4.46E-05	4.46E-05	4.46E-05	6.81E-05	6.81E-05	6.81E-05	6.81E-05	6.81E-05	9.08E-05	9.08E-05	9.08E-05	9.08E-05	9.08E-05	0.000112693	0.000112693	0.000112693	0.000112693	0.000112693	0.000150523	0.000150523	0.000150523	0.000150523	0.000150523	0.000235875	0.000235875	0.000235875	0.000235875	0.000235875	0.000392739	0.000392739	0.000392739	0.000392739	0.000392739	0.000781253	0.000781253	0.000781253	0.000781253	0.000781253	0.001636734	0.001636734	0.001636734	0.001636734	0.001636734	0.003538126	0.003538126	0.003538126	0.003538126	0.003538126	0.007715389	0.007715389	0.007715389	0.007715389	0.007715389
Other cardiovascular and circulatory diseases	Oth_cvd	2.77E-06	2.77E-06	2.77E-06	2.77E-06	2.77E-06	6.42E-06	6.42E-06	6.42E-06	6.42E-06	6.42E-06	1.01E-05	1.01E-05	1.01E-05	1.01E-05	1.01E-05	1.51E-05	1.51E-05	1.51E-05	1.51E-05	1.51E-05	2.19E-05	2.19E-05	2.19E-05	2.19E-05	2.19E-05	2.97E-05	2.97E-05	2.97E-05	2.97E-05	2.97E-05	3.97E-05	3.97E-05	3.97E-05	3.97E-05	3.97E-05	5.35E-05	5.35E-05	5.35E-05	5.35E-05	5.35E-05	7.26E-05	7.26E-05	7.26E-05	7.26E-05	7.26E-05	0.00010456	0.00010456	0.00010456	0.00010456	0.00010456	0.00015825	0.00015825	0.00015825	0.00015825	0.00015825	0.000260859	0.000260859	0.000260859	0.000260859	0.000260859	0.000468416	0.000468416	0.000468416	0.000468416	0.000468416	0.000895578	0.000895578	0.000895578	0.000895578	0.000895578	0.001847576	0.001847576	0.001847576	0.001847576	0.001847576	0.003624168	0.003624168	0.003624168	0.003624168	0.003624168	0.00640006	0.00640006	0.00640006	0.00640006	0.00640006
Diabetes mellitus	Dm	1.69E-06	1.69E-06	1.69E-06	1.69E-06	1.69E-06	5.40E-06	5.40E-06	5.40E-06	5.40E-06	5.40E-06	1.10E-05	1.10E-05	1.10E-05	1.10E-05	1.10E-05	1.73E-05	1.73E-05	1.73E-05	1.73E-05	1.73E-05	2.62E-05	2.62E-05	2.62E-05	2.62E-05	2.62E-05	4.12E-05	4.12E-05	4.12E-05	4.12E-05	4.12E-05	6.85E-05	6.85E-05	6.85E-05	6.85E-05	6.85E-05	0.000117547	0.000117547	0.000117547	0.000117547	0.000117547	0.000187016	0.000187016	0.000187016	0.000187016	0.000187016	0.000279274	0.000279274	0.000279274	0.000279274	0.000279274	0.000405702	0.000405702	0.000405702	0.000405702	0.000405702	0.000604056	0.000604056	0.000604056	0.000604056	0.000604056	0.000908153	0.000908153	0.000908153	0.000908153	0.000908153	0.001360028	0.001360028	0.001360028	0.001360028	0.001360028	0.002019592	0.002019592	0.002019592	0.002019592	0.002019592	0.002916847	0.002916847	0.002916847	0.002916847	0.002916847	0.004363121	0.004363121	0.004363121	0.004363121	0.004363121
Cirrhosis and other chronic liver diseases due to alcohol use	Cirrh	1.07E-08	1.07E-08	1.07E-08	1.07E-08	1.07E-08	2.07E-07	2.07E-07	2.07E-07	2.07E-07	2.07E-07	1.20E-06	1.20E-06	1.20E-06	1.20E-06	1.20E-06	5.25E-06	5.25E-06	5.25E-06	5.25E-06	5.25E-06	1.46E-05	1.46E-05	1.46E-05	1.46E-05	1.46E-05	3.03E-05	3.03E-05	3.03E-05	3.03E-05	3.03E-05	5.60E-05	5.60E-05	5.60E-05	5.60E-05	5.60E-05	8.22E-05	8.22E-05	8.22E-05	8.22E-05	8.22E-05	9.54E-05	9.54E-05	9.54E-05	9.54E-05	9.54E-05	9.86E-05	9.86E-05	9.86E-05	9.86E-05	9.86E-05	0.000108098	0.000108098	0.000108098	0.000108098	0.000108098	0.000131652	0.000131652	0.000131652	0.000131652	0.000131652	0.000154899	0.000154899	0.000154899	0.000154899	0.000154899	0.000173592	0.000173592	0.000173592	0.000173592	0.000173592	0.000201079	0.000201079	0.000201079	0.000201079	0.000201079	0.000260783	0.000260783	0.000260783	0.000260783	0.000260783	0.000428346	0.000428346	0.000428346	0.000428346	0.000428346
Pancreatitis	Pancrtit	3.11E-07	3.11E-07	3.11E-07	3.11E-07	3.11E-07	7.92E-07	7.92E-07	7.92E-07	7.92E-07	7.92E-07	1.50E-06	1.50E-06	1.50E-06	1.50E-06	1.50E-06	2.16E-06	2.16E-06	2.16E-06	2.16E-06	2.16E-06	3.56E-06	3.56E-06	3.56E-06	3.56E-06	3.56E-06	5.20E-06	5.20E-06	5.20E-06	5.20E-06	5.20E-06	6.75E-06	6.75E-06	6.75E-06	6.75E-06	6.75E-06	8.92E-06	8.92E-06	8.92E-06	8.92E-06	8.92E-06	1.07E-05	1.07E-05	1.07E-05	1.07E-05	1.07E-05	1.42E-05	1.42E-05	1.42E-05	1.42E-05	1.42E-05	1.86E-05	1.86E-05	1.86E-05	1.86E-05	1.86E-05	2.87E-05	2.87E-05	2.87E-05	2.87E-05	2.87E-05	4.36E-05	4.36E-05	4.36E-05	4.36E-05	4.36E-05	6.87E-05	6.87E-05	6.87E-05	6.87E-05	6.87E-05	0.000111194	0.000111194	0.000111194	0.000111194	0.000111194	0.000175843	0.000175843	0.000175843	0.000175843	0.000175843	0.000282583	0.000282583	0.000282583	0.000282583	0.000282583
Chronic obstructive pulmonary disease	Copd	8.70E-07	8.70E-07	8.70E-07	8.70E-07	8.70E-07	1.37E-06	1.37E-06	1.37E-06	1.37E-06	1.37E-06	2.41E-06	2.41E-06	2.41E-06	2.41E-06	2.41E-06	3.93E-06	3.93E-06	3.93E-06	3.93E-06	3.93E-06	7.54E-06	7.54E-06	7.54E-06	7.54E-06	7.54E-06	1.89E-05	1.89E-05	1.89E-05	1.89E-05	1.89E-05	5.32E-05	5.32E-05	5.32E-05	5.32E-05	5.32E-05	0.000139297	0.000139297	0.000139297	0.000139297	0.000139297	0.000280412	0.000280412	0.000280412	0.000280412	0.000280412	0.000505819	0.000505819	0.000505819	0.000505819	0.000505819	0.00097796	0.00097796	0.00097796	0.00097796	0.00097796	0.00175541	0.00175541	0.00175541	0.00175541	0.00175541	0.002757447	0.002757447	0.002757447	0.002757447	0.002757447	0.004096554	0.004096554	0.004096554	0.004096554	0.004096554	0.005456875	0.005456875	0.005456875	0.005456875	0.005456875	0.007001856	0.007001856	0.007001856	0.007001856	0.007001856	0.010418177	0.010418177	0.010418177	0.010418177	0.010418177
Other chronic respiratory diseases	Oth_rsp	4.12E-07	4.12E-07	4.12E-07	4.12E-07	4.12E-07	6.30E-07	6.30E-07	6.30E-07	6.30E-07	6.30E-07	9.41E-07	9.41E-07	9.41E-07	9.41E-07	9.41E-07	1.14E-06	1.14E-06	1.14E-06	1.14E-06	1.14E-06	1.54E-06	1.54E-06	1.54E-06	1.54E-06	1.54E-06	2.01E-06	2.01E-06	2.01E-06	2.01E-06	2.01E-06	2.92E-06	2.92E-06	2.92E-06	2.92E-06	2.92E-06	4.02E-06	4.02E-06	4.02E-06	4.02E-06	4.02E-06	5.71E-06	5.71E-06	5.71E-06	5.71E-06	5.71E-06	8.26E-06	8.26E-06	8.26E-06	8.26E-06	8.26E-06	1.07E-05	1.07E-05	1.07E-05	1.07E-05	1.07E-05	1.41E-05	1.41E-05	1.41E-05	1.41E-05	1.41E-05	2.04E-05	2.04E-05	2.04E-05	2.04E-05	2.04E-05	2.67E-05	2.67E-05	2.67E-05	2.67E-05	2.67E-05	3.72E-05	3.72E-05	3.72E-05	3.72E-05	3.72E-05	4.98E-05	4.98E-05	4.98E-05	4.98E-05	4.98E-05	6.62E-05	6.62E-05	6.62E-05	6.62E-05	6.62E-05
Tuberculosis	Tb	1.05E-07	1.05E-07	1.05E-07	1.05E-07	1.05E-07	2.98E-07	2.98E-07	2.98E-07	2.98E-07	2.98E-07	4.14E-07	4.14E-07	4.14E-07	4.14E-07	4.14E-07	4.91E-07	4.91E-07	4.91E-07	4.91E-07	4.91E-07	6.14E-07	6.14E-07	6.14E-07	6.14E-07	6.14E-07	7.61E-07	7.61E-07	7.61E-07	7.61E-07	7.61E-07	1.09E-06	1.09E-06	1.09E-06	1.09E-06	1.09E-06	1.51E-06	1.51E-06	1.51E-06	1.51E-06	1.51E-06	2.08E-06	2.08E-06	2.08E-06	2.08E-06	2.08E-06	2.78E-06	2.78E-06	2.78E-06	2.78E-06	2.78E-06	4.28E-06	4.28E-06	4.28E-06	4.28E-06	4.28E-06	6.15E-06	6.15E-06	6.15E-06	6.15E-06	6.15E-06	1.01E-05	1.01E-05	1.01E-05	1.01E-05	1.01E-05	1.57E-05	1.57E-05	1.57E-05	1.57E-05	1.57E-05	2.10E-05	2.10E-05	2.10E-05	2.10E-05	2.10E-05	2.69E-05	2.69E-05	2.69E-05	2.69E-05	2.69E-05	3.72E-05	3.72E-05	3.72E-05	3.72E-05	3.72E-05
Kidney cancer	Kdny	4.37E-07	4.37E-07	4.37E-07	4.37E-07	4.37E-07	7.22E-07	7.22E-07	7.22E-07	7.22E-07	7.22E-07	1.06E-06	1.06E-06	1.06E-06	1.06E-06	1.06E-06	1.49E-06	1.49E-06	1.49E-06	1.49E-06	1.49E-06	2.78E-06	2.78E-06	2.78E-06	2.78E-06	2.78E-06	5.05E-06	5.05E-06	5.05E-06	5.05E-06	5.05E-06	1.06E-05	1.06E-05	1.06E-05	1.06E-05	1.06E-05	2.09E-05	2.09E-05	2.09E-05	2.09E-05	2.09E-05	3.65E-05	3.65E-05	3.65E-05	3.65E-05	3.65E-05	5.72E-05	5.72E-05	5.72E-05	5.72E-05	5.72E-05	8.50E-05	8.50E-05	8.50E-05	8.50E-05	8.50E-05	0.000121878	0.000121878	0.000121878	0.000121878	0.000121878	0.000159953	0.000159953	0.000159953	0.000159953	0.000159953	0.000217238	0.000217238	0.000217238	0.000217238	0.000217238	0.000277473	0.000277473	0.000277473	0.000277473	0.000277473	0.00033038	0.00033038	0.00033038	0.00033038	0.00033038	0.000369043	0.000369043	0.000369043	0.000369043	0.000369043
Pancreatic cancer	Panc	1.19E-07	1.19E-07	1.19E-07	1.19E-07	1.19E-07	3.76E-07	3.76E-07	3.76E-07	3.76E-07	3.76E-07	7.92E-07	7.92E-07	7.92E-07	7.92E-07	7.92E-07	2.22E-06	2.22E-06	2.22E-06	2.22E-06	2.22E-06	5.47E-06	5.47E-06	5.47E-06	5.47E-06	5.47E-06	1.41E-05	1.41E-05	1.41E-05	1.41E-05	1.41E-05	3.54E-05	3.54E-05	3.54E-05	3.54E-05	3.54E-05	7.24E-05	7.24E-05	7.24E-05	7.24E-05	7.24E-05	0.000133577	0.000133577	0.000133577	0.000133577	0.000133577	0.00023133	0.00023133	0.00023133	0.00023133	0.00023133	0.000353722	0.000353722	0.000353722	0.000353722	0.000353722	0.000526551	0.000526551	0.000526551	0.000526551	0.000526551	0.000731015	0.000731015	0.000731015	0.000731015	0.000731015	0.000948159	0.000948159	0.000948159	0.000948159	0.000948159	0.0011915	0.0011915	0.0011915	0.0011915	0.0011915	0.001365408	0.001365408	0.001365408	0.001365408	0.001365408	0.001474064	0.001474064	0.001474064	0.001474064	0.001474064
"Tracheal, bronchus, and lung cancer"	Lung	5.28E-07	5.28E-07	5.28E-07	5.28E-07	5.28E-07	1.16E-06	1.16E-06	1.16E-06	1.16E-06	1.16E-06	2.58E-06	2.58E-06	2.58E-06	2.58E-06	2.58E-06	7.72E-06	7.72E-06	7.72E-06	7.72E-06	7.72E-06	1.95E-05	1.95E-05	1.95E-05	1.95E-05	1.95E-05	5.72E-05	5.72E-05	5.72E-05	5.72E-05	5.72E-05	0.000154541	0.000154541	0.000154541	0.000154541	0.000154541	0.000341071	0.000341071	0.000341071	0.000341071	0.000341071	0.000591684	0.000591684	0.000591684	0.000591684	0.000591684	0.00094044	0.00094044	0.00094044	0.00094044	0.00094044	0.001528814	0.001528814	0.001528814	0.001528814	0.001528814	0.002225719	0.002225719	0.002225719	0.002225719	0.002225719	0.002808121	0.002808121	0.002808121	0.002808121	0.002808121	0.00316383	0.00316383	0.00316383	0.00316383	0.00316383	0.003154605	0.003154605	0.003154605	0.003154605	0.003154605	0.002966806	0.002966806	0.002966806	0.002966806	0.002966806	0.002980467	0.002980467	0.002980467	0.002980467	0.002980467
Lip and oral cavity cancer	Mouth	1.26E-07	1.26E-07	1.26E-07	1.26E-07	1.26E-07	2.31E-07	2.31E-07	2.31E-07	2.31E-07	2.31E-07	4.65E-07	4.65E-07	4.65E-07	4.65E-07	4.65E-07	8.26E-07	8.26E-07	8.26E-07	8.26E-07	8.26E-07	1.61E-06	1.61E-06	1.61E-06	1.61E-06	1.61E-06	2.89E-06	2.89E-06	2.89E-06	2.89E-06	2.89E-06	5.39E-06	5.39E-06	5.39E-06	5.39E-06	5.39E-06	9.46E-06	9.46E-06	9.46E-06	9.46E-06	9.46E-06	1.41E-05	1.41E-05	1.41E-05	1.41E-05	1.41E-05	2.07E-05	2.07E-05	2.07E-05	2.07E-05	2.07E-05	2.83E-05	2.83E-05	2.83E-05	2.83E-05	2.83E-05	4.07E-05	4.07E-05	4.07E-05	4.07E-05	4.07E-05	5.61E-05	5.61E-05	5.61E-05	5.61E-05	5.61E-05	7.86E-05	7.86E-05	7.86E-05	7.86E-05	7.86E-05	0.000110772	0.000110772	0.000110772	0.000110772	0.000110772	0.000166951	0.000166951	0.000166951	0.000166951	0.000166951	0.00025441	0.00025441	0.00025441	0.00025441	0.00025441
Esophageal cancer	Eso	9.87E-08	9.87E-08	9.87E-08	9.87E-08	9.87E-08	1.09E-07	1.09E-07	1.09E-07	1.09E-07	1.09E-07	3.36E-07	3.36E-07	3.36E-07	3.36E-07	3.36E-07	6.03E-07	6.03E-07	6.03E-07	6.03E-07	6.03E-07	1.36E-06	1.36E-06	1.36E-06	1.36E-06	1.36E-06	3.39E-06	3.39E-06	3.39E-06	3.39E-06	3.39E-06	6.96E-06	6.96E-06	6.96E-06	6.96E-06	6.96E-06	1.47E-05	1.47E-05	1.47E-05	1.47E-05	1.47E-05	2.53E-05	2.53E-05	2.53E-05	2.53E-05	2.53E-05	3.60E-05	3.60E-05	3.60E-05	3.60E-05	3.60E-05	5.06E-05	5.06E-05	5.06E-05	5.06E-05	5.06E-05	7.19E-05	7.19E-05	7.19E-05	7.19E-05	7.19E-05	9.60E-05	9.60E-05	9.60E-05	9.60E-05	9.60E-05	0.000121165	0.000121165	0.000121165	0.000121165	0.000121165	0.000153003	0.000153003	0.000153003	0.000153003	0.000153003	0.000182898	0.000182898	0.000182898	0.000182898	0.000182898	0.000209123	0.000209123	0.000209123	0.000209123	0.000209123
Larynx cancer	Larynx	9.87E-08	9.87E-08	9.87E-08	9.87E-08	9.87E-08	1.02E-07	1.02E-07	1.02E-07	1.02E-07	1.02E-07	1.04E-07	1.04E-07	1.04E-07	1.04E-07	1.04E-07	1.27E-07	1.27E-07	1.27E-07	1.27E-07	1.27E-07	2.77E-07	2.77E-07	2.77E-07	2.77E-07	2.77E-07	7.05E-07	7.05E-07	7.05E-07	7.05E-07	7.05E-07	2.33E-06	2.33E-06	2.33E-06	2.33E-06	2.33E-06	5.11E-06	5.11E-06	5.11E-06	5.11E-06	5.11E-06	8.66E-06	8.66E-06	8.66E-06	8.66E-06	8.66E-06	1.19E-05	1.19E-05	1.19E-05	1.19E-05	1.19E-05	1.58E-05	1.58E-05	1.58E-05	1.58E-05	1.58E-05	2.04E-05	2.04E-05	2.04E-05	2.04E-05	2.04E-05	2.34E-05	2.34E-05	2.34E-05	2.34E-05	2.34E-05	2.28E-05	2.28E-05	2.28E-05	2.28E-05	2.28E-05	2.33E-05	2.33E-05	2.33E-05	2.33E-05	2.33E-05	2.19E-05	2.19E-05	2.19E-05	2.19E-05	2.19E-05	2.60E-05	2.60E-05	2.60E-05	2.60E-05	2.60E-05
Liver cancer due to alcohol use	Liver_alc	1.36E-08	1.36E-08	1.36E-08	1.36E-08	1.36E-08	9.93E-08	9.93E-08	9.93E-08	9.93E-08	9.93E-08	2.51E-07	2.51E-07	2.51E-07	2.51E-07	2.51E-07	6.56E-07	6.56E-07	6.56E-07	6.56E-07	6.56E-07	1.42E-06	1.42E-06	1.42E-06	1.42E-06	1.42E-06	2.83E-06	2.83E-06	2.83E-06	2.83E-06	2.83E-06	5.96E-06	5.96E-06	5.96E-06	5.96E-06	5.96E-06	1.18E-05	1.18E-05	1.18E-05	1.18E-05	1.18E-05	1.87E-05	1.87E-05	1.87E-05	1.87E-05	1.87E-05	2.67E-05	2.67E-05	2.67E-05	2.67E-05	2.67E-05	3.95E-05	3.95E-05	3.95E-05	3.95E-05	3.95E-05	5.60E-05	5.60E-05	5.60E-05	5.60E-05	5.60E-05	7.21E-05	7.21E-05	7.21E-05	7.21E-05	7.21E-05	7.85E-05	7.85E-05	7.85E-05	7.85E-05	7.85E-05	8.03E-05	8.03E-05	8.03E-05	8.03E-05	8.03E-05	7.36E-05	7.36E-05	7.36E-05	7.36E-05	7.36E-05	6.70E-05	6.70E-05	6.70E-05	6.70E-05	6.70E-05
Cervical cancer	Crvx	1.40E-07	1.40E-07	1.40E-07	1.40E-07	1.40E-07	1.49E-06	1.49E-06	1.49E-06	1.49E-06	1.49E-06	7.13E-06	7.13E-06	7.13E-06	7.13E-06	7.13E-06	1.61E-05	1.61E-05	1.61E-05	1.61E-05	1.61E-05	2.69E-05	2.69E-05	2.69E-05	2.69E-05	2.69E-05	3.70E-05	3.70E-05	3.70E-05	3.70E-05	3.70E-05	4.94E-05	4.94E-05	4.94E-05	4.94E-05	4.94E-05	6.15E-05	6.15E-05	6.15E-05	6.15E-05	6.15E-05	7.55E-05	7.55E-05	7.55E-05	7.55E-05	7.55E-05	7.94E-05	7.94E-05	7.94E-05	7.94E-05	7.94E-05	8.98E-05	8.98E-05	8.98E-05	8.98E-05	8.98E-05	0.000102712	0.000102712	0.000102712	0.000102712	0.000102712	0.000106177	0.000106177	0.000106177	0.000106177	0.000106177	0.000128453	0.000128453	0.000128453	0.000128453	0.000128453	0.000152124	0.000152124	0.000152124	0.000152124	0.000152124	0.00018441	0.00018441	0.00018441	0.00018441	0.00018441	0.000236893	0.000236893	0.000236893	0.000236893	0.000236893
Breast cancer	Brst	1.50E-07	1.50E-07	1.50E-07	1.50E-07	1.50E-07	1.09E-06	1.09E-06	1.09E-06	1.09E-06	1.09E-06	8.33E-06	8.33E-06	8.33E-06	8.33E-06	8.33E-06	3.27E-05	3.27E-05	3.27E-05	3.27E-05	3.27E-05	7.69E-05	7.69E-05	7.69E-05	7.69E-05	7.69E-05	0.000138213	0.000138213	0.000138213	0.000138213	0.000138213	0.000228202	0.000228202	0.000228202	0.000228202	0.000228202	0.000346211	0.000346211	0.000346211	0.000346211	0.000346211	0.000469052	0.000469052	0.000469052	0.000469052	0.000469052	0.000572313	0.000572313	0.000572313	0.000572313	0.000572313	0.000693547	0.000693547	0.000693547	0.000693547	0.000693547	0.000851413	0.000851413	0.000851413	0.000851413	0.000851413	0.001044712	0.001044712	0.001044712	0.001044712	0.001044712	0.001282923	0.001282923	0.001282923	0.001282923	0.001282923	0.001692814	0.001692814	0.001692814	0.001692814	0.001692814	0.002248635	0.002248635	0.002248635	0.002248635	0.002248635	0.003418514	0.003418514	0.003418514	0.003418514	0.003418514
Colon and rectum cancer	Colon	5.32E-07	5.32E-07	5.32E-07	5.32E-07	5.32E-07	2.01E-06	2.01E-06	2.01E-06	2.01E-06	2.01E-06	5.27E-06	5.27E-06	5.27E-06	5.27E-06	5.27E-06	1.35E-05	1.35E-05	1.35E-05	1.35E-05	1.35E-05	2.59E-05	2.59E-05	2.59E-05	2.59E-05	2.59E-05	4.83E-05	4.83E-05	4.83E-05	4.83E-05	4.83E-05	8.97E-05	8.97E-05	8.97E-05	8.97E-05	8.97E-05	0.000151749	0.000151749	0.000151749	0.000151749	0.000151749	0.000222967	0.000222967	0.000222967	0.000222967	0.000222967	0.000320765	0.000320765	0.000320765	0.000320765	0.000320765	0.00045117	0.00045117	0.00045117	0.00045117	0.00045117	0.000661658	0.000661658	0.000661658	0.000661658	0.000661658	0.000973383	0.000973383	0.000973383	0.000973383	0.000973383	0.001415673	0.001415673	0.001415673	0.001415673	0.001415673	0.002108583	0.002108583	0.002108583	0.002108583	0.002108583	0.002969089	0.002969089	0.002969089	0.002969089	0.002969089	0.004212064	0.004212064	0.004212064	0.004212064	0.004212064
Gallbladder and biliary tract cancer	Gbldr	9.87E-08	9.87E-08	9.87E-08	9.87E-08	9.87E-08	1.02E-07	1.02E-07	1.02E-07	1.02E-07	1.02E-07	1.13E-07	1.13E-07	1.13E-07	1.13E-07	1.13E-07	3.42E-07	3.42E-07	3.42E-07	3.42E-07	3.42E-07	8.95E-07	8.95E-07	8.95E-07	8.95E-07	8.95E-07	2.24E-06	2.24E-06	2.24E-06	2.24E-06	2.24E-06	4.76E-06	4.76E-06	4.76E-06	4.76E-06	4.76E-06	9.34E-06	9.34E-06	9.34E-06	9.34E-06	9.34E-06	1.56E-05	1.56E-05	1.56E-05	1.56E-05	1.56E-05	2.49E-05	2.49E-05	2.49E-05	2.49E-05	2.49E-05	3.76E-05	3.76E-05	3.76E-05	3.76E-05	3.76E-05	5.56E-05	5.56E-05	5.56E-05	5.56E-05	5.56E-05	7.88E-05	7.88E-05	7.88E-05	7.88E-05	7.88E-05	0.000102505	0.000102505	0.000102505	0.000102505	0.000102505	0.000132554	0.000132554	0.000132554	0.000132554	0.000132554	0.000150747	0.000150747	0.000150747	0.000150747	0.000150747	0.000173916	0.000173916	0.000173916	0.000173916	0.000173916
Other leukemia	Lukm	1.33E-06	1.33E-06	1.33E-06	1.33E-06	1.33E-06	1.58E-06	1.58E-06	1.58E-06	1.58E-06	1.58E-06	1.85E-06	1.85E-06	1.85E-06	1.85E-06	1.85E-06	2.35E-06	2.35E-06	2.35E-06	2.35E-06	2.35E-06	2.63E-06	2.63E-06	2.63E-06	2.63E-06	2.63E-06	3.32E-06	3.32E-06	3.32E-06	3.32E-06	3.32E-06	4.85E-06	4.85E-06	4.85E-06	4.85E-06	4.85E-06	7.91E-06	7.91E-06	7.91E-06	7.91E-06	7.91E-06	1.23E-05	1.23E-05	1.23E-05	1.23E-05	1.23E-05	1.95E-05	1.95E-05	1.95E-05	1.95E-05	1.95E-05	3.19E-05	3.19E-05	3.19E-05	3.19E-05	3.19E-05	5.73E-05	5.73E-05	5.73E-05	5.73E-05	5.73E-05	9.81E-05	9.81E-05	9.81E-05	9.81E-05	9.81E-05	0.000154637	0.000154637	0.000154637	0.000154637	0.000154637	0.000226577	0.000226577	0.000226577	0.000226577	0.000226577	0.000300299	0.000300299	0.000300299	0.000300299	0.000300299	0.000396952	0.000396952	0.000396952	0.000396952	0.000396952
Transport injuries	Mva	0.000105109	0.000105109	0.000105109	0.000105109	0.000105109	0.000113276	0.000113276	0.000113276	0.000113276	0.000113276	9.07E-05	9.07E-05	9.07E-05	9.07E-05	9.07E-05	7.77E-05	7.77E-05	7.77E-05	7.77E-05	7.77E-05	7.67E-05	7.67E-05	7.67E-05	7.67E-05	7.67E-05	7.81E-05	7.81E-05	7.81E-05	7.81E-05	7.81E-05	7.73E-05	7.73E-05	7.73E-05	7.73E-05	7.73E-05	8.12E-05	8.12E-05	8.12E-05	8.12E-05	8.12E-05	8.09E-05	8.09E-05	8.09E-05	8.09E-05	8.09E-05	8.55E-05	8.55E-05	8.55E-05	8.55E-05	8.55E-05	9.76E-05	9.76E-05	9.76E-05	9.76E-05	9.76E-05	0.000122613	0.000122613	0.000122613	0.000122613	0.000122613	0.000161623	0.000161623	0.000161623	0.000161623	0.000161623	0.000205283	0.000205283	0.000205283	0.000205283	0.000205283	0.00024097	0.00024097	0.00024097	0.00024097	0.00024097	0.0002706	0.0002706	0.0002706	0.0002706	0.0002706	0.000334276	0.000334276	0.000334276	0.000334276	0.000334276
Other unintentional injuries	Oth_inj	1.50E-07	1.50E-07	1.50E-07	1.50E-07	1.50E-07	2.42E-07	2.42E-07	2.42E-07	2.42E-07	2.42E-07	2.71E-07	2.71E-07	2.71E-07	2.71E-07	2.71E-07	3.38E-07	3.38E-07	3.38E-07	3.38E-07	3.38E-07	3.48E-07	3.48E-07	3.48E-07	3.48E-07	3.48E-07	3.55E-07	3.55E-07	3.55E-07	3.55E-07	3.55E-07	4.18E-07	4.18E-07	4.18E-07	4.18E-07	4.18E-07	3.95E-07	3.95E-07	3.95E-07	3.95E-07	3.95E-07	3.89E-07	3.89E-07	3.89E-07	3.89E-07	3.89E-07	4.54E-07	4.54E-07	4.54E-07	4.54E-07	4.54E-07	5.26E-07	5.26E-07	5.26E-07	5.26E-07	5.26E-07	7.96E-07	7.96E-07	7.96E-07	7.96E-07	7.96E-07	1.40E-06	1.40E-06	1.40E-06	1.40E-06	1.40E-06	2.62E-06	2.62E-06	2.62E-06	2.62E-06	2.62E-06	4.87E-06	4.87E-06	4.87E-06	4.87E-06	4.87E-06	9.56E-06	9.56E-06	9.56E-06	9.56E-06	9.56E-06	1.95E-05	1.95E-05	1.95E-05	1.95E-05	1.95E-05
Interpersonal violence	Viol	2.39E-05	2.39E-05	2.39E-05	2.39E-05	2.39E-05	4.34E-05	4.34E-05	4.34E-05	4.34E-05	4.34E-05	4.54E-05	4.54E-05	4.54E-05	4.54E-05	4.54E-05	4.28E-05	4.28E-05	4.28E-05	4.28E-05	4.28E-05	3.91E-05	3.91E-05	3.91E-05	3.91E-05	3.91E-05	3.61E-05	3.61E-05	3.61E-05	3.61E-05	3.61E-05	3.37E-05	3.37E-05	3.37E-05	3.37E-05	3.37E-05	2.54E-05	2.54E-05	2.54E-05	2.54E-05	2.54E-05	2.15E-05	2.15E-05	2.15E-05	2.15E-05	2.15E-05	1.81E-05	1.81E-05	1.81E-05	1.81E-05	1.81E-05	1.83E-05	1.83E-05	1.83E-05	1.83E-05	1.83E-05	2.01E-05	2.01E-05	2.01E-05	2.01E-05	2.01E-05	2.33E-05	2.33E-05	2.33E-05	2.33E-05	2.33E-05	1.66E-05	1.66E-05	1.66E-05	1.66E-05	1.66E-05	1.67E-05	1.67E-05	1.67E-05	1.67E-05	1.67E-05	1.95E-05	1.95E-05	1.95E-05	1.95E-05	1.95E-05	2.95E-05	2.95E-05	2.95E-05	2.95E-05	2.95E-05
Residual Chance	Resid	NA	NA	NA	NA	NA	NA	NA	NA	NA	NA	NA	NA	NA	NA	NA	NA	NA	NA	NA	NA	NA	NA	NA	NA	NA	NA	NA	NA	NA	NA	NA	NA	NA	NA	NA	NA	NA	NA	NA	NA	NA	NA	NA	NA	NA	NA	NA	NA	NA	NA	NA	NA	NA	NA	NA	NA	NA	NA	NA	NA	NA	NA	NA	NA	NA	NA	NA	NA	NA	NA	NA	NA	NA	NA	NA	NA	NA	NA	NA	NA	NA	NA	NA	NA	NA
Acute lymphoid leukemia	All	2.64E-06	2.64E-06	2.64E-06	2.64E-06	2.64E-06	3.03E-06	3.03E-06	3.03E-06	3.03E-06	3.03E-06	2.88E-06	2.88E-06	2.88E-06	2.88E-06	2.88E-06	2.22E-06	2.22E-06	2.22E-06	2.22E-06	2.22E-06	2.51E-06	2.51E-06	2.51E-06	2.51E-06	2.51E-06	2.81E-06	2.81E-06	2.81E-06	2.81E-06	2.81E-06	3.37E-06	3.37E-06	3.37E-06	3.37E-06	3.37E-06	4.01E-06	4.01E-06	4.01E-06	4.01E-06	4.01E-06	5.18E-06	5.18E-06	5.18E-06	5.18E-06	5.18E-06	6.35E-06	6.35E-06	6.35E-06	6.35E-06	6.35E-06	8.08E-06	8.08E-06	8.08E-06	8.08E-06	8.08E-06	1.00E-05	1.00E-05	1.00E-05	1.00E-05	1.00E-05	1.27E-05	1.27E-05	1.27E-05	1.27E-05	1.27E-05	1.42E-05	1.42E-05	1.42E-05	1.42E-05	1.42E-05	1.80E-05	1.80E-05	1.80E-05	1.80E-05	1.80E-05	1.91E-05	1.91E-05	1.91E-05	1.91E-05	1.91E-05	2.22E-05	2.22E-05	2.22E-05	2.22E-05	2.22E-05
Acute myeloid leukemia	Aml	2.83E-06	2.83E-06	2.83E-06	2.83E-06	2.83E-06	4.01E-06	4.01E-06	4.01E-06	4.01E-06	4.01E-06	4.68E-06	4.68E-06	4.68E-06	4.68E-06	4.68E-06	5.54E-06	5.54E-06	5.54E-06	5.54E-06	5.54E-06	7.11E-06	7.11E-06	7.11E-06	7.11E-06	7.11E-06	9.11E-06	9.11E-06	9.11E-06	9.11E-06	9.11E-06	1.40E-05	1.40E-05	1.40E-05	1.40E-05	1.40E-05	1.98E-05	1.98E-05	1.98E-05	1.98E-05	1.98E-05	2.96E-05	2.96E-05	2.96E-05	2.96E-05	2.96E-05	4.66E-05	4.66E-05	4.66E-05	4.66E-05	4.66E-05	7.18E-05	7.18E-05	7.18E-05	7.18E-05	7.18E-05	0.000111202	0.000111202	0.000111202	0.000111202	0.000111202	0.000156813	0.000156813	0.000156813	0.000156813	0.000156813	0.000192435	0.000192435	0.000192435	0.000192435	0.000192435	0.000215169	0.000215169	0.000215169	0.000215169	0.000215169	0.000202282	0.000202282	0.000202282	0.000202282	0.000202282	0.000172169	0.000172169	0.000172169	0.000172169	0.000172169
Alzheimer disease and other dementias	Ad	0	0	0	0	0	0	0	0	0	0	0	0	0	0	0	0	0	0	0	0	0	0	0	0	0	8.26E-07	8.26E-07	8.26E-07	8.26E-07	8.26E-07	1.47E-05	1.47E-05	1.47E-05	1.47E-05	1.47E-05	2.54E-05	2.54E-05	2.54E-05	2.54E-05	2.54E-05	2.98E-05	2.98E-05	2.98E-05	2.98E-05	2.98E-05	9.77E-05	9.77E-05	9.77E-05	9.77E-05	9.77E-05	0.000275335	0.000275335	0.000275335	0.000275335	0.000275335	0.000863629	0.000863629	0.000863629	0.000863629	0.000863629	0.002670579	0.002670579	0.002670579	0.002670579	0.002670579	0.00731969	0.00731969	0.00731969	0.00731969	0.00731969	0.016983525	0.016983525	0.016983525	0.016983525	0.016983525	0.039051636	0.039051636	0.039051636	0.039051636	0.039051636	0.063703554	0.063703554	0.063703554	0.063703554	0.063703554
Aortic aneurysm	Aa	2.07E-07	2.07E-07	2.07E-07	2.07E-07	2.07E-07	4.95E-07	4.95E-07	4.95E-07	4.95E-07	4.95E-07	1.01E-06	1.01E-06	1.01E-06	1.01E-06	1.01E-06	1.51E-06	1.51E-06	1.51E-06	1.51E-06	1.51E-06	2.53E-06	2.53E-06	2.53E-06	2.53E-06	2.53E-06	3.79E-06	3.79E-06	3.79E-06	3.79E-06	3.79E-06	6.58E-06	6.58E-06	6.58E-06	6.58E-06	6.58E-06	1.02E-05	1.02E-05	1.02E-05	1.02E-05	1.02E-05	1.61E-05	1.61E-05	1.61E-05	1.61E-05	1.61E-05	2.73E-05	2.73E-05	2.73E-05	2.73E-05	2.73E-05	5.10E-05	5.10E-05	5.10E-05	5.10E-05	5.10E-05	9.32E-05	9.32E-05	9.32E-05	9.32E-05	9.32E-05	0.000168557	0.000168557	0.000168557	0.000168557	0.000168557	0.000269732	0.000269732	0.000269732	0.000269732	0.000269732	0.000415839	0.000415839	0.000415839	0.000415839	0.000415839	0.000585508	0.000585508	0.000585508	0.000585508	0.000585508	0.000765096	0.000765096	0.000765096	0.000765096	0.000765096
Asthma	Ast	2.02E-06	2.02E-06	2.02E-06	2.02E-06	2.02E-06	3.20E-06	3.20E-06	3.20E-06	3.20E-06	3.20E-06	4.73E-06	4.73E-06	4.73E-06	4.73E-06	4.73E-06	6.15E-06	6.15E-06	6.15E-06	6.15E-06	6.15E-06	8.18E-06	8.18E-06	8.18E-06	8.18E-06	8.18E-06	1.09E-05	1.09E-05	1.09E-05	1.09E-05	1.09E-05	1.53E-05	1.53E-05	1.53E-05	1.53E-05	1.53E-05	1.80E-05	1.80E-05	1.80E-05	1.80E-05	1.80E-05	1.98E-05	1.98E-05	1.98E-05	1.98E-05	1.98E-05	1.97E-05	1.97E-05	1.97E-05	1.97E-05	1.97E-05	2.32E-05	2.32E-05	2.32E-05	2.32E-05	2.32E-05	2.81E-05	2.81E-05	2.81E-05	2.81E-05	2.81E-05	4.06E-05	4.06E-05	4.06E-05	4.06E-05	4.06E-05	6.26E-05	6.26E-05	6.26E-05	6.26E-05	6.26E-05	0.000100519	0.000100519	0.000100519	0.000100519	0.000100519	0.000182836	0.000182836	0.000182836	0.000182836	0.000182836	0.000347161	0.000347161	0.000347161	0.000347161	0.000347161
Atrial fibrillation and flutter	Afib	0	0	0	0	0	0	0	0	0	0	0	0	0	0	0	6.94E-08	6.94E-08	6.94E-08	6.94E-08	6.94E-08	2.90E-07	2.90E-07	2.90E-07	2.90E-07	2.90E-07	7.58E-07	7.58E-07	7.58E-07	7.58E-07	7.58E-07	1.62E-06	1.62E-06	1.62E-06	1.62E-06	1.62E-06	3.30E-06	3.30E-06	3.30E-06	3.30E-06	3.30E-06	6.96E-06	6.96E-06	6.96E-06	6.96E-06	6.96E-06	1.63E-05	1.63E-05	1.63E-05	1.63E-05	1.63E-05	4.06E-05	4.06E-05	4.06E-05	4.06E-05	4.06E-05	9.91E-05	9.91E-05	9.91E-05	9.91E-05	9.91E-05	0.000218262	0.000218262	0.000218262	0.000218262	0.000218262	0.000721759	0.000721759	0.000721759	0.000721759	0.000721759	0.001734214	0.001734214	0.001734214	0.001734214	0.001734214	0.00285391	0.00285391	0.00285391	0.00285391	0.00285391	0.003975962	0.003975962	0.003975962	0.003975962	0.003975962
Bladder cancer	Blad	9.87E-08	9.87E-08	9.87E-08	9.87E-08	9.87E-08	1.02E-07	1.02E-07	1.02E-07	1.02E-07	1.02E-07	2.28E-07	2.28E-07	2.28E-07	2.28E-07	2.28E-07	6.64E-07	6.64E-07	6.64E-07	6.64E-07	6.64E-07	1.56E-06	1.56E-06	1.56E-06	1.56E-06	1.56E-06	3.20E-06	3.20E-06	3.20E-06	3.20E-06	3.20E-06	5.08E-06	5.08E-06	5.08E-06	5.08E-06	5.08E-06	9.31E-06	9.31E-06	9.31E-06	9.31E-06	9.31E-06	1.73E-05	1.73E-05	1.73E-05	1.73E-05	1.73E-05	2.93E-05	2.93E-05	2.93E-05	2.93E-05	2.93E-05	4.97E-05	4.97E-05	4.97E-05	4.97E-05	4.97E-05	8.88E-05	8.88E-05	8.88E-05	8.88E-05	8.88E-05	0.000156453	0.000156453	0.000156453	0.000156453	0.000156453	0.00025086	0.00025086	0.00025086	0.00025086	0.00025086	0.000388938	0.000388938	0.000388938	0.000388938	0.000388938	0.000547089	0.000547089	0.000547089	0.000547089	0.000547089	0.000780155	0.000780155	0.000780155	0.000780155	0.000780155
Chronic kidney disease due to diabetes mellitus	Kdny_dm	1.11E-07	1.11E-07	1.11E-07	1.11E-07	1.11E-07	5.55E-07	5.55E-07	5.55E-07	5.55E-07	5.55E-07	2.23E-06	2.23E-06	2.23E-06	2.23E-06	2.23E-06	6.16E-06	6.16E-06	6.16E-06	6.16E-06	6.16E-06	1.18E-05	1.18E-05	1.18E-05	1.18E-05	1.18E-05	1.90E-05	1.90E-05	1.90E-05	1.90E-05	1.90E-05	3.24E-05	3.24E-05	3.24E-05	3.24E-05	3.24E-05	5.45E-05	5.45E-05	5.45E-05	5.45E-05	5.45E-05	9.26E-05	9.26E-05	9.26E-05	9.26E-05	9.26E-05	0.000149971	0.000149971	0.000149971	0.000149971	0.000149971	0.000235718	0.000235718	0.000235718	0.000235718	0.000235718	0.00036938	0.00036938	0.00036938	0.00036938	0.00036938	0.000552212	0.000552212	0.000552212	0.000552212	0.000552212	0.000771941	0.000771941	0.000771941	0.000771941	0.000771941	0.001062411	0.001062411	0.001062411	0.001062411	0.001062411	0.001609356	0.001609356	0.001609356	0.001609356	0.001609356	0.00293978	0.00293978	0.00293978	0.00293978	0.00293978
Chronic kidney disease due to glomerulonephritis	Kdny_gl	5.33E-07	5.33E-07	5.33E-07	5.33E-07	5.33E-07	1.63E-06	1.63E-06	1.63E-06	1.63E-06	1.63E-06	2.91E-06	2.91E-06	2.91E-06	2.91E-06	2.91E-06	3.45E-06	3.45E-06	3.45E-06	3.45E-06	3.45E-06	3.69E-06	3.69E-06	3.69E-06	3.69E-06	3.69E-06	4.33E-06	4.33E-06	4.33E-06	4.33E-06	4.33E-06	6.04E-06	6.04E-06	6.04E-06	6.04E-06	6.04E-06	9.08E-06	9.08E-06	9.08E-06	9.08E-06	9.08E-06	1.31E-05	1.31E-05	1.31E-05	1.31E-05	1.31E-05	1.84E-05	1.84E-05	1.84E-05	1.84E-05	1.84E-05	2.99E-05	2.99E-05	2.99E-05	2.99E-05	2.99E-05	5.05E-05	5.05E-05	5.05E-05	5.05E-05	5.05E-05	8.67E-05	8.67E-05	8.67E-05	8.67E-05	8.67E-05	0.000145227	0.000145227	0.000145227	0.000145227	0.000145227	0.000208405	0.000208405	0.000208405	0.000208405	0.000208405	0.000288582	0.000288582	0.000288582	0.000288582	0.000288582	0.000495653	0.000495653	0.000495653	0.000495653	0.000495653
Chronic kidney disease due to hypertension	Kdny_hyp	3.67E-08	3.67E-08	3.67E-08	3.67E-08	3.67E-08	1.53E-07	1.53E-07	1.53E-07	1.53E-07	1.53E-07	4.18E-07	4.18E-07	4.18E-07	4.18E-07	4.18E-07	8.59E-07	8.59E-07	8.59E-07	8.59E-07	8.59E-07	1.55E-06	1.55E-06	1.55E-06	1.55E-06	1.55E-06	2.71E-06	2.71E-06	2.71E-06	2.71E-06	2.71E-06	5.08E-06	5.08E-06	5.08E-06	5.08E-06	5.08E-06	9.88E-06	9.88E-06	9.88E-06	9.88E-06	9.88E-06	1.94E-05	1.94E-05	1.94E-05	1.94E-05	1.94E-05	3.59E-05	3.59E-05	3.59E-05	3.59E-05	3.59E-05	7.01E-05	7.01E-05	7.01E-05	7.01E-05	7.01E-05	0.000139386	0.000139386	0.000139386	0.000139386	0.000139386	0.000282672	0.000282672	0.000282672	0.000282672	0.000282672	0.000602141	0.000602141	0.000602141	0.000602141	0.000602141	0.001298971	0.001298971	0.001298971	0.001298971	0.001298971	0.002442254	0.002442254	0.002442254	0.002442254	0.002442254	0.00453093	0.00453093	0.00453093	0.00453093	0.00453093
Chronic kidney disease due to other causes	Kdny_oth	4.88E-07	4.88E-07	4.88E-07	4.88E-07	4.88E-07	1.24E-06	1.24E-06	1.24E-06	1.24E-06	1.24E-06	2.28E-06	2.28E-06	2.28E-06	2.28E-06	2.28E-06	3.48E-06	3.48E-06	3.48E-06	3.48E-06	3.48E-06	4.37E-06	4.37E-06	4.37E-06	4.37E-06	4.37E-06	5.39E-06	5.39E-06	5.39E-06	5.39E-06	5.39E-06	7.72E-06	7.72E-06	7.72E-06	7.72E-06	7.72E-06	1.23E-05	1.23E-05	1.23E-05	1.23E-05	1.23E-05	2.04E-05	2.04E-05	2.04E-05	2.04E-05	2.04E-05	3.08E-05	3.08E-05	3.08E-05	3.08E-05	3.08E-05	4.93E-05	4.93E-05	4.93E-05	4.93E-05	4.93E-05	8.43E-05	8.43E-05	8.43E-05	8.43E-05	8.43E-05	0.000145212	0.000145212	0.000145212	0.000145212	0.000145212	0.000260828	0.000260828	0.000260828	0.000260828	0.000260828	0.000440606	0.000440606	0.000440606	0.000440606	0.000440606	0.000668746	0.000668746	0.000668746	0.000668746	0.000668746	0.001116803	0.001116803	0.001116803	0.001116803	0.001116803
Chronic lymphoid leukemia	Cll	9.51E-08	9.51E-08	9.51E-08	9.51E-08	9.51E-08	1.05E-07	1.05E-07	1.05E-07	1.05E-07	1.05E-07	1.37E-07	1.37E-07	1.37E-07	1.37E-07	1.37E-07	1.15E-07	1.15E-07	1.15E-07	1.15E-07	1.15E-07	2.30E-07	2.30E-07	2.30E-07	2.30E-07	2.30E-07	4.27E-07	4.27E-07	4.27E-07	4.27E-07	4.27E-07	1.12E-06	1.12E-06	1.12E-06	1.12E-06	1.12E-06	2.62E-06	2.62E-06	2.62E-06	2.62E-06	2.62E-06	5.55E-06	5.55E-06	5.55E-06	5.55E-06	5.55E-06	1.06E-05	1.06E-05	1.06E-05	1.06E-05	1.06E-05	1.92E-05	1.92E-05	1.92E-05	1.92E-05	1.92E-05	3.51E-05	3.51E-05	3.51E-05	3.51E-05	3.51E-05	6.49E-05	6.49E-05	6.49E-05	6.49E-05	6.49E-05	0.000112291	0.000112291	0.000112291	0.000112291	0.000112291	0.000188497	0.000188497	0.000188497	0.000188497	0.000188497	0.000297969	0.000297969	0.000297969	0.000297969	0.000297969	0.000456473	0.000456473	0.000456473	0.000456473	0.000456473
Chronic myeloid leukemia	Cml	1.66E-07	1.66E-07	1.66E-07	1.66E-07	1.66E-07	3.06E-07	3.06E-07	3.06E-07	3.06E-07	3.06E-07	5.22E-07	5.22E-07	5.22E-07	5.22E-07	5.22E-07	6.54E-07	6.54E-07	6.54E-07	6.54E-07	6.54E-07	8.92E-07	8.92E-07	8.92E-07	8.92E-07	8.92E-07	1.10E-06	1.10E-06	1.10E-06	1.10E-06	1.10E-06	1.57E-06	1.57E-06	1.57E-06	1.57E-06	1.57E-06	1.93E-06	1.93E-06	1.93E-06	1.93E-06	1.93E-06	2.96E-06	2.96E-06	2.96E-06	2.96E-06	2.96E-06	3.86E-06	3.86E-06	3.86E-06	3.86E-06	3.86E-06	5.39E-06	5.39E-06	5.39E-06	5.39E-06	5.39E-06	9.07E-06	9.07E-06	9.07E-06	9.07E-06	9.07E-06	1.48E-05	1.48E-05	1.48E-05	1.48E-05	1.48E-05	2.49E-05	2.49E-05	2.49E-05	2.49E-05	2.49E-05	3.81E-05	3.81E-05	3.81E-05	3.81E-05	3.81E-05	4.64E-05	4.64E-05	4.64E-05	4.64E-05	4.64E-05	5.97E-05	5.97E-05	5.97E-05	5.97E-05	5.97E-05
Drug-susceptible tuberculosis	Tb_dr	1.01E-07	1.01E-07	1.01E-07	1.01E-07	1.01E-07	2.86E-07	2.86E-07	2.86E-07	2.86E-07	2.86E-07	3.98E-07	3.98E-07	3.98E-07	3.98E-07	3.98E-07	4.72E-07	4.72E-07	4.72E-07	4.72E-07	4.72E-07	5.90E-07	5.90E-07	5.90E-07	5.90E-07	5.90E-07	7.31E-07	7.31E-07	7.31E-07	7.31E-07	7.31E-07	1.05E-06	1.05E-06	1.05E-06	1.05E-06	1.05E-06	1.45E-06	1.45E-06	1.45E-06	1.45E-06	1.45E-06	1.99E-06	1.99E-06	1.99E-06	1.99E-06	1.99E-06	2.67E-06	2.67E-06	2.67E-06	2.67E-06	2.67E-06	4.11E-06	4.11E-06	4.11E-06	4.11E-06	4.11E-06	5.90E-06	5.90E-06	5.90E-06	5.90E-06	5.90E-06	9.73E-06	9.73E-06	9.73E-06	9.73E-06	9.73E-06	1.51E-05	1.51E-05	1.51E-05	1.51E-05	1.51E-05	2.01E-05	2.01E-05	2.01E-05	2.01E-05	2.01E-05	2.58E-05	2.58E-05	2.58E-05	2.58E-05	2.58E-05	3.57E-05	3.57E-05	3.57E-05	3.57E-05	3.57E-05
Endocarditis	Endo	5.35E-07	5.35E-07	5.35E-07	5.35E-07	5.35E-07	1.55E-06	1.55E-06	1.55E-06	1.55E-06	1.55E-06	2.62E-06	2.62E-06	2.62E-06	2.62E-06	2.62E-06	3.31E-06	3.31E-06	3.31E-06	3.31E-06	3.31E-06	4.60E-06	4.60E-06	4.60E-06	4.60E-06	4.60E-06	6.18E-06	6.18E-06	6.18E-06	6.18E-06	6.18E-06	8.35E-06	8.35E-06	8.35E-06	8.35E-06	8.35E-06	1.21E-05	1.21E-05	1.21E-05	1.21E-05	1.21E-05	1.76E-05	1.76E-05	1.76E-05	1.76E-05	1.76E-05	2.61E-05	2.61E-05	2.61E-05	2.61E-05	2.61E-05	4.08E-05	4.08E-05	4.08E-05	4.08E-05	4.08E-05	6.42E-05	6.42E-05	6.42E-05	6.42E-05	6.42E-05	0.000111213	0.000111213	0.000111213	0.000111213	0.000111213	0.000194616	0.000194616	0.000194616	0.000194616	0.000194616	0.000358216	0.000358216	0.000358216	0.000358216	0.000358216	0.000606943	0.000606943	0.000606943	0.000606943	0.000606943	0.000995618	0.000995618	0.000995618	0.000995618	0.000995618
Epilepsy	Epi	2.38E-06	2.38E-06	2.38E-06	2.38E-06	2.38E-06	4.09E-06	4.09E-06	4.09E-06	4.09E-06	4.09E-06	4.51E-06	4.51E-06	4.51E-06	4.51E-06	4.51E-06	4.52E-06	4.52E-06	4.52E-06	4.52E-06	4.52E-06	4.97E-06	4.97E-06	4.97E-06	4.97E-06	4.97E-06	5.28E-06	5.28E-06	5.28E-06	5.28E-06	5.28E-06	5.90E-06	5.90E-06	5.90E-06	5.90E-06	5.90E-06	6.21E-06	6.21E-06	6.21E-06	6.21E-06	6.21E-06	6.87E-06	6.87E-06	6.87E-06	6.87E-06	6.87E-06	7.65E-06	7.65E-06	7.65E-06	7.65E-06	7.65E-06	8.13E-06	8.13E-06	8.13E-06	8.13E-06	8.13E-06	1.06E-05	1.06E-05	1.06E-05	1.06E-05	1.06E-05	1.38E-05	1.38E-05	1.38E-05	1.38E-05	1.38E-05	1.83E-05	1.83E-05	1.83E-05	1.83E-05	1.83E-05	2.10E-05	2.10E-05	2.10E-05	2.10E-05	2.10E-05	2.77E-05	2.77E-05	2.77E-05	2.77E-05	2.77E-05	4.13E-05	4.13E-05	4.13E-05	4.13E-05	4.13E-05
Extensively drug-resistant tuberculosis	Tb_edr	1.04E-09	1.04E-09	1.04E-09	1.04E-09	1.04E-09	2.95E-09	2.95E-09	2.95E-09	2.95E-09	2.95E-09	4.09E-09	4.09E-09	4.09E-09	4.09E-09	4.09E-09	4.83E-09	4.83E-09	4.83E-09	4.83E-09	4.83E-09	5.97E-09	5.97E-09	5.97E-09	5.97E-09	5.97E-09	7.36E-09	7.36E-09	7.36E-09	7.36E-09	7.36E-09	1.05E-08	1.05E-08	1.05E-08	1.05E-08	1.05E-08	1.46E-08	1.46E-08	1.46E-08	1.46E-08	1.46E-08	2.02E-08	2.02E-08	2.02E-08	2.02E-08	2.02E-08	2.72E-08	2.72E-08	2.72E-08	2.72E-08	2.72E-08	4.22E-08	4.22E-08	4.22E-08	4.22E-08	4.22E-08	6.08E-08	6.08E-08	6.08E-08	6.08E-08	6.08E-08	1.00E-07	1.00E-07	1.00E-07	1.00E-07	1.00E-07	1.55E-07	1.55E-07	1.55E-07	1.55E-07	1.55E-07	2.07E-07	2.07E-07	2.07E-07	2.07E-07	2.07E-07	2.66E-07	2.66E-07	2.66E-07	2.66E-07	2.66E-07	3.67E-07	3.67E-07	3.67E-07	3.67E-07	3.67E-07
Gallbladder and biliary diseases	Gall	1.39E-07	1.39E-07	1.39E-07	1.39E-07	1.39E-07	4.30E-07	4.30E-07	4.30E-07	4.30E-07	4.30E-07	6.91E-07	6.91E-07	6.91E-07	6.91E-07	6.91E-07	1.00E-06	1.00E-06	1.00E-06	1.00E-06	1.00E-06	1.40E-06	1.40E-06	1.40E-06	1.40E-06	1.40E-06	2.07E-06	2.07E-06	2.07E-06	2.07E-06	2.07E-06	2.99E-06	2.99E-06	2.99E-06	2.99E-06	2.99E-06	4.78E-06	4.78E-06	4.78E-06	4.78E-06	4.78E-06	7.46E-06	7.46E-06	7.46E-06	7.46E-06	7.46E-06	1.21E-05	1.21E-05	1.21E-05	1.21E-05	1.21E-05	2.01E-05	2.01E-05	2.01E-05	2.01E-05	2.01E-05	3.45E-05	3.45E-05	3.45E-05	3.45E-05	3.45E-05	6.34E-05	6.34E-05	6.34E-05	6.34E-05	6.34E-05	0.000118557	0.000118557	0.000118557	0.000118557	0.000118557	0.000226351	0.000226351	0.000226351	0.000226351	0.000226351	0.000419105	0.000419105	0.000419105	0.000419105	0.000419105	0.000790899	0.000790899	0.000790899	0.000790899	0.000790899
Liver cancer due to hepatitis B	Liver_hepb	1.10E-07	1.10E-07	1.10E-07	1.10E-07	1.10E-07	2.64E-07	2.64E-07	2.64E-07	2.64E-07	2.64E-07	4.97E-07	4.97E-07	4.97E-07	4.97E-07	4.97E-07	8.01E-07	8.01E-07	8.01E-07	8.01E-07	8.01E-07	1.14E-06	1.14E-06	1.14E-06	1.14E-06	1.14E-06	1.80E-06	1.80E-06	1.80E-06	1.80E-06	1.80E-06	3.16E-06	3.16E-06	3.16E-06	3.16E-06	3.16E-06	5.33E-06	5.33E-06	5.33E-06	5.33E-06	5.33E-06	8.00E-06	8.00E-06	8.00E-06	8.00E-06	8.00E-06	1.04E-05	1.04E-05	1.04E-05	1.04E-05	1.04E-05	1.38E-05	1.38E-05	1.38E-05	1.38E-05	1.38E-05	1.86E-05	1.86E-05	1.86E-05	1.86E-05	1.86E-05	2.46E-05	2.46E-05	2.46E-05	2.46E-05	2.46E-05	2.84E-05	2.84E-05	2.84E-05	2.84E-05	2.84E-05	3.25E-05	3.25E-05	3.25E-05	3.25E-05	3.25E-05	3.38E-05	3.38E-05	3.38E-05	3.38E-05	3.38E-05	3.57E-05	3.57E-05	3.57E-05	3.57E-05	3.57E-05
Liver cancer due to hepatitis C	Liver_hepc	1.06E-07	1.06E-07	1.06E-07	1.06E-07	1.06E-07	2.24E-07	2.24E-07	2.24E-07	2.24E-07	2.24E-07	3.93E-07	3.93E-07	3.93E-07	3.93E-07	3.93E-07	6.25E-07	6.25E-07	6.25E-07	6.25E-07	6.25E-07	9.16E-07	9.16E-07	9.16E-07	9.16E-07	9.16E-07	1.96E-06	1.96E-06	1.96E-06	1.96E-06	1.96E-06	5.48E-06	5.48E-06	5.48E-06	5.48E-06	5.48E-06	1.36E-05	1.36E-05	1.36E-05	1.36E-05	1.36E-05	2.81E-05	2.81E-05	2.81E-05	2.81E-05	2.81E-05	4.29E-05	4.29E-05	4.29E-05	4.29E-05	4.29E-05	5.72E-05	5.72E-05	5.72E-05	5.72E-05	5.72E-05	8.17E-05	8.17E-05	8.17E-05	8.17E-05	8.17E-05	0.000121099	0.000121099	0.000121099	0.000121099	0.000121099	0.000163726	0.000163726	0.000163726	0.000163726	0.000163726	0.00021482	0.00021482	0.00021482	0.00021482	0.00021482	0.000251674	0.000251674	0.000251674	0.000251674	0.000251674	0.000292766	0.000292766	0.000292766	0.000292766	0.000292766
Liver cancer due to other causes	Liver_other	3.77E-07	3.77E-07	3.77E-07	3.77E-07	3.77E-07	4.27E-07	4.27E-07	4.27E-07	4.27E-07	4.27E-07	4.35E-07	4.35E-07	4.35E-07	4.35E-07	4.35E-07	5.05E-07	5.05E-07	5.05E-07	5.05E-07	5.05E-07	5.89E-07	5.89E-07	5.89E-07	5.89E-07	5.89E-07	9.02E-07	9.02E-07	9.02E-07	9.02E-07	9.02E-07	1.84E-06	1.84E-06	1.84E-06	1.84E-06	1.84E-06	3.68E-06	3.68E-06	3.68E-06	3.68E-06	3.68E-06	6.60E-06	6.60E-06	6.60E-06	6.60E-06	6.60E-06	9.97E-06	9.97E-06	9.97E-06	9.97E-06	9.97E-06	1.47E-05	1.47E-05	1.47E-05	1.47E-05	1.47E-05	2.27E-05	2.27E-05	2.27E-05	2.27E-05	2.27E-05	3.59E-05	3.59E-05	3.59E-05	3.59E-05	3.59E-05	4.57E-05	4.57E-05	4.57E-05	4.57E-05	4.57E-05	5.10E-05	5.10E-05	5.10E-05	5.10E-05	5.10E-05	5.23E-05	5.23E-05	5.23E-05	5.23E-05	5.23E-05	5.40E-05	5.40E-05	5.40E-05	5.40E-05	5.40E-05
Lower respiratory infections	Lower_resp	3.59E-06	3.59E-06	3.59E-06	3.59E-06	3.59E-06	7.29E-06	7.29E-06	7.29E-06	7.29E-06	7.29E-06	1.14E-05	1.14E-05	1.14E-05	1.14E-05	1.14E-05	1.61E-05	1.61E-05	1.61E-05	1.61E-05	1.61E-05	2.24E-05	2.24E-05	2.24E-05	2.24E-05	2.24E-05	3.30E-05	3.30E-05	3.30E-05	3.30E-05	3.30E-05	4.89E-05	4.89E-05	4.89E-05	4.89E-05	4.89E-05	9.58E-05	9.58E-05	9.58E-05	9.58E-05	9.58E-05	0.000153719	0.000153719	0.000153719	0.000153719	0.000153719	0.000223394	0.000223394	0.000223394	0.000223394	0.000223394	0.000339198	0.000339198	0.000339198	0.000339198	0.000339198	0.000579273	0.000579273	0.000579273	0.000579273	0.000579273	0.001052677	0.001052677	0.001052677	0.001052677	0.001052677	0.001958209	0.001958209	0.001958209	0.001958209	0.001958209	0.003839594	0.003839594	0.003839594	0.003839594	0.003839594	0.007143606	0.007143606	0.007143606	0.007143606	0.007143606	0.018229135	0.018229135	0.018229135	0.018229135	0.018229135
Multidrug-resistant tuberculosis without extensive drug resistance	Tb_mdr	3.14E-09	3.14E-09	3.14E-09	3.14E-09	3.14E-09	8.88E-09	8.88E-09	8.88E-09	8.88E-09	8.88E-09	1.23E-08	1.23E-08	1.23E-08	1.23E-08	1.23E-08	1.45E-08	1.45E-08	1.45E-08	1.45E-08	1.45E-08	1.80E-08	1.80E-08	1.80E-08	1.80E-08	1.80E-08	2.22E-08	2.22E-08	2.22E-08	2.22E-08	2.22E-08	3.17E-08	3.17E-08	3.17E-08	3.17E-08	3.17E-08	4.40E-08	4.40E-08	4.40E-08	4.40E-08	4.40E-08	6.09E-08	6.09E-08	6.09E-08	6.09E-08	6.09E-08	8.19E-08	8.19E-08	8.19E-08	8.19E-08	8.19E-08	1.27E-07	1.27E-07	1.27E-07	1.27E-07	1.27E-07	1.83E-07	1.83E-07	1.83E-07	1.83E-07	1.83E-07	3.02E-07	3.02E-07	3.02E-07	3.02E-07	3.02E-07	4.67E-07	4.67E-07	4.67E-07	4.67E-07	4.67E-07	6.24E-07	6.24E-07	6.24E-07	6.24E-07	6.24E-07	8.01E-07	8.01E-07	8.01E-07	8.01E-07	8.01E-07	1.11E-06	1.11E-06	1.11E-06	1.11E-06	1.11E-06
Multiple myeloma	Mm	2.98E-08	2.98E-08	2.98E-08	2.98E-08	2.98E-08	5.49E-08	5.49E-08	5.49E-08	5.49E-08	5.49E-08	1.22E-07	1.22E-07	1.22E-07	1.22E-07	1.22E-07	4.18E-07	4.18E-07	4.18E-07	4.18E-07	4.18E-07	1.34E-06	1.34E-06	1.34E-06	1.34E-06	1.34E-06	3.66E-06	3.66E-06	3.66E-06	3.66E-06	3.66E-06	8.61E-06	8.61E-06	8.61E-06	8.61E-06	8.61E-06	1.83E-05	1.83E-05	1.83E-05	1.83E-05	1.83E-05	3.47E-05	3.47E-05	3.47E-05	3.47E-05	3.47E-05	5.93E-05	5.93E-05	5.93E-05	5.93E-05	5.93E-05	9.51E-05	9.51E-05	9.51E-05	9.51E-05	9.51E-05	0.000148881	0.000148881	0.000148881	0.000148881	0.000148881	0.000216747	0.000216747	0.000216747	0.000216747	0.000216747	0.000288971	0.000288971	0.000288971	0.000288971	0.000288971	0.000341414	0.000341414	0.000341414	0.000341414	0.000341414	0.000342348	0.000342348	0.000342348	0.000342348	0.000342348	0.000290603	0.000290603	0.000290603	0.000290603	0.000290603
Multiple sclerosis	Mscler	0	0	0	0	0	3.61E-07	3.61E-07	3.61E-07	3.61E-07	3.61E-07	1.05E-06	1.05E-06	1.05E-06	1.05E-06	1.05E-06	2.54E-06	2.54E-06	2.54E-06	2.54E-06	2.54E-06	4.77E-06	4.77E-06	4.77E-06	4.77E-06	4.77E-06	9.21E-06	9.21E-06	9.21E-06	9.21E-06	9.21E-06	1.54E-05	1.54E-05	1.54E-05	1.54E-05	1.54E-05	2.40E-05	2.40E-05	2.40E-05	2.40E-05	2.40E-05	3.22E-05	3.22E-05	3.22E-05	3.22E-05	3.22E-05	4.04E-05	4.04E-05	4.04E-05	4.04E-05	4.04E-05	4.52E-05	4.52E-05	4.52E-05	4.52E-05	4.52E-05	4.51E-05	4.51E-05	4.51E-05	4.51E-05	4.51E-05	4.36E-05	4.36E-05	4.36E-05	4.36E-05	4.36E-05	3.95E-05	3.95E-05	3.95E-05	3.95E-05	3.95E-05	3.12E-05	3.12E-05	3.12E-05	3.12E-05	3.12E-05	2.27E-05	2.27E-05	2.27E-05	2.27E-05	2.27E-05	1.75E-05	1.75E-05	1.75E-05	1.75E-05	1.75E-05
Nasopharynx cancer	Nasophar	1.30E-07	1.30E-07	1.30E-07	1.30E-07	1.30E-07	2.35E-07	2.35E-07	2.35E-07	2.35E-07	2.35E-07	3.36E-07	3.36E-07	3.36E-07	3.36E-07	3.36E-07	3.66E-07	3.66E-07	3.66E-07	3.66E-07	3.66E-07	6.69E-07	6.69E-07	6.69E-07	6.69E-07	6.69E-07	1.10E-06	1.10E-06	1.10E-06	1.10E-06	1.10E-06	2.84E-06	2.84E-06	2.84E-06	2.84E-06	2.84E-06	4.66E-06	4.66E-06	4.66E-06	4.66E-06	4.66E-06	7.14E-06	7.14E-06	7.14E-06	7.14E-06	7.14E-06	3.54E-06	3.54E-06	3.54E-06	3.54E-06	3.54E-06	4.29E-06	4.29E-06	4.29E-06	4.29E-06	4.29E-06	5.29E-06	5.29E-06	5.29E-06	5.29E-06	5.29E-06	4.55E-06	4.55E-06	4.55E-06	4.55E-06	4.55E-06	5.39E-06	5.39E-06	5.39E-06	5.39E-06	5.39E-06	6.38E-06	6.38E-06	6.38E-06	6.38E-06	6.38E-06	5.86E-06	5.86E-06	5.86E-06	5.86E-06	5.86E-06	9.05E-06	9.05E-06	9.05E-06	9.05E-06	9.05E-06
Non-Hodgkin lymphoma	Nhl	1.43E-06	1.43E-06	1.43E-06	1.43E-06	1.43E-06	2.90E-06	2.90E-06	2.90E-06	2.90E-06	2.90E-06	4.30E-06	4.30E-06	4.30E-06	4.30E-06	4.30E-06	5.57E-06	5.57E-06	5.57E-06	5.57E-06	5.57E-06	7.78E-06	7.78E-06	7.78E-06	7.78E-06	7.78E-06	1.19E-05	1.19E-05	1.19E-05	1.19E-05	1.19E-05	1.87E-05	1.87E-05	1.87E-05	1.87E-05	1.87E-05	3.12E-05	3.12E-05	3.12E-05	3.12E-05	3.12E-05	5.43E-05	5.43E-05	5.43E-05	5.43E-05	5.43E-05	9.57E-05	9.57E-05	9.57E-05	9.57E-05	9.57E-05	0.000157086	0.000157086	0.000157086	0.000157086	0.000157086	0.000256442	0.000256442	0.000256442	0.000256442	0.000256442	0.000372931	0.000372931	0.000372931	0.000372931	0.000372931	0.000543476	0.000543476	0.000543476	0.000543476	0.000543476	0.000727917	0.000727917	0.000727917	0.000727917	0.000727917	0.000831043	0.000831043	0.000831043	0.000831043	0.000831043	0.00085092	0.00085092	0.00085092	0.00085092	0.00085092
Other cardiomyopathy	Oth_cm	2.23E-06	2.23E-06	2.23E-06	2.23E-06	2.23E-06	4.30E-06	4.30E-06	4.30E-06	4.30E-06	4.30E-06	6.48E-06	6.48E-06	6.48E-06	6.48E-06	6.48E-06	9.64E-06	9.64E-06	9.64E-06	9.64E-06	9.64E-06	1.37E-05	1.37E-05	1.37E-05	1.37E-05	1.37E-05	1.72E-05	1.72E-05	1.72E-05	1.72E-05	1.72E-05	2.41E-05	2.41E-05	2.41E-05	2.41E-05	2.41E-05	3.52E-05	3.52E-05	3.52E-05	3.52E-05	3.52E-05	4.79E-05	4.79E-05	4.79E-05	4.79E-05	4.79E-05	6.61E-05	6.61E-05	6.61E-05	6.61E-05	6.61E-05	9.83E-05	9.83E-05	9.83E-05	9.83E-05	9.83E-05	0.000148575	0.000148575	0.000148575	0.000148575	0.000148575	0.000239091	0.000239091	0.000239091	0.000239091	0.000239091	0.000411228	0.000411228	0.000411228	0.000411228	0.000411228	0.000709428	0.000709428	0.000709428	0.000709428	0.000709428	0.001234078	0.001234078	0.001234078	0.001234078	0.001234078	0.002186416	0.002186416	0.002186416	0.002186416	0.002186416
Other pharynx cancer	Pharynx	9.87E-08	9.87E-08	9.87E-08	9.87E-08	9.87E-08	1.03E-07	1.03E-07	1.03E-07	1.03E-07	1.03E-07	1.18E-07	1.18E-07	1.18E-07	1.18E-07	1.18E-07	2.49E-07	2.49E-07	2.49E-07	2.49E-07	2.49E-07	5.76E-07	5.76E-07	5.76E-07	5.76E-07	5.76E-07	1.34E-06	1.34E-06	1.34E-06	1.34E-06	1.34E-06	3.15E-06	3.15E-06	3.15E-06	3.15E-06	3.15E-06	5.88E-06	5.88E-06	5.88E-06	5.88E-06	5.88E-06	8.50E-06	8.50E-06	8.50E-06	8.50E-06	8.50E-06	1.18E-05	1.18E-05	1.18E-05	1.18E-05	1.18E-05	1.60E-05	1.60E-05	1.60E-05	1.60E-05	1.60E-05	2.06E-05	2.06E-05	2.06E-05	2.06E-05	2.06E-05	2.65E-05	2.65E-05	2.65E-05	2.65E-05	2.65E-05	3.23E-05	3.23E-05	3.23E-05	3.23E-05	3.23E-05	4.07E-05	4.07E-05	4.07E-05	4.07E-05	4.07E-05	5.05E-05	5.05E-05	5.05E-05	5.05E-05	5.05E-05	6.09E-05	6.09E-05	6.09E-05	6.09E-05	6.09E-05
Ovarian cancer	Ovar	8.67E-07	8.67E-07	8.67E-07	8.67E-07	8.67E-07	1.79E-06	1.79E-06	1.79E-06	1.79E-06	1.79E-06	3.34E-06	3.34E-06	3.34E-06	3.34E-06	3.34E-06	5.86E-06	5.86E-06	5.86E-06	5.86E-06	5.86E-06	1.18E-05	1.18E-05	1.18E-05	1.18E-05	1.18E-05	2.37E-05	2.37E-05	2.37E-05	2.37E-05	2.37E-05	4.93E-05	4.93E-05	4.93E-05	4.93E-05	4.93E-05	9.06E-05	9.06E-05	9.06E-05	9.06E-05	9.06E-05	0.000139237	0.000139237	0.000139237	0.000139237	0.000139237	0.00020447	0.00020447	0.00020447	0.00020447	0.00020447	0.000278777	0.000278777	0.000278777	0.000278777	0.000278777	0.000366164	0.000366164	0.000366164	0.000366164	0.000366164	0.000457139	0.000457139	0.000457139	0.000457139	0.000457139	0.000532178	0.000532178	0.000532178	0.000532178	0.000532178	0.00059211	0.00059211	0.00059211	0.00059211	0.00059211	0.000599585	0.000599585	0.000599585	0.000599585	0.000599585	0.000549232	0.000549232	0.000549232	0.000549232	0.000549232
Parkinson disease	Pd	0	0	0	0	0	5.21E-09	5.21E-09	5.21E-09	5.21E-09	5.21E-09	7.56E-08	7.56E-08	7.56E-08	7.56E-08	7.56E-08	2.47E-07	2.47E-07	2.47E-07	2.47E-07	2.47E-07	4.18E-07	4.18E-07	4.18E-07	4.18E-07	4.18E-07	6.37E-07	6.37E-07	6.37E-07	6.37E-07	6.37E-07	1.21E-06	1.21E-06	1.21E-06	1.21E-06	1.21E-06	2.61E-06	2.61E-06	2.61E-06	2.61E-06	2.61E-06	6.05E-06	6.05E-06	6.05E-06	6.05E-06	6.05E-06	1.58E-05	1.58E-05	1.58E-05	1.58E-05	1.58E-05	4.45E-05	4.45E-05	4.45E-05	4.45E-05	4.45E-05	0.000133189	0.000133189	0.000133189	0.000133189	0.000133189	0.00033125	0.00033125	0.00033125	0.00033125	0.00033125	0.00069381	0.00069381	0.00069381	0.00069381	0.00069381	0.00110309	0.00110309	0.00110309	0.00110309	0.00110309	0.001366619	0.001366619	0.001366619	0.001366619	0.001366619	0.001487342	0.001487342	0.001487342	0.001487342	0.001487342
Peptic ulcer disease	Pepud	1.11E-07	1.11E-07	1.11E-07	1.11E-07	1.11E-07	2.18E-07	2.18E-07	2.18E-07	2.18E-07	2.18E-07	3.93E-07	3.93E-07	3.93E-07	3.93E-07	3.93E-07	6.92E-07	6.92E-07	6.92E-07	6.92E-07	6.92E-07	1.18E-06	1.18E-06	1.18E-06	1.18E-06	1.18E-06	2.16E-06	2.16E-06	2.16E-06	2.16E-06	2.16E-06	3.93E-06	3.93E-06	3.93E-06	3.93E-06	3.93E-06	6.78E-06	6.78E-06	6.78E-06	6.78E-06	6.78E-06	1.02E-05	1.02E-05	1.02E-05	1.02E-05	1.02E-05	1.43E-05	1.43E-05	1.43E-05	1.43E-05	1.43E-05	2.09E-05	2.09E-05	2.09E-05	2.09E-05	2.09E-05	3.41E-05	3.41E-05	3.41E-05	3.41E-05	3.41E-05	6.06E-05	6.06E-05	6.06E-05	6.06E-05	6.06E-05	0.000108469	0.000108469	0.000108469	0.000108469	0.000108469	0.000197536	0.000197536	0.000197536	0.000197536	0.000197536	0.000340466	0.000340466	0.000340466	0.000340466	0.000340466	0.00060308	0.00060308	0.00060308	0.00060308	0.00060308
Peripheral artery disease	Per_art	0	0	0	0	0	0	0	0	0	0	0	0	0	0	0	0	0	0	0	0	0	0	0	0	0	1.51E-06	1.51E-06	1.51E-06	1.51E-06	1.51E-06	2.90E-06	2.90E-06	2.90E-06	2.90E-06	2.90E-06	5.66E-06	5.66E-06	5.66E-06	5.66E-06	5.66E-06	1.09E-05	1.09E-05	1.09E-05	1.09E-05	1.09E-05	2.02E-05	2.02E-05	2.02E-05	2.02E-05	2.02E-05	3.58E-05	3.58E-05	3.58E-05	3.58E-05	3.58E-05	6.54E-05	6.54E-05	6.54E-05	6.54E-05	6.54E-05	0.000118578	0.000118578	0.000118578	0.000118578	0.000118578	0.00022362	0.00022362	0.00022362	0.00022362	0.00022362	0.000456367	0.000456367	0.000456367	0.000456367	0.000456367	0.000961036	0.000961036	0.000961036	0.000961036	0.000961036	0.002183471	0.002183471	0.002183471	0.002183471	0.002183471
Rheumatic heart disease	Rhd	5.49E-07	5.49E-07	5.49E-07	5.49E-07	5.49E-07	1.23E-06	1.23E-06	1.23E-06	1.23E-06	1.23E-06	2.26E-06	2.26E-06	2.26E-06	2.26E-06	2.26E-06	3.13E-06	3.13E-06	3.13E-06	3.13E-06	3.13E-06	4.05E-06	4.05E-06	4.05E-06	4.05E-06	4.05E-06	5.82E-06	5.82E-06	5.82E-06	5.82E-06	5.82E-06	8.48E-06	8.48E-06	8.48E-06	8.48E-06	8.48E-06	1.26E-05	1.26E-05	1.26E-05	1.26E-05	1.26E-05	2.00E-05	2.00E-05	2.00E-05	2.00E-05	2.00E-05	2.79E-05	2.79E-05	2.79E-05	2.79E-05	2.79E-05	4.57E-05	4.57E-05	4.57E-05	4.57E-05	4.57E-05	7.68E-05	7.68E-05	7.68E-05	7.68E-05	7.68E-05	0.000120569	0.000120569	0.000120569	0.000120569	0.000120569	0.000210272	0.000210272	0.000210272	0.000210272	0.000210272	0.000362158	0.000362158	0.000362158	0.000362158	0.000362158	0.000627464	0.000627464	0.000627464	0.000627464	0.000627464	0.001118644	0.001118644	0.001118644	0.001118644	0.001118644
Rheumatoid arthritis	Ra	1.10E-07	1.10E-07	1.10E-07	1.10E-07	1.10E-07	1.64E-07	1.64E-07	1.64E-07	1.64E-07	1.64E-07	2.35E-07	2.35E-07	2.35E-07	2.35E-07	2.35E-07	3.34E-07	3.34E-07	3.34E-07	3.34E-07	3.34E-07	5.03E-07	5.03E-07	5.03E-07	5.03E-07	5.03E-07	1.07E-06	1.07E-06	1.07E-06	1.07E-06	1.07E-06	2.36E-06	2.36E-06	2.36E-06	2.36E-06	2.36E-06	4.11E-06	4.11E-06	4.11E-06	4.11E-06	4.11E-06	7.20E-06	7.20E-06	7.20E-06	7.20E-06	7.20E-06	1.40E-05	1.40E-05	1.40E-05	1.40E-05	1.40E-05	2.46E-05	2.46E-05	2.46E-05	2.46E-05	2.46E-05	4.31E-05	4.31E-05	4.31E-05	4.31E-05	4.31E-05	6.97E-05	6.97E-05	6.97E-05	6.97E-05	6.97E-05	0.000102931	0.000102931	0.000102931	0.000102931	0.000102931	0.000132027	0.000132027	0.000132027	0.000132027	0.000132027	0.000153136	0.000153136	0.000153136	0.000153136	0.000153136	0.000159384	0.000159384	0.000159384	0.000159384	0.000159384
Self-harm	Self	4.13E-05	4.13E-05	4.13E-05	4.13E-05	4.13E-05	5.55E-05	5.55E-05	5.55E-05	5.55E-05	5.55E-05	6.79E-05	6.79E-05	6.79E-05	6.79E-05	6.79E-05	7.75E-05	7.75E-05	7.75E-05	7.75E-05	7.75E-05	8.92E-05	8.92E-05	8.92E-05	8.92E-05	8.92E-05	0.000103268	0.000103268	0.000103268	0.000103268	0.000103268	0.000118459	0.000118459	0.000118459	0.000118459	0.000118459	0.000116484	0.000116484	0.000116484	0.000116484	0.000116484	0.000102197	0.000102197	0.000102197	0.000102197	0.000102197	7.59E-05	7.59E-05	7.59E-05	7.59E-05	7.59E-05	5.91E-05	5.91E-05	5.91E-05	5.91E-05	5.91E-05	5.00E-05	5.00E-05	5.00E-05	5.00E-05	5.00E-05	4.55E-05	4.55E-05	4.55E-05	4.55E-05	4.55E-05	4.51E-05	4.51E-05	4.51E-05	4.51E-05	4.51E-05	4.88E-05	4.88E-05	4.88E-05	4.88E-05	4.88E-05	5.19E-05	5.19E-05	5.19E-05	5.19E-05	5.19E-05	6.13E-05	6.13E-05	6.13E-05	6.13E-05	6.13E-05
Stomach cancer	Stomach	1.47E-07	1.47E-07	1.47E-07	1.47E-07	1.47E-07	7.16E-07	7.16E-07	7.16E-07	7.16E-07	7.16E-07	2.13E-06	2.13E-06	2.13E-06	2.13E-06	2.13E-06	4.64E-06	4.64E-06	4.64E-06	4.64E-06	4.64E-06	8.04E-06	8.04E-06	8.04E-06	8.04E-06	8.04E-06	1.20E-05	1.20E-05	1.20E-05	1.20E-05	1.20E-05	1.83E-05	1.83E-05	1.83E-05	1.83E-05	1.83E-05	2.79E-05	2.79E-05	2.79E-05	2.79E-05	2.79E-05	3.90E-05	3.90E-05	3.90E-05	3.90E-05	3.90E-05	5.28E-05	5.28E-05	5.28E-05	5.28E-05	5.28E-05	7.84E-05	7.84E-05	7.84E-05	7.84E-05	7.84E-05	0.000120232	0.000120232	0.000120232	0.000120232	0.000120232	0.000195054	0.000195054	0.000195054	0.000195054	0.000195054	0.000332301	0.000332301	0.000332301	0.000332301	0.000332301	0.000398102	0.000398102	0.000398102	0.000398102	0.000398102	0.000559255	0.000559255	0.000559255	0.000559255	0.000559255	0.000815289	0.000815289	0.000815289	0.000815289	0.000815289
Thyroid cancer	Thyr	1.07E-07	1.07E-07	1.07E-07	1.07E-07	1.07E-07	1.54E-07	1.54E-07	1.54E-07	1.54E-07	1.54E-07	2.84E-07	2.84E-07	2.84E-07	2.84E-07	2.84E-07	4.82E-07	4.82E-07	4.82E-07	4.82E-07	4.82E-07	6.63E-07	6.63E-07	6.63E-07	6.63E-07	6.63E-07	1.21E-06	1.21E-06	1.21E-06	1.21E-06	1.21E-06	2.15E-06	2.15E-06	2.15E-06	2.15E-06	2.15E-06	3.48E-06	3.48E-06	3.48E-06	3.48E-06	3.48E-06	6.33E-06	6.33E-06	6.33E-06	6.33E-06	6.33E-06	9.97E-06	9.97E-06	9.97E-06	9.97E-06	9.97E-06	1.49E-05	1.49E-05	1.49E-05	1.49E-05	1.49E-05	2.19E-05	2.19E-05	2.19E-05	2.19E-05	2.19E-05	3.09E-05	3.09E-05	3.09E-05	3.09E-05	3.09E-05	4.12E-05	4.12E-05	4.12E-05	4.12E-05	4.12E-05	5.41E-05	5.41E-05	5.41E-05	5.41E-05	5.41E-05	6.97E-05	6.97E-05	6.97E-05	6.97E-05	6.97E-05	7.71E-05	7.71E-05	7.71E-05	7.71E-05	7.71E-05
Uterine cancer	Uterine	9.87E-08	9.87E-08	9.87E-08	9.87E-08	9.87E-08	1.03E-07	1.03E-07	1.03E-07	1.03E-07	1.03E-07	3.13E-07	3.13E-07	3.13E-07	3.13E-07	3.13E-07	1.47E-06	1.47E-06	1.47E-06	1.47E-06	1.47E-06	3.45E-06	3.45E-06	3.45E-06	3.45E-06	3.45E-06	6.84E-06	6.84E-06	6.84E-06	6.84E-06	6.84E-06	1.42E-05	1.42E-05	1.42E-05	1.42E-05	1.42E-05	2.82E-05	2.82E-05	2.82E-05	2.82E-05	2.82E-05	5.53E-05	5.53E-05	5.53E-05	5.53E-05	5.53E-05	0.000107928	0.000107928	0.000107928	0.000107928	0.000107928	0.000148929	0.000148929	0.000148929	0.000148929	0.000148929	0.000185288	0.000185288	0.000185288	0.000185288	0.000185288	0.000218971	0.000218971	0.000218971	0.000218971	0.000218971	0.000248562	0.000248562	0.000248562	0.000248562	0.000248562	0.000283976	0.000283976	0.000283976	0.000283976	0.000283976	0.000322057	0.000322057	0.000322057	0.000322057	0.000322057	0.000396017	0.000396017	0.000396017	0.000396017	0.000396017
Prostate cancer	Prostate	NA	NA	NA	NA	NA	NA	NA	NA	NA	NA	NA	NA	NA	NA	NA	NA	NA	NA	NA	NA	NA	NA	NA	NA	NA	NA	NA	NA	NA	NA	NA	NA	NA	NA	NA	NA	NA	NA	NA	NA	NA	NA	NA	NA	NA	NA	NA	NA	NA	NA	NA	NA	NA	NA	NA	NA	NA	NA	NA	NA	NA	NA	NA	NA	NA	NA	NA	NA	NA	NA	NA	NA	NA	NA	NA	NA	NA	NA	NA	NA	NA	NA	NA	NA	NA